*** Life<Cell> 33x20 ***

Generation = 0, Population = 38.
---0-0-------0------
-------0-----0---0--
---------------0----
--------------------
--------------------
-----0--------------
--------0-----00----
--------------0-----
----------------0---
---------0-------0--
------0-------------
--------------0-----
--------------------
--------------------
-----0--------------
0--------0------0---
---------------0--0-
-----------0--------
--------------------
--------------------
--------------------
-----0--------------
--------------------
-----------------0--
0-------------------
------------------0-
--0-----------------
-0-----0------------
--------------------
----0-------------0-
---0----------------
----0-----------0---
---------0-------0--

Generation = 1, Population = 117.
--0---00----010--0--
---0-00-0---01000-0-
-------0-----00-00--
---------------0----
-----0--------------
----0-0-0-----00----
-----0-0-0---0-10---
--------0----01-0---
---------0----00----
------0-0-0-------0-
-----0-0-0----0--0--
------0------0-0----
--------------0-----
-----0--------------
0---0-0--0------0---
-0---0--0-0------00-
0--------0-0--0--0-0
----------0-0--0--0-
-----------0--------
--------------------
-----0--------------
----0-0-------------
-----0-----------0--
0---------------0-0-
-0---------------00-
0-0--------------0-0
---0---0----------0-
0-----0-0-----------
-0--0--0----------0-
-----0-----------0-0
--0-0-----------0-0-
-----0---0-----0----
----0---0-0-------0-

Generation = 2, Population = 111.
-0-----1---0-*------
-----1---0-0-------0
---0-0-----------1--
-----0-0-----0---0--
--------0-----0-----
---0---0------1-----
------0---0-01---0--
-----0---0--0---10--
------0-0------1--0-
-------0---0---0---0
----0---0-------0---
---------0--0---00--
-----00-------------
0--------0----0-0---
---0---0-------0--0-
0-0----0------0---1-
-----0-------0--01--
0------------0--0---
---------------0--0-
-----0-----0--------
--------------------
---0---0---------0--
0-------------------
-----0---------0--10
0-------------------
-0-----0--------01--
----0---------------
---000---0----------
--00----------------
-00-0-00------------
-0---0---0-------0--
--0-0-0-------0-----
---0---0-0-0---0-0-0

Generation = 3, Population = 234.
0-0--00-0001-.0----0
-0-00*000--101---00-
--0---00-0-0-0--0*00
---001------0---010-
---0-0-0-0----10-0--
--0-0-----0-0-*0-0--
---0---------*---10-
----0-0----01---*---
-------0---00-0*----
----0---0-0-0-01----
---0-0-----00---1--0
----000---00-0-0-10-
0---0110----0-0--0--
-0-0-0000-0--0-0-00-
----0-0100----0--010
-----0010-------0-*0
--0-0-00----01-0-*--
-0---0------010-1-0-
0----0-----0-00--0-0
----0-0---0-0--0--0-
---0-0-0---0-----0--
0-0-0-0-0-------0-0-
-0-0-0-0-------0-000
----0-0-------0-00*1
-----0-0-------00000
--0-0-0-0------01*0-
-0--1--0-0------00--
----110-0-0---------
----0000-0----------
0--0-01100-------0--
010-0-000-0---0-0-0-
---0-0-----0-0-----0
------------0-------

Generation = 4, Population = 127.
-0-----1-----*-0-0--
---1-.-1-0-*-------0
---0-0--0--1-100-.-1
--------------0-----
---1-1-------0--0---
-0-----0-----0.-----
----0-0---000*-1--10
----------0---1-*-0-
------------1--.----
-------------------0
--0--1--0-0---00----
0--------01---0-0-1-
---------------00-0-
---------0-0-----1--
-0----1--1----------
--0-01------000---.-
-----------0--0--.00
-----1-0-------0----
-----1--------------
0--------0------00--
0--------------0--0-
-0-------0-0------1-
--0-----------------
-0-----0-----0----.*
--0-0---------------
----10--------0--.--
0--0--0-------------
-0-0**-----0----00--
0--------1-------0--
1-------1-----0-----
--1----1-0-------0--
00--0--00---0---0---
---0-0-------------0

Generation = 5, Population = 266.
0-00--0*00-10.----00
-00*0.0*0--.0-0--001
--01--0---0*-*110.0*
--------0--0-01-0--0
-00---00----01-0-0--
0-0000--0-00--.00-00
-0-0-----0---*0--1-1
----0-0--01----0.-1-
----------00-00.0-00
--0--0--0-0-0-01--0-
00-00-00-010-0-1--00
-00--0---1-0-01-1-*0
0---------00---1-010
-0----0-01--0--0----
0---0--10*00000--0--
----1*---0--1--0--.0
--0-0--0--0---1--.11
----0*--0--0----1-00
0---0*00-0-----000--
10---0--0-0-----11--
1----------0--0---10
--------0---0--0-0*0
-0-0---0-0-0-0----00
0-0-0-0-0---0-0---..
----1--0-----00----0
0-0--1-------0-0-.--
--0110-0---0--0-00--
0---**---00-0--01-0-
1--000----00--0--10-
*00------0---0-0----
---00-0*--0-0-0---0-
11----0-1--0-0-0---0
000-0-000---0---0-0-

Generation = 6, Population = 262.
-0---0-.11-*-*0-----
-1-.1.1.--0.111--1-*
-----01--01*0.---.-.
-0-0-----0-101--1--1
-1--0-110-001-11----
---1-1---011--.-1-1-
--01000--1000.11---*
-0-----00-----1-*-*0
--0-000-0-1111-.--11
0--------0-------0-0
1--11-110-*-01-*-01-
0-1----00*----*--1.1
-00--11-001--0-*01*-
0-0-00-0--001--10-00
---01--*1.----100-10
0-00**0--10-*-0-00.1
-0---00-----01--0*-*
0-001.-0----0-0-*0--
1--0-.-1---0--01---0
*10--1---0----0----0
*----0-------0--00--
00-0-------0-----1.1
--0------------0----
-0-01---------10--**
---0*-------------0-
--1-1*0----001---.-0
-0--*1--00-------1--
1000..0001---001--10
---11-0--1-1---0-*-0
*-10-0111-00----00--
---11--*---0---0-0--
---0-0--*0----0---0-
-11------0----------

*** Life<Cell> 54x41 ***

Generation = 0, Population = 63.
---0------------0------------------------
-----------------------------------------
-----------------------------------------
-------------------------------------0---
---------------------------------------0-
-----------------------------------------
-----------------------------------------
-0------0--------------------------------
-----------------------------------------
-----------------------------------------
--------------------0--------------------
---0----------0-------0------0-----------
-------------------------0---------------
0----------------------------------------
------0--0-----0-------------0-----------
-----------0--0-----0------------0-------
-------------------------0-0-------------
-----------0---------------0-------------
---------0-------------------------------
----------------0----------------------0-
0----------------------------------------
--0-------0------------------------------
--0--------------------------------------
-------------------------------0----0----
-----------------------------------------
---------------------------0-------------
-----------------------------------------
-----------------------------------------
--------------------------0--------------
------------------------0----------------
-----------------------------------------
-----------------------------------------
-----------------------------------------
--------------------------0--------------
--0-----------------0--0-----------0-----
-----------------------------------------
-----------------------------------------
--------------------0--------------------
---------00------------------------------
-------------------0---------------------
-----------------------------------------
---0----------0--------0----------0------
-----------------------------------------
-------0---------------------------------
-----------------------------------------
-----------------0----------------------0
-----------------------------0-----------
-----------------------------0-----------
---------0----------0------------0-------
---------0-------------------------------
------------------------0----------0-----
-----------------------------------------
----------------------------0------------
-------------------------------------0---

Generation = 1, Population = 238.
--0-0----------0-0-----------------------
---0------------0------------------------
-------------------------------------0---
------------------------------------0-00-
-------------------------------------00-0
---------------------------------------0-
-0------0--------------------------------
0-0----0-0-------------------------------
-0------0--------------------------------
--------------------0--------------------
---0----------0----0-00------0-----------
--0-0--------0-0----00-0-0--0-0----------
0--0----------0-------0-0-0--0-----------
-0----0--0-----0---------0---0-----------
0----0-00-00----0---0-------0-0--0-------
------0--00-00-----0-0---0-0-0--0-0------
--------------0-----0---0--10----0-------
---------00-0------------0010------------
--------0-00----0----------0-----------0-
0--------0-----0-0--------------------0-0
-00-------0-----0----------------------0-
0010-----0-0-----------------------------
-010------0--------------------0----0----
--0---------------------------0-0--0-0---
---------------------------0---0----0----
--------------------------0-0------------
---------------------------0-------------
--------------------------0--------------
------------------------00-0-------------
-----------------------0-00--------------
------------------------0----------------
-----------------------------------------
--------------------------0--------------
--0-----------------0--0-0-0-------0-----
-0-0---------------0-00-0-0-------0-0----
--0-----------------0--0-----------0-----
--------------------0--------------------
---------00--------0-0-------------------
--------0110-------00--------------------
---------00-------0-0--------------------
---0----------0----0---0----------0------
--0-0--------0-0------0-0--------0-0-----
---0---0------0--------0----------0------
------0-0--------------------------------
-------0---------0----------------------0
----------------0-0----------0---------0-
-----------------0----------010---------0
---------0----------0-------010--0-------
--------010--------0-0-------0--0-0------
--------010---------0---0--------0-0-----
---------0-------------0-0--------0-0----
------------------------0---0------0-----
---------------------------0-0-------0---
----------------------------0-------0-0--

Generation = 2, Population = 230.
-0-0-0--------0-0-0----------------------
-------------------------------------0---
---0------------0----------------------0-
-----------------------------------0---1-
-------------------------------------1---
-0------0----------------------------0---
---------------------------------------0-
---0--0---0------------------------------
--------------------0--------------------
-0-0----0-----0-------0------0-----------
------------------0---1--0---------------
00---0------0---0---1---0--0---0---------
------0--0-----0----0--0---0-1-----------
0-00-------0--------0-0------1---0-------
----0--11--1-0---0-------------0---------
0--------1-011--0-0---0----1---0---0-----
------0--------0-------0-0-*-------------
---------1-0-00-0---0----1---0---0-----0-
0------0---1-------------0-1-------------
--0-------00--0---0--------0---------0---
0--------0-------------------------------
1---0---0---0---0--------------0----0--0-
----0------------------------------------
--1-------0----------------0-0---00---0--
--0--------------------------------------
-------------------------0---0-0----0----
--------------------------0--------------
------------------------0--0-------------
------------------------1---0------------
----------------------0---1--------------
--------------------------0--------------
------------------------0-0--------------
--0-----------------0--0-----------0-----
------------------------0---0------------
0---0-------------0--11--0-------0---0---
--------------------1-----0--------------
--0------00---------1--0-----------0-----
------------------01--0------------------
-------01--10----------------------------
---0----------0--0--10-0----------0------
---------00------------------------------
-0---0-0----0---0--0-0---0------0---0----
-----------------------------------------
---0-0---0----0--0-----0----------0-----0
-----------------------------0-----------
-------0-------0---0---------1--------0-0
---------0----------0------0---0-0-------
---------1-------0---------0---0--------0
-------0---0------0---0-0----1-0---------
-------0---0-----------------0-----------
---------1----------0-0---0-0--------0---
---------0---------------------------0---
------------------------0-0---0----0-----
-----------------------------------0-0-0-

Generation = 3, Population = 670.
0-----0------0-----0-----------------0---
-0---0--------0---0-----------------0-00-
--0-0----------0-0-----------------0-0010
---0------------0-----------------0-000*0
-0------0--------------------------00*00-
0-0----0-0--------------------------0100-
-0-0--0-0-0--------------------------00-0
--0-00-0-0-0--------0------------------0-
-0----0-0-0---0----0-00------0-----------
0---0--0-0---0-0--0-0010-0--0-0----------
0--0-0--0---0-0-00-000*0--00-0-0---------
110-0----0-0-0---000*00---01000-0--------
-000---00-000-0----0-0----01-*00-0-------
--11--00000100-0-0-01------00*000-0------
--0--00**-0-010-----0------0-00100-0-----
-0--0-00------0--0-0-0---00*0-010-0-0----
0----0-0----0---0-0-0----1-.00-0-0-0---0-
0-----000--1-110-0-0-0-00-0-0-0-0-0---0-0
-00---0-00--00--0-0-0---01-*00---0---0-0-
-0-0---0--1-00-0-0-0-----0010-------0-0--
100-0------00-0-0-0--------0---0----00-0-
*0-010-0---0-0-0-0------------0-0--0-00-0
0-1010--0-0-0---0----------0-0-0-00-0-00-
-0*00----0-0--------------0---0-0110-0-0-
-010------0--------------0-0---0-00-0-0--
--0---------------------0---0---0--0-0---
------------------------0----0-0----0----
-----------------------010---------------
----------------------00*00--0-----------
---------------------0-000*00------------
----------------------0-00-0-------------
--0-----------------0-----10-------0-----
-0-0---------------0-00-0-0-0-----0-0----
0-0-0-------------0-000----0-0---0-0-0---
-0-0-0-----------0-0-**0----0---0-0-0-0--
0-0-0----00-------00*-00---0-----0-0-0---
-0-0----0110------0-*0--0-0-------0-0----
--0----000000----01*-0-------------0-----
---0--01*11*100--0000000----------0------
--0-0--0000000-00-00*1--0--------0-0-----
-0-0-0-001100-0-00-00--0-0------0-0-0----
0-0-0---0000-0-0-00---0-0-0----0-0-0-0---
-0-0---0-0--0-0-00-0-0-0-0------0-0-0---0
--0---0-0-0--0-00-0---0-0----0---0-0---0-
---0-0-0-0----00-0-0---0----010---0---0--
------0-00----0-0-0--------00*00-0---0---
-------0010----0-0---0----010101--0---0--
-------00*00----0---0-0-0-01010-00-----0-
------0101010------0-0---0-00*-10-------0
------0101010-----0-0---0-0--100-----0---
-------00*00-------0---0-0----------010--
--------010---------0-0-0---0-0----0010--
---------0-------------0---0-0-0--010--0-
------------------------0-0---0---01----0

Generation = 4, Population = 228.
-------0----0-------0------------------0-
-----------------------------------------
---0------------0------------------------
-0------0------------------------0-----.-
---0------------0------------------1-.-1-
-----------------------------------------
--------------------0--------------------
-0-011------0-0-------0------0-------0---
-------------------------0-------------0-
1----------------------------------------
------0--0-----01-----.-0----1-----------
-*-----00-01--0-----.----01--------------
---------------------1---0-*-.-----------
--*-0------*---------------1-.-----------
--1--1-..011-*-----01----0-------1-------
---0---1--0---10--0---0-0--.---------0-0-
1--------------------0-0-*0.11-1---------
1-0----1--0----1-------1---1---0---------
--1--01--1---1-0-----------.-1-----------
-----------01-0----------------0-0-01--0-
--1-1--------------------0-1-------------
.----------1--0--------------------------
1-----0--0-------------------------------
--.-------------0----------0----1--1---10
0-------------------------0--------------
--1-------0------------01------0---------
--0--------------------------------------
-------------------------------0----0----
----------------------1-.-----0----------
--------------------0-----.11------------
--0-----------------0--0-----------0-----
-----------------------------------------
--------------------------1--------------
--------------------1-1-0-----0----------
0-----0--00-----0--1-..-0--0---0-------0-
-------------------1.--------------------
--------------------.--------------------
---0----------0-0--.---00-0-------0------
--0--01-.--.-11-----1--1-----------0-----
-------1-------1----.--0-----------------
-----------------------------------------
-------0--1------1100------0--0-------0-0
---------10------------------0-----------
---0-------0-------0---------1-----------
---------1----------0------------0-------
---0-----1---01------0-0-----.----0-0-0--
------------------------00-------0-0-----
-------1-.---------------0-------1-------
-----0-------0--0-------0---1.-------0---
-----0-------0---0-------------------1--0
---------.----------0-------00-0-------0-
-----------------------------0-------*---
---------1----------0---0---0---00-------
---------0-----------------------0-------

*** Life<Cell> 25x46 ***

Generation = 0, Population = 49.
-------0-----------------0--------------------
----------0-----------------------------------
------0----0---------------------------------0
--------------0-------------------------------
-------0---0------------0----------0------0---
-------0----------0-------------------0-------
-----------------------------0----------------
----------------------------------------------
--------------------------0--0--0-------------
------------------0----------0----------------
-------------------------------------------0--
---0---0---0------------------0---------0-----
----------------------0-----------------------
---------------------------------0------------
--------0-------------------------------------
----------------0-----------------------------
--------0--------------------0------0---------
-0--------------------------------------------
---0-----0----------------0-------------------
----------------------------------------------
0----------00---------------------------------
------0---------------------------------------
-------0---------------------------0----------
----------0-----------------------------------
-----------------------0-----------0--------00

Generation = 1, Population = 171.
------0-0-0-------------0-0-------------------
------00-0---------------0-------------------0
-----0-0----0-0-----------------------------0-
------00-----0-0--------0----------0------0--0
------010-0-0-0---0----0-0--------0-0-0--0-0--
------010--0-----0-0----0----0-----0-0-0--0---
-------0----------0---------0-0-------0-------
--------------------------0-----0-------------
------------------0------0-00100-0------------
-----------------0-0------0-010-0----------0--
---0---0---0------0----------00---------0-0-0-
--0-0-0-0-0-0---------0------0-0-------0-0-0--
---0---0---0---------0-0------0--0------0-----
--------0-------------0---------0-0-----------
-------0-0------0----------------0------------
---------------0-0-----------0------0---------
-0-----0-0------0-----------0-0----0-0--------
0-00----00----------------0--0------0---------
-00-0---0-0--------------0-0------------------
0--0-----0-00-------------0-------------------
-0----0---0110--------------------------------
0----0-----00----------------------0----------
--------0-0-----------------------0-0---------
-------0-0-0-----------0--------------------00
----------0-----------0-0---------0-0------011

Generation = 2, Population = 174.
-----010-0-0-----------0-0-0-----------------0
--------0---0-0-------------------------------
----0---00-0-0----------00---------0------00-0
-------1--0-0---0-0-------------------0-------
-----01----0-0--------0---0--0---0---0--0---00
-----0---0----0-0---0---------------0---0-----
-------1---0------------0-00-0-00--0------0---
-------0---------------------0--------0-------
------------------------0--11*11--0--------0--
---0---0---0----0---0------0--10--------0-----
----------------------0---0--1--0--------0---0
-0-----------0----0---------01--00----0---0---
--------0-----------0---0------------------0--
---0---0---0----0-------------00---0----0-----
------0-0-0-----------0------0------0---------
-0------------0---0--------------0------------
---0--0-010---------------00---0--0---0-------
---1------------0-----------------------------
01---0-01---0-----------0---00------0---------
-0----0---------------------------------------
0-00---0--1--10-----------0--------0----------
----0---0-0-----------------------------------
0----0---0-00----------0---------0-0-0------00
------0-0---0---------------------------------
-------0-------------0-0-0-------0---0----01*-

Generation = 3, Population = 398.
----01-10-----0-------0-----0---------------0-
----000-10-0-0-0-------00--0-------0------00--
---0-0---10-----0-0----0110-------0-0-0--011--
----00-------0-0---0--0-000--0---0-0---00-000-
----0-*--0--0-----0-00-0-0-00-0-0-0----010-011
----01-10-0------0-0-00-0--0---000-----0100-00
-----00*000-0-0-0---0--0--11-1-1100---0-00-0--
------010--0--------------0-----0-00-0-0--00--
---0-------0----0---0--0-00--.*-00-0--0-0-0-0-
--0-0-0-0-0-0--0-0-0-00-0--1-1----0----0---0-0
-0-0---0---0-0--0-0-00-0-0---*--1-----0-----0-
0-0-----0---0-0--0-00-0-0-001-00-10--0-0-----0
-0-0-----0-0-0--0-00-0-0-0--000000-0--0-0---0-
--0-0---0---0--0-0--0-0-0-----110-0----0-0-0--
-0-0-0-0------0-0-0--0-0----0--0-0---0--0-----
0-00-----0---0-0-0-0--0---00-0-00---0-0-------
-00100--1-10--0-0-0------0110-0-0--0-0-0------
000*0000-00-0--0-0------0-0000-0--0-0-0-------
1-000-01*0-0-0--0------0-0-0110----0-0--------
01-0---00-0-000---------0-0-00-----00---------
-011-----0*11*10---------0-0------0-0---------
--0------01-000--------0--0------0---0------00
-0------0-01-0--------0-0-------0-----0----011
0------0----10-------0---0---------0------00-0
------------0-------0-----0-----0-0-0-0--01-.1

*** Life<Cell> 16x15 ***

Generation = 0, Population = 59.
--0--0--0------
---------0-----
-0--00-----000-
--0-00-0----0--
---0-0---------
--000------00--
--0------------
---000------0--
-----000-----0-
----------00---
-0--------00-0-
-0-0---0-0----0
0-0-----0----0-
-0--0--0--0----
----00----000--
--00----0--0---

Generation = 1, Population = 99.
-0-00-00-------
-00-0-----0000-
0--0--00-001110
---0-1--0---1--
--01-100---0---
-0-11-----0110-
-010-0-----0---
---1---0---0---
---0---10-00--0
-0---000-0--0--
0100---0-------
-10-0-0-0--0-0-
----0--0--0-0--
---01-0--01-00-
-00--10000-110-
-011-0-0-0-1---

Generation = 2, Population = 130.
0101--110-0000-
--1-10-----11--
---1--11011*-*1
0----*00--00*-0
--1*0--1---100-
01-**000-01--10
0--10-00-----0-
-0--0001----0-0
-00100-*101--0-
-1--01-10----00
1-11-001-0-000-
---01----0--0-0
-00--00---1010-
-0-1-010---01-0
0--0--11-10-*-0
0-**-10101-*-0-

Generation = 3, Population = 136.
1-1*--*-1-11110
0-*-*10--00*-00
0----0-*--*.-.-
-00--*11----.-1
--*.-10-000-1-0
-*0..-11-1*--*1
101-1-11000--10
-1-1111*-000---
01---10.*-*0-10
-*00-*0*-000-11
-1*-----01-11-0
010-*0-001-0---
0-10------*1-10
-10*----001-*01
1---01**0-1-.01
1-**-*1*--0*0--

Generation = 4, Population = 109.
*--*--*--0-*-*-
--*0**---1-.1--
1------*0-**-*-
-1-00.*--0--.0*
-0.*0-1-11---0-
-.1..-*--*.1-.*
*--1*0*---1-0--
0-0***-.----0--
1*---*1..-.1---
-.11-*1.--110-*
-*.-0-01-*0**01
-*10*1-11-0--0-
1-*--0-0-0.-1--
0*1.-01---*0.-*
*--01*..-1--.--
*-.*0.*.-1-*1-0

Generation = 5, Population = 107.
.1-*--.111-.1.0
-0*1**-0-*-.-0-
--0--0-*1-**1*-
-*---.*-01-0.1*
01..----**01110
0*-..-*1-*.--*.
.01-.1*1---0110
-11...1.--0-10-
-.0--.-..-**0-0
0.**0.*.-----1*
1*.11---0.-..1-
-.*-.-0**-1-01-
*-.---010-.---0
1.-.-1*--0*1.0.
*---*...0*--*--
.0.*-...0*-.*--

Generation = 6, Population = 86.
.*1*-0*---1.-*-
0-.*.*---.-.11-
-01--11.--.*-.-
-*---.*11---.*.
-**.----..-*---
-.-..-.-0*.-1..
.1-1.*.-00-1*-1
0-**.***-01-*-0
1.--0*-..0*.--1
1...-*..0-11--*
-..--0--1*0..--
-.*-.1-..---1--
.0.---1*--.111-
-*-.-**-0-***-.
*---**.*-.--*--
.-..-...-*0..0-

*** Life<Cell> 27x38 ***

Generation = 0, Population = 34.
---------0--0---------------------0---
-----------0-------------------0---0--
--------------------------------------
-0---0--------------------------------
-------------------------------0------
-----0---------------0----------------
--------0-0-------------------0---0---
--------------------0------0----------
------0-------0------------------0----
---------------------0----------------
-----0---0----------------------------
-----0--------------------------------
--------------------------------------
----------0---------------------------
--------------------------------------
---------------------0----------------
---------0----------------------------
--------------------------------------
--------------0-----------------------
--------------------------------------
---------------0------------0---------
--------------------------------------
-------------------------------00-----
--------------------------------------
0---------------------------0---------
--------------------------------------
--------------------------------------

Generation = 1, Population = 120.
--------0-0--0-----------------0-0----
---------00-------------------0-0---0-
-0---0-----0-------------------0---0--
0-0-0-0------------------------0------
-0-------------------0--------0-0-----
----0-0-0-0---------0-0-------00--0---
-----0-0---0--------00-----0-0-0-0-0--
------0-0-0---0----0-0----0-0-0--00---
-----0-0-----0-0----00-----0----0-0---
-----00--0----0-----0-0----------0----
----010-0-0----------0----------------
----010--0----------------------------
-----0----0---------------------------
---------0-0--------------------------
----------0----------0----------------
---------0----------0-0---------------
--------0-0----------0----------------
---------0----0-----------------------
-------------0-0----------------------
--------------00------------0---------
--------------0-0----------0-0--------
---------------0------------0--00-----
------------------------------0110----
0---------------------------0--00-----
-0-------------------------0-0--------
0---------------------------0---------
--------------------------------------

Generation = 2, Population = 116.
-------0-0100-0-----------------0-0-0-
-0---0---1---0---------------0-------0
---------0--0------------------1--0---
-----0-0---0---------0---------1---0--
--------0-0------------------01--00---
-0-0-0-0-----------01--0---0----------
--------0-0-0-0-------------0--1-1--0-
-----0------------0---0--0---0--------
----01---00-0---0-------------00--10--
-----1-------------01--0---0----------
---0--1----0--0------------------0----
---0---0--0----------0----------------
-----1---0----------------------------
-----0--0---0--------0----------------
---------0----------------------------
----------0--------0---0--------------
-------0---0--0-----------------------
---------------------0----------------
---------0--0--10-----------0---------
--------------------------------------
-------------01--0--------0---000-----
--------------------------------------
0--------------0-------------01--10---
--------------------------------------
0-0-----------------------0---000-----
--------------------------------------
0---------------------------0---------

Generation = 3, Population = 293.
-0---00-----10-0-------------0-0------
0-0-0-000--00---------------0-000-----
-0-----0010----------0-------00*00---0
----0----0----------0-0------0-*000-0-
-0-0---0-----------000-0---001*-011---
0-------0---0-0---01*00-0-0--000--0-0-
-0-0-----------0--000-00-0----0---00-0
-----10-00----0-00-0-0-00-0------0000-
---01*0-011--0-0-0000-00-0-0--1100*10-
---0-*---0000-0-0-01*00-0-0-0-00-000--
--010-------00-0---000-0---0----0-0---
--0101--0-----0-----0-0----------0----
---00*00----0-------------------------
----0100-0-0-0------0-0---------------
-----0------0------0-0-0--------------
-------0------0---0-0-0-0-------------
------0-0---00-0---0-0-0--------------
-------0-0-00-000---0-0-----0---------
--------0-00-00*10---0-----0-0--------
---------0--000000--------0-0-000-----
------------01*00-0------0-0-01-10----
0------------000-0--------0--0-0000---
-0------------0-0-----------01*11*10--
--0------------0----------0--0-0000---
---0---------------------0-0-01-10----
--0-----------------------0-0-000-----
-0-------------------------0-0--------

Generation = 4, Population = 119.
-----1--0----1--0-------------01------
-----0-1---1---0-----0-----0---------0
--------1*1-0-----------------1.------
-----0---1----------1------0---.------
------0--0--0-0------------1--.--**0--
-0-------0-0-----0--.1---0-----1---0--
----000--0--0-0-----------0---1---1---
-0--------------1------11------0------
--0--.------------1----------0-*--.--0
-----.----1------0--.1---0------------
-0---1--000--1----------------0---1---
-0-------0----------10-----0----------
-----.1--0----0------------------0----
------1-------0------0----------------
-----1---0----0-----------------------
-----0-----------0-------0------------
-----0-------1-1------------0---------
----------0---------------------------
----------1----.--0------------00-----
---------------------0----------------
0--------0-0--.----0----0---0---*-----
--------------------------------------
--------------1------------01-.--.-10-
--------------------------------------
--0-0----------0--------0---0---*-----
--------------------------------------
0---------------------------0--00-----

*** Life<Cell> 32x18 ***

Generation = 0, Population = 69.
--------------0---
-0--------00-0----
--00--------------
------0-----0---0-
-0---------------0
-0----------------
------------------
-0-----------0-0--
------------------
----------------00
-0---0------------
------------------
----0----0----00--
-0--0-----0-0-----
-00--0------0-----
-----------0------
---------0--------
-00-------0-0---0-
---00---------0--0
------------------
-0--0------------0
----------------0-
-0-------------0--
0-------0---------
------------------
--0----0--------0-
------0---0---0---
----------00--0---
-0------0------00-
-----0-------0----
------------------
------0----0-----0

Generation = 1, Population = 186.
-0--------00---0--
0--0-----011------
--110-0---0000--0-
-000-0-0---0-0-0--
010---0-----0-----
010--------------0
-------------0-0--
0-0---------0---0-
-0-----------0-000
-0---0---------011
0-0-0-0---------00
-0--00---0----00--
-0-010--0---00110-
01-01-------1000--
0-10--0---0-10----
-00--0---00-------
-00-----0--00---0-
011-0--------000--
-0-110----0-00-0--
-0-0----------0---
0-00-0------------
----0-------------
--0-----0-----0---
-------0-0-----0--
0-0----00-------0-
-0-0----0-0---00-0
--0--0---01--0100-
-0----0-00-1001-0-
0-0--0-0-000-0-110
-0--0-0-0---0-000-
-----00----0-0---0
-----0-0--0-0---0-

Generation = 2, Population = 167.
--00--------0-0-0-
---1--0-01-*-0-00-
0---10--------0--0
----0---0--1-1----
--1------------0-0
-*-0--0-----00-00-
-0---------------0
-0-0-------0-0-01-
-1---0------------
-1-----------00--*
----1--0-0----00--
-1--1-----0-0---00
------00---0-1--10
--01--0-0-00*-1---
1------0--1----0--
--1-0----1---0--0-
-11000-0---11-0--0
1--01---0-000-----
--0-*10--0--1--10-
-10-------0-0-----
-01-0-0-------0---
0-------0-----0---
-0-00--------0----
0-----01--0-------
-0----0---0---00--
----00--1010------
-0--0---0------1--
--0--0-011--------
---0---------1---1
---0--10--00--11-0
-0------0------00-
----010-00-0---0--

Generation = 3, Population = 277.
-01-0-0-00---0-010
0--*----1*-.0--1--
-0---1---0---0----
0-001--0-00----0--
----0-0-0--00-010-
0*0-00-0---011--10
0-0---0----00---0-
0---00----0----1*-
0-000-0----0--0000
0*0-00-0-0--01--1.
---0*00-----0--1--
0-00*00----0--0---
-00010-1--01---1--
011*101----1*0--00
-0-00-----*-10----
0-*01---0--0------
-**1-1---0---0-0--
--1-*00--011100000
0-11*-10--0--00*10
0-10-0------10000-
-------00-0-0010--
-000--00-0----10--
0--110000-0-0-----
-0-000-*0010-000--
--0-0-1-0----0110-
---0-1-0--*10-0---
0--010---010--1-0-
-------1**0--0-0-0
---1000-00000--11*
-00100*1-0110-*-01
0-0000--1-0----11-
-0-01-1--1--0-01--

Generation = 4, Population = 186.
-1*0------0------1
-0-*-000-.1.-00*-0
0-----00------0---
-01-----0-1-01-1--
-1---0-------01*--
-.---1----01-*--*1
-010-0------------
-0---10--0-00---.-
-1--1----0----11-1
-.--1-----0--*-0**
-00-.----0--1-----
-1--.------1-0-0--
0----1--001*-1---0
1-*.-1*---0-.-1-11
11-11-0-00*---0-00
--.----0-------0--
-..--*---1---101-0
1---.1--0-*---1-1-
1-**.--10-1-11-.--
1---0---0--0------
00---0--10---1-1--
-1-----1--0-----0-
-0-**11---10------
--0----.--*10-1---
----1---1------*10
0--1-*0---.*10----
-00---0-------*1--
0------*..11--11-1
-0--11-----1----*.
-11---.*---*--*-1-
------0---1---0---
--0--1-0---0--1---

*** Life<Cell> 26x54 ***

Generation = 0, Population = 65.
---------------------0--------------------------------
----------------------0-----------------0-------------
----------------0-----------0-------------------------
---------------------------------------------------0--
----------0---0------------------0--------------------
----0--------------------------------------------0----
--------------------------------------------0------0--
--0----------------------------0----------------------
0---------------------------0-0-----------------------
------0--------------------------------0--------------
------------------------------------0----0------------
---------0----------0----0--0---0--0------------------
------------0-------------0--------------0------------
-------------0---00-----------------------------------
---------0-------------------0--------0---------------
----------------------0-----------------0-----------0-
-------------------------0----------------------------
-----------0----------------0------------0------------
---0-----------------------------------0-------------0
----------------------------------0---0-------------0-
----0-----0-------------------------0-----------------
---0----------------------------------------------0---
-----------0---------0--------------------------------
------0-----------------------------------------------
------------------0----0-------00-----------------0---
----------------------------------------0-----0-------

Generation = 1, Population = 219.
--------------------0-------------------0-------------
----------------0------0----0----------0-0------------
---------------0-0----0----0-0----------0----------0--
----------0---0-0-----------0----0----------------0-0-
----0----0-0-0-0----------------0-0--------------0-0--
---0-0----0---0------------------0----------0---0-00--
--0-0--------------------------0-----------0-0---00-0-
00-0------------------------0---0-----------0------0--
-00---0--------------------0-----------0--------------
0----0-0--------------------0-0-----0-0-00------------
------0--0----------0----0--0---0----0-00-0-----------
--------0-0-0------0-0--0--0-0-0-00-------------------
---------0-0-----00-0------00---0--0----0-0-----------
---------0----0-0110------0--0--------0--0------------
--------0-0--0---00---0-----0-0------0-00-----------0-
---------0-----------0-0-0---0--------00-0---------0-0
-----------0----------0-0-0-0-----------00----------0-
---0------0-0------------0-0-0---------00-0----------0
--0-0------0----------------0-----0-----00------------
---00-----0----------------------0-000-------------0--
-----0---0-0----------------------00-00-----------0-0-
--0-------00---------0--------------0------------0-0--
---0--0---0-0-------0-0---------------------------0---
-----0-0---0------0--0-0-------00-----------------0---
------0----------0-0--0-0-----0110------0-----0--0-0--
------------------0----0-------00------0-0---0-0--0---

Generation = 2, Population = 217.
----------------0--0-0-0----0-------------------------
--------------------0---0-------------0---0--------0--
----------0-------0--0----0---0--0--------------------
----0-----------------0-----------------0------------0
--------0-------------------0--0---0--------0------1--
------0------------------------0---------------0------
0---------0---0-------------0-0--0--------0---0--1---0
1-----0----------------------0---0-----0---------0----
0-1-----------------------0-0-0-0---0----0--0------0--
--0-0---00----------0----0--1--00--0-0---1------------
0-----------0-------------0-1-0---0---01-0-0----------
------00---0-0---0----00--01-----11--0-0--------------
---------10---0---------0---10------0-00-0-0----------
---------1-0----1--1--0--0--0---0--0----0-----------0-
-------0---00------------000---0----0---10------------
-----------0-0---00-0---0---0---------1--10-------0---
---0-----0-------------0---0-0--------00-------------0
---------0---0--------0---0---0---0---011--0----------
-0--10----0--------------0----------00---1---------0-0
---1-------0----------------0---0-------00------------
--00--0-0--10--------0------------1---10-------------0
-0---00---------------------------0---0---------0-----
----0----01--0----00-----------00---0-------------1---
---00---0-------------------------------0-----0---1---
-----------0----0---0----0---01--10-------------0---0-
------0-------------------------------0-0-0-0-0-0-----

Generation = 3, Population = 523.
---------------0-00-0------0-0--------0---0--------0--
----------0-----0-0--0---00-0-0--0---0-0-0-0------0-0-
----0----0-0-----0-0----00-0-0-00-0---0-0-0--------0-0
---0-0--0-0-------0----0--0-0-00-0-0---0-0--0------00-
----0-00-0------------0----0-0010-0-0---0--0-0-0--0-00
0----0-00-0---0----------------100-0------0-0---00-0-0
10-------0-0-0-0-----------0-0--010----0-0-0-0--0*0-0-
-00--0-0--0---0-----------0-0-0--10-0-0-000-0-0-0100-0
1-*00-0-00----------0-------10-01------00100-0---00-0-
-01--0-0110-0------0-0--0-00-001-0--0--00-000------0--
-00-0-0000-------0--0-00--10*---0-1--01--1--0---------
0----01100--0---0-0--011-0-*000-0*-0----0-------------
------000-10---000-0------0--10-000--01-0---0-------0-
-------00*01--00-11-00-0-1--1----00-0-0-10-0-------0-0
------0-00011---00000-0----10-0------000----------0-0-
---0---0-0010-0-011--0----00---0----00*---10-----0-0-0
--0-0---0100-----00-0-------0-----0--01--000------0-0-
-0-000--01--0-0------0---------0-0-00--**-0-0------0--
0-0-*10------0--------0-0---0-0-0-0011-00*00------0---
-0-*-00-0--1---------0---0-0-0-0-00-000-1-0--------0--
--1-0-1--00-10------0-0-----0---00*0-0-1-0------0---0-
0--0-1-0000000----00-0---------00010001--------0-00--0
-0--1-0--1*00-0--0110---------011000-00-0-----0-00*0--
--01-0-0--00-0--0-000----0---000000-0--0-0---0-000*00-
---00-0-0-0-0--0-0-0-0--0-0-01*11*10--0---0-0--01000-0
-----0-0---0----0---0----0---00--00--0----------10--0-

Generation = 4, Population = 226.
----------0---0-01-------0--0----0--------------------
----0-------------1---0---1---------0---0---0----0----
------------0-------00--1-------1-----------0------1--
--0----------------------------1---------------0-----0
0-----1---0---0---0--0------011------0----------------
1-----0-1-------------0----------------00----0-------1
----------------0-----------0-------0---01-----01.---0
1-----0--0----------0----0-01---0------------------1--
--.-1-----0-0-0---------0-------*00------*------------
--*-0-----1--0---00----------------0-------1-----0----
---------1------------------.0--1----1*-0---10-----0--
--0--1-------0--1----1*----.11--1.--0--01-----------0-
0-------1-------1-----0--0--1--------1-------0--------
------0--.-*-01--*---10-----*----------0-1------------
---0-0-------0-----------0-------00-0--1-00----------0
---------1--------*-0----01-0---0-001-.-----0---0-----
----1-----1-0--------0----0--0------0----1------------
---1---0-----0-0-00-----0-------0----0-..----0----0---
----.--0-0-0---------0-------0-----1--0--.-1-----0-0--
---.--1---------------0-------0---1---1-*-1-----0-----
0-----*-0-----0---0----0-0-----0--.-----0---------0---
-------1---1----------------0-----------00------------
---0---0--.----0-1-------0-------------0----------.--0
--1-------1-----------------------1---0-0-----0---.-1-
----1-----1---0---01--00----1-.**.-1----------0---1---
---0--0-----------------------------0-----0-0---------

Generation = 5, Population = 540.
----0----0-0-0--1*----0-0--0-0--0-0-0---0---0----0----
---0-0----0-0-0-0--00--00--00---00-0-0-0-0-010--0-00--
--0-0------0-0----0011-0-00------0--0---0--010-0-00-00
00-0--0---0-0-0---0-0---0---00-------0------0-0-0--00-
100--0*000-0-0-0-0-00------01-*-----0-000----0-0------
*0---01--00---0-0-0----0-----00-----0001----0-000---0*
--------00-----0-0--0-0--0--10--0--0-0---*0--001*.-001
-0--00-00---0-0-0--0-0-----1-0-01-0-0---0------00-0-00
1-.0*00---1--0-0-00-0--0---01--0*-1-----0.00-----0-0--
-0.-10----*0----0110----0----0---0--000-010--0--0-00--
----00--0-------000--00-----*100*0-0-**111--*10--00---
00-00-1-00--0-00*0--0**1-0-.--00*.-0-0-1-0--0--------0
-00--000-1-0--00*----0-00-00----0-----1-00--0-0-----0-
0--0---00.0.--*0-.1-0*-0---0.0---00-0001-*---0-------0
--0------0-111---00-000-01-------1-0100*--100---0---0-
---000--0---00---1.-----0------0-0--*0.0--10-0-0-0---0
-----0-0-------0-0----0-0-10--0---0-1---0-0-00--0-0---
--0---010100-----110---0-00----0-0-0---..0-00-0-------
---0.--1----00-0-00-0---0---0---0---1-100.--00----0-0-
0--.-0*-00-1--0---0------0-------0---0*-.------0--00--
-0---0*0-0-1-0-0-0-0------0-0---0-.---11--0-----00-0--
0--0---*--0-0-00-00----0---0-0-0---------10-------0--0
----1-010-.0--0---1-----0-0-0-----0-----00----0---.---
-0--0--0-0*0--00-000--00-0--0--000---0-0-0---010--.0--
--0--00--0*0-0-0-01*00110--0-1....----0-0-0-0010-0-00-
--0--0-0--0---0---00--00----0--00----0---0---00---0---

*** Life<Cell> 15x43 ***

Generation = 0, Population = 44.
-----0-------------------0------0----------
-----------------------------------00------
0--0-------------------00-----------0----0-
-------------------------------0-----------
-----0-------------0---------0--------0----
0----------0--------------------0----------
------------------------------------0------
--0------0---------------------0-----------
--------0----------------------------------
-----------------0------0------------------
----0------0-------------------------------
--------0-----------------------0----------
------------0--------0----------------0----
0-----0--------------0--------0---0--------
---0---------0-0-----0--------------0---0--

Generation = 1, Population = 152.
----0-0-----------------0-0----0-0-00------
0--0-0-----------------000------0-01-0---0-
-00-0-----------------0110-----0----10--0-0
0--0-0-------------0---00----00-0---0-0--0-
0---0-0----0------0-0-------0-000----0-0---
-0---0----0-0------0---------0-0-0--0-0----
0-0------0-0-------------------00--0-0-----
-0-0------0-------------------0-0---0------
--0----0---------0------0------0-----------
----0---0--0----0-0----0-0-----------------
---0-0--0-0-0----0------0-------0----------
----0--0-0-00--------0---------0-0----0----
0-----0-0--0-0------010-------0-0-0--0-0---
-0-0-0-0----00-0----0-0------0-0-0-00-0-0--
0-0-0-0-----0---0---010-------0---00-0-0-0-

Generation = 2, Population = 120.
0----0-0----------------10-0--0-0-0-1----0-
-------------------------------0-01--10----
011--0-------------0-01---0--0--0-0----0---
1----------0-----------------1--10-01------
1------0---------0---0-00--0---1----0---00-
0------------0----------------0---0--------
-----0--0----------0---------0----0--------
----0--0---------0------0----0--10---------
----0-0---00------------------------0------
--0-----10-----0---0--0---0----00----------
--0---0-10--10-------0----------------0----
0---------0------0---1--0------------------
---00-----01-100---0-*-0-------------------
0-0-0--------------0---0----0---0---1------
-0-0-0-----01----0-0---0----------1-0-0-0-0

Generation = 3, Population = 273.
-0--0---0--------------0*1--00-0-01---0-0-0
-00----0-----------0-00-0000-0---1*1-*1--0-
--*00-0----0------0--1*1-0-0010-1-1-10--0--
--0--0-0--0-0----0-0--000-000*0--101-0-000-
-0----0-0--0-0--0-0-0--1100-00---00-10-0110
10---0-00---0-0--0-0-0-00--0-----0100---00-
0-----0--0---0---00-0---0---01--0-10-------
---01-----00----0-00---0-0--0100*1--0------
--001---0-110--0-0-0--0-0-0--0-0-0-0-0-----
-0100--0---0000-0-0-0--0-0-0--0110--0-0----
0010-0-----0*100-0-001--0-0----00----0-0---
-0000-0-0-1-0-000-000-0--0------------0----
---1-0---0-*-*-10001-.-1----0---0---0------
-0--1-----0-0000-00-000-0--0-0-0-000*00-0-0
--0-0-0---01*0--0--10-010---0---00--1------

Generation = 4, Population = 129.
01-0-0---0---------0-0-1.---1---------1--0-
0----------0-------------------0--.*0.-00--
--.-10-0-----------00-.--1-11-------*1--10-
--1------0-----------------1-.-0---*-------
-1---0--10-----0-------*--------011-------1
--0-0--1-------0-1------1---0------1-------
1--00------0-----------01-------1---0---00-
0----00-0----0-------------0---1.--0-------
----*0-------------1-0-------1-------------
------0----1-1------1-------0-1-*-0--------
1--1---01---.*-------*------------------0--
--1-1----0--1--------1------0--0----0------
---*-------.-.-*11--0.0--0--------0-1---0-0
0---*-0---1-------------100---------.-1----
----1--0-0--.------*-1---0------1---*-0-0-0

Generation = 5, Population = 257.
-*----0-0-00------0-----.--0-0-0---010----0
1--00--0-00-0-------00-0-0-0--0-0-.*-.-1-0-
0-.0*1--00-0------0111.-1---*1-----0.*0--10
---00--0-10----0---00--0-00*-.0--1-*-0--000
1-0---0-*-0---0100----0.---00---1-*0-----1-
1--01-0--0-0--01--0----0*0-0-0---0------000
*0-1--000-0-00-0-0----01-0-00----0-0-0-0110
10-01-1--0-00-0----0-0-00-0-010-.-0-----00-
0--0*-0-0--1------0-0-0----0---00-00-------
0--00---1-0--*0------0-----0-0--.--0----0--
-0-----1*--0.*0------*0-------000-0-0--0-0-
00---0-0--10---000---*---0-0-00-0-0010----0
0--*0-0--00.0.0.-*01-*-1-1--0--0-0--*000---
-0--*------0---000-00000*-10----0-0-.0*0---
0--0*0------.-----0.--0--1-----0-0-0.-1----

*** Life<Cell> 17x23 ***

Generation = 0, Population = 48.
----0------------------
-------------------000-
0----------------0----0
0----------------------
------0----------------
0----0----0--0---------
-----00---0----------0-
--0--------0-----------
0-0--0-----------00---0
--0----0--0-------0--0-
-------------0-----0---
--------0-----0--------
----0------------------
-----000-0--0-----0----
0------------0-0-------
-------------0-0-------
-----------0-0---------

Generation = 1, Population = 122.
---0-0-------------000-
0---0------------001-1-
10--------------0-000--
10----0----------0----0
-------0--0--0---------
-0--010--0100-0------0-
0-0-0-10-01--0------0-0
0010--0-----0----00--00
---00-00--00----01-0---
0010-00-00-0-0----1-0--
--0----00-0-0-------00-
----0--0-0-----0---0---
---0--0000--0-0---0----
0----1-1--00---0-0-0---
-0---000-0---1-10-0----
0----------00--10------
----------0--100-------

Generation = 2, Population = 130.
0-0-0-0----------0----0
1----------------11*-*0
*-0-0-0--------0---11-0
--0--0----0--0-----000-
0---000-0-1------0---00
---0---00---1--0-------
1-1010*1----0----000--1
--*-00-0-0--------1--1-
--011011--1--0-01----00
1-*-01---1-10-0-0--01--
0-1-00-----0---0--0--10
--0--0---1------0----0-
0-0---1--------0---0---
---00*---011-0-10---0--
0-0-0----------*-0-----
-----000-0-110-*-00----
0--------0---*---------

Generation = 3, Population = 194.
1------0--------01-0--1
-0-------------00--*0.1
.-1--0-0--0--00-00-*--1
-010010-00100-00-00-1-0
-00-11101-*000-00-00--1
---10-0--010*00-0-00-0-
---1*1.*-0-010-001110--
00.-11------00-00-*-0*0
001-----00----01-100--1
*-*01*-00-0-10--10-1*0-
1----10---01----00----1
-0-0-1--0-00---0-00001-
--1-00-0--00-0010-0--0-
--011*--01-*---*1----0-
---01000--0-0-0*01--0--
--0--1-1-1-*---.--10---
-0---0000100-*00-00----

Generation = 4, Population = 137.
------0-0--------*-1-0*
-----0----0--0-1111*1.-
.0*--10---1--1----0.10-
1---1------1-----------
0---**----.------01---*
-0--1-10--*-.-1--0110--
101-.-..-11--10----*-01
--.---000-----01--.--.-
11-------1---01---1-00*
*0*--*01-111*1---11-*10
*-1--*1--01--0---1---1-
--0-0-----1100-1--1----
--*--1--0--1-1---01---0
-0-*-.-11*-.-00.*-0--10
--0-*----0----1.1*-----
--------0*-.-0-.00-1---
0---0--1-*---.-1-1-----

*** Life<Cell> 29x60 ***

Generation = 0, Population = 44.
-0----------------------------------------------------------
-----------------------------0------------------------------
---------------0----------0---------------------------------
--------------------------------0-----0--------0-----------0
----------------------------0------------------------0------
-------0-------0--------------------------------------------
---------------------------0--------------------------------
--------------0-------------0------------------------0------
-----------------------------------------0------------------
------------------------------------------------------------
-------------------0---------------0----0---0---------------
------------------------------------------------------------
----------------0--------------------------0----------------
---------------------------------0--------------------------
----------------------------------------------0-------------
------------------------------------------------------------
-------------------------------------------0---------0------
--------0--------0------------------------------------------
---------------------------------------0-------------0-0----
------------------------------------------------------------
--------0---------------------------------------------------
-------0------------------------------------------------0---
-------------0----------------------------------------------
----------0----------------------------------0--------------
------------0---0---------------------------------0---------
------------------------------------------------------------
------------------------------------------------------------
-------0----------------------------------------------------
------------------------------------------0--------------0--

Generation = 1, Population = 160.
0-0--------------------------0------------------------------
-0-------------0----------0-0-0-----------------------------
--------------0-0--------0-0-0--0-----0--------0-----------0
---------------0----------0-0--0-0---0-0------0-0----0----0-
-------0-------0-----------0-0--0-----0--------0----0-0----0
------0-0-----0-0----------00------------------------0------
-------0------00----------0--------------------------0------
-------------0-0-------------0-----------0----------0-0-----
--------------0-------------0-----------0-0----------0------
-------------------0---------------0----00--0---------------
------------------0-0-------------0-0--0-0-0-0--------------
----------------0--0---------------0----0--00---------------
---------------0-0---------------0--------0-0---------------
----------------0---------------0-0--------0--0-------------
---------------------------------0-----------0-0------------
-------------------------------------------0--0------0------
--------0--------0------------------------0-0-------0-0-----
-------0-0------0-0--------------------0---0-----------0----
--------0--------0--------------------0-0-----------0---0---
--------0------------------------------0-------------0-0----
---------0----------------------------------------------0---
------0------0-----------------------------------------0-0--
-------0--0-0-0------------------------------0----------0---
---------0-000--0---------------------------0-0---0---------
----------00-0-0-0---------------------------0---0-0--------
------------0---0---------------------------------0---------
-------0----------------------------------------------------
------0-0---------------------------------0--------------0--
-------0---------------------------------0-0------------0-0-

Generation = 2, Population = 159.
-0-0-----------0----------0---------------------------------
---------------------------0---00-----0--------0-----------0
-0-----------0---0------0----------------------------0------
-------0-------1-------------00---0-0---0----0---0-------0-0
---------------1-----------1--0--------------------0---0----
-----0---0---01--0----------1---0-----0--------0-----1-----0
-------------------------0--00-----------0-----------1------
-------0----0--10---------0---0--------------------0---0----
-------------------0-------0-------0---01--00---------------
--------------0-------------0------------------------0------
----------------00---0-----------0---00--1-1--0-------------
---------------------------------0--------------------------
--------------0---00---------------0----00--100-------------
-------------------------------0---0------------------------
----------------0---------------------------0---0----0------
--------0--------0---------------0--------------------------
---------------------------------------0-0---00----0-0------
------0---0----0---0----------------------------------------
--------1----------------------------0---0-0-------0---0-0--
-------01--------0--------------------------------------0---
------0---0--0-------------------------0-------------0-0----
-----0---00----------------------------------0--------0---0-
--------0--01--00---------------------------------0---------
-------00---1------------------------------0---0--------0---
----------1--1----0-----------------------------0---0-------
-------0--0----------------------------------0--------------
------------0---0-------------------------0-------0------0--
-----0---0--------------------------------------------------
----------------------------------------0-0-0----------0-0-0

Generation = 3, Population = 478.
0---0---------0-0--------0-----00-----0--------0-----------0
---0---------0-0-0------0---0-0110---0-0------0-0----0----0-
0-0----0----0-000-0----0-0-0-0000-0-0-0-0----0-0-0--0-0--0--
-0----0-0----00*00------0--001-0-0---0-0-0--0-0-0-00-0-00---
-----0-0-0---0-*00--------0---100-0-0-0-0----0-0-00-000-00--
----0-0-0-0-01*-0-0------0--*-00-0---0-0-0----0-0--00*00--0-
-----0-0-0--000000------0--0-1--0-----0-0-0----0---00*00---0
------0-0--0-00*10-0--------0--0---0---000-00-----0-000-0---
-------0----0-000-0-0---------0---0-0-01*00110-----0-0-0----
-------------0-000-0-0-------0---0-0-00000--0-0-----0-0-----
--------------00110-0-0-----0---010-01100---00-0-----0------
--------------0-0000-0----------0100-00-0--000--------------
-------------0-0-0110----------0-0010--01100*-10------------
--------------0-0-00----------0-0-010---00---00-0----0------
--------0------0---------------0-0-0-------0-0-0-0--0-0-----
-------0-0--------0-------------0-0----0-0--000-0--0--------
------0-0-0----0-0-0-------------0----0---0-0110--0---0-----
-----0-000-0--0-0-0-0----------------0-0---0-00------0-0-0--
------0-*00----0-0-0----------------0-0-0---0-----0-0-0-0-0-
-------1-00--0--0-0------------------0-0-0-0-------0-0-0----
--------0-100-0--0--------------------0-0----0------0-0---0-
----0----1--00-00----------------------0----0-0---0------0-0
-----0--1--1-00110-------------------------0-0-0-0-0--0-0-0-
------01-00-*--00-0-----------------------0-0-0---0-0--0-0--
--------00*0--0--0-0-----------------------0-0---0-0-0--0---
------0-001000--0-0-----------------------0-0-0-0-0-0----0--
-----0-0-000-0-0-0-----------------------0-0-0---0-0----0-0-
----0-0-0-0-0---0-----------------------0---0-----0----0---0
-----0---0-----------------------------0-----0--------0-----

Generation = 4, Population = 163.
-0---0---------0----------0-0------------------------0------
-------0-------1---------0---0---1--------------------------
-0---------0-------0--0----1--1-----------------------------
--------------1.------------------0-0-----00-------1-1-1-0--
-0-------------.--------0-------1--------0-------1-------1--
---0----------.----0--------*0-----------------------.------
---------------1---0---0--0----0---0----1---0--------.------
----------0----.--0-----0-------------0--------0-0-------0-0
----------------1-----------0--------0--.--*-1-------1------
-------0-------1-----------------1--------------------------
---------------1-------0---0---0----1--11---1-0-0-----------
--------------1-------------0------------------------0------
------------0-------1------------------1-*-1.--1-----0------
--------0--------0-----------0-------0----------------------
-------------------0---------------1---00-0-0-----0--0-0----
------------------------------------------------------------
--------1-------0----------------------0---0---1-0-------0--
----0--1----00-------0-----------0----------------------0---
--------.----0---------------------0-------0--0--0-0-----0-0
----------1----------------------------------0--------------
----0-----------0--------------------------0------0--0------
---0----0--0-----0----------------------------------0-------
---------0-------1---------------------0-------------0-0----
------1*----*-0--------------------------0-------0----------
----------.-0---0---0---------------------0---0-------0--0--
-------0------------------------------------------------0---
-------------1----------------------------0--------------0--
---0---0--10---------------------------------0--------------
------------0---0---------------------0-------0---0--0-----0

*** Life<Cell> 36x12 ***

Generation = 0, Population = 48.
------0-----
-----------0
--------0---
---0--------
-----00--0--
-0--0-------
------------
---------00-
0-----------
---0--0-----
-------0-0--
---0--------
---0--0---0-
-0----------
--------0---
----00-0----
-----0-0----
--------0---
-0---0------
--------0---
---------0--
-----------0
--0------00-
------------
-----------0
------------
----0-----0-
-----0------
----0-------
----0-------
--------0---
------------
--------0---
-------0----
-0----------
--0------0--

Generation = 1, Population = 127.
-----0-0---0
------0-0-0-
---0---0-0-0
--0-000-00--
-0-0-1100-0-
0-00--0--0--
-0--0----00-
0-------0110
-0-0--0--00-
0-0-00---0--
----------0-
--010-00-00-
-00100-0-0-0
0-00--0-0-0-
-0--00---0--
---01--1----
-----1-1----
-0-------0--
0-0-0-0-----
-0---0-0----
----------00
--0---------
-0-0----011-
--0------000
----------0-
----0-----00
---0-----0-0
----0-0---0-
---01-------
---010--0---
----0--0-0--
------------
---------0--
-0----0-----
0------0-0--
---0----0-0-

Generation = 2, Population = 144.
----0-0-----
---0-----0-0
-----00--10-
----11-----0
---10------0
--1---1--10-
0----00--1--
-0-00-001--1
0-0----0-1--
-0-011--010-
0--0-000-010
---*-01-----
-1--11-101--
----00-0----
---0-1-0----
-001-00*00--
-0-0---*00--
----00000-0-
-----0---0--
------0-0-00
-00--0-0-011
--------00-0
0---0--01*--
-----------1
--0-0------0
-----0------
--0-0-0-0--1
---01--0----
--0-*-0-0-0-
--0--10-----
----1-0-0-0-
----0--0----
-0----0-0-0-
--0--0------
---0----0---
0-0-0----0-0

Generation = 3, Population = 200.
-------0-0-0
--0--0--010-
---0--100-10
---------0-1
---*--1--0-1
00--0-*00-1-
--00-11--*-0
0-0110-1*11-
---0-0-1-*-0
0-0----01---
--0-01110-*1
000*01-00-00
0-0--*0--*0-
-0---1---0--
-0-10-0--0--
0--*---.1-0-
0101--0.----
-0--11-1---0
-----1000-00
-00--0-0----
01100-0---**
000-00-0-101
-0-0-001**1-
0-0----0000*
-0--------01
----0---0---
-0-010-0-00-
--01*00-0-00
-010*010---0
-0101*10----
--00*010---0
-0-0100-0---
0---0--0---0
----0-----0-
0-0--0-0---0
---0-0------

*** Life<Cell> 37x24 ***

Generation = 0, Population = 71.
----------0-------------
---------------0--------
--0------------0------0-
-------------0----------
---------0--------------
-0-----0--------------0-
------------------------
--------------0---------
---0----------------00--
-------0---0-----0----0-
-00--0------------------
------------------------
0-----------------------
---------0--------------
-----------------0------
--0-0--0-----0----------
-----0-------0----------
--------0----0----------
----00---0--------------
---------------0--------
-0-----0----------------
-------------------0----
---------------------0--
--0----0--0-------------
----00--------0---------
-----------------0------
------------------------
-0---------0------------
---------00-------------
-------------0----------
----0--------0----------
-0-----------0----------
-0------0---------------
---0-0-------0----------
----00---0--------------
------00--0------0-----0
--------0----0----------

Generation = 1, Population = 235.
---------0-0---0--------
--0-------0---010-----0-
-0-0---------0010----0-0
--0------0--0-00------0-
-0-----00-0--0--------0-
0-0---0-00-----------0-0
-0-----0------0-------0-
---0---------0-0----00--
--0-0--0---0--0--0-011--
-000-00-0-0-0---0-0-0--0
01100-00---0-----0----0-
000--0------------------
-0-------0--------------
0-------0-0------0------
--0-0--0-0---0--0-0-----
-0----0-0---010--0------
--0---000---0-0---------
----0--0----010---------
---0110---0--0-0--------
-0--00-0-0----0-0-------
0-0---0-0------0---0----
-0-----0----------0-00--
--0----0--0--------00-0-
-0-0000-00-0--0------0--
--001100--0--0-0-0------
----00--------0-0-0-----
-0---------0-----0------
0-0------0--0-----------
-0------011--0----------
----0----00-010---------
-0-0-0------0-0---------
010-0---0---010---------
0100-0-0-0--------------
-00-010-00--0-0---------
----1--00----0---0-----0
----0-11---0-0--0-0---0-
------0--00-0-0--0-----0

Generation = 2, Population = 211.
--0-----0-0-0--1------0-
-----------------0------
0---0----00--1---0--0---
-0-----0---0----------1-
--0----1---0---0------1-
---0-0---1---00-----0---
---0-----0----------00--
-0---------00---00------
--1---------------01--00
-----1-------000---01---
---11--1------------00--
-------0-0-0-----0----0-
01---0-----------0------
--0-0------0-0----------
0----0-------1-0---0----
0-0-001-1--0-*-0--------
---000-1-0-0---0-0------
--0-1-01--00-*----------
-001-*10---0-1----------
--------0--------0-0----
---00----------------0--
--0----1--0----0-0---1--
-0--00-1------0----1---0
0---11--11--0----0-0----
--11--11----0---0----0--
-00----0--00---0---0----
----00---00---0---------
---0-----1-------0------
----0--01--001----------
-------------*-0--------
-10---0-0000---0--------
-----0-----0---0--------
---1-10--10--0----------
---0-*1---00-0-0-0-----0
-000--0----0-1----------
---01----0--01-0---0-0-0
----001-0110-0-0--------

Generation = 3, Population = 412.
-0-0---0-----00-00---0-0
0-0-0---00--00-1010-0-0-
---0-0-0011-0-0-0100-00-
----0-0100-100-0-0--00*0
-----00*000100--0---00*0
---1--000*00011----01-0-
-00100--0100000-00-0-10-
0--0-----00110-011-00000
---0-0-----000000-1--111
--00--00----01-10-----00
--1**-0*00-0-000-0---1--
00-00001----0---010-0--0
1*----00-0---0--010---0-
-----0----0--100-0-0----
10--01--0---0--10-0-0---
1--0--*0--01-.--00-0----
0-01---*0-0-0-01--0-----
--1-*--*0-11-.00-0------
011*1**----1-*0--0-0----
-00-000--0-0-0--0---00--
---110-00-0----0---0010-
-----00*00-0------000*00
---0---*-00-00----0*000-
--0----0**00100----100-0
0--*--*--00-10------0-0-
01--00-10--1------0-00--
-00-11000----0---0-0----
--0-00-0-*-0000-0-0-----
-----001*-11--00-0------
-00-0-00-00--*-10-------
0*10----1---000-0-------
-100010-0-0101010-------
--0*-*-00*-0010--0-----0
-0---.*0----------0---0-
01-1--10-0-10-0--0-0-0--
-0-------1-01*-10-0-----
------*-1*-101-10--0-0-0

Generation = 4, Population = 203.
--0---0--0----11------0-
-0-----0---0---*---0--1-
0-----0---*0------11--1-
---------1----0--1----.-
---0-1-.--1--1------11.-
-0-*-0-1-.-----0-00-----
-1---1---------0------1-
----------1--1----0-----
0------0-0------10-----*
-0-1-----0-0-*-*--0--0--
0--..01.-1-------1------
--0-1--*-----00---------
-*0000-------1------00--
-----1-00--0-----1----0-
-10-1----0-----------0--
---1--*-10-*0*00-1------
1------.---------0------
----.--.-----.1--1-0----
1*-.-..-00---*---1---0--
----1-----01-1-----0----
-0-**1-----0-00---------
-------.1----0-0-0---.-1
----00-.-1-------0-.---0
00-0----..----10--------
1--*--*10---------0-----
-------------------0-1--
----*--------1-------0--
--1--1---*0--1-0--------
-0--0-1-.----1----------
---0-0---1---.----------
1.--00--*--------0------
-----*10-01*-----------0
-1-.0.--1*0-1*----------
-1---*.1-----0---0------
1*--10---1---1----------
-100---1---1-.0--0-0---0
-0---0.-**--1----0------
