*** Life<ConwayCell> 16x18 ***

Generation = 0, Population = 106.
...**.*.**.**.....
*...**..**........
..*..***...*...**.
..*...*.***...*..*
**..........**.*..
*..*...*.**.**..**
..*.......******.*
..***.....*.**.***
....*.........*..*
..*..**.*.*...*.*.
....*.*....**..*..
...*.*..**.....**.
..**....*...***..*
...*..*...*.*..*.*
**....**.**....*..
***.**....*...*..*

Generation = 1, Population = 104.
...**..****.......
.........*.**.....
.*.**..........**.
..*..**.*******...
***....*....*..*.*
*.*......**......*
.**.*.............
..*.*.....*......*
..*.*....*.*..*..*
...**.**...*.**.*.
...**.*.*.**..*...
..**.*.***.*...**.
..**...**..****..*
.*.*..*.*.*.*..*..
*..**.**.**...**..
*.*..**..**.......

Generation = 2, Population = 91.
........****......
..*......*.*......
..****..*.....**..
*...***********...
*.**..**....*.*.*.
*...............*.
..*......**.......
..*.**....*.......
..*.*......*******
..*...****.*.**...
...........*.**.*.
.....*.........**.
.*...........**...
.*...**...*.*..**.
*..**.........**..
.*.********.......

Generation = 3, Population = 88.
........**.*......
..*.*......*......
.**...........**..
.........****.....
*..**....**.*.*...
..**...........*..
.*.*.....**.......
.**.**...**.*****.
.**.*.****.*...**.
...*...**..*.....*
......***.*..*..*.
............*...*.
.....**......**...
***.**..........*.
**.*....*.**..***.
..**.*****........

Generation = 4, Population = 92.
..........*.......
.***......*.......
.***........*.....
.***.....*..*.**..
..***....*..**....
.*.........*......
.*.......***.*..*.
*...****....***.*.
.*..*.*....*.*...*
..**.*.....**..*.*
......*.**.**...**
.....*......*.**..
.*..***......*.*..
*.*****......*..*.
*.......*.*....**.
.****.*****....*..

Generation = 5, Population = 92.
..*...............
.*.*.......*......
*...*......*.*....
...........**.*...
....*.....*****...
.*.*.....*.*.*....
**...**...**.***..
**..*.**......****
.**....*...*...*.*
..******.....*...*
....***...*...*..*
....*..*...**.**..
.**.........**.**.
*.**..**........*.
*.......*.*...***.
.***...**.*....**.

Generation = 6, Population = 74.
..*...............
.***........*.....
..........**.*....
..............*...
..............*...
***.**...*.....*..
....****..**.*....
.......*..****...*
*.......*......*.*
.**....*......*..*
...........**.***.
...**.*....**.....
.**...**...***..*.
*.**...*.....*...*
*.....*.*.....*..*
.**....**.....*.*.

Generation = 7, Population = 93.
.***..............
.***.......**.....
..*........***....
.............**...
.*............**..
.*.**.....*...*...
.*.**..***...**...
.....*.****..**.*.
.*.....**..****..*
.*...........**..*
..**.......**.***.
..**.***..*...*.*.
.*..****...*.*....
*.**....*....**.**
*..*..*.*....*****
.*.....**......*..

Generation = 8, Population = 67.
.*.*..............
...........*.*....
.***.......*..*...
...............*..
..*............*..
**.**...**........
...*.***..........
..*.*.....**......
......**..**....**
.*...............*
.*.**.*....**...**
.*.....*..*...*.*.
.*......*...**..**
*.**....*........*
*..*....**...*...*
.......**......*..

Generation = 9, Population = 75.
..................
.*.*........*.....
..*.........*.*...
.*.*..........**..
.***..............
.*.******.........
.*...******.......
...**.....**......
..........**....**
..*..***..*.*.....
**.........*...***
**.....*..........
**.....***...*.***
*.**...**...**...*
.***.....*......*.
.......***........

Generation = 10, Population = 66.
..................
..*..........*....
.*.*..........**..
.*.*.........***..
**...***..........
**.*..............
..........**......
....*****.........
...****..*..*.....
.*....*...*.*..*..
*.*....*...*....*.
..*....*......*...
......*..*..***.**
*..*...*....****.*
.*.*.....*........
..*.....**........

*** Life<ConwayCell> 7x20 ***

Generation = 0, Population = 70.
**.***..*......*.*..
.*....*.*....*...**.
*****.******..*..**.
..*..**..*.**.**.**.
.*.*..**..*.*.*..*..
******.*****..***.*.
*...*.***..*..**..*.

Generation = 2, Population = 33.
.*...**..........*..
*.*...*.......*.***.
...........*........
**.........**.**....
**.........**..*....
*..........***.**...
.*.............***..

Generation = 4, Population = 34.
.....**.........*.*.
**...**.....**......
*..........**.....*.
**........*....**...
**........****......
...........****.*...
............***.*...

Generation = 6, Population = 16.
.....**.....*.......
.....**....*.*......
..........*...*.....
..........*..*......
.........***........
..........**........
....................

Generation = 8, Population = 14.
.....**....***......
.....**...*...*.....
..........*...*.....
..........*.........
..........*.........
..........*.........
....................

Generation = 10, Population = 14.
.....**....***......
.....**..*..........
............*.......
........*...*.......
.........*.*........
..........*.........
....................

Generation = 12, Population = 14.
.....**.....*.......
.....**.....*.......
...........*........
...........**.......
.........*..*.......
.........***........
....................

Generation = 14, Population = 15.
.....**.............
.....**....**.......
....................
..........*.*.......
.........*..*.......
.........*.*........
.........***........

*** Life<ConwayCell> 11x10 ***

Generation = 0, Population = 73.
****.***.*
**..***.*.
*.*.**.*.*
.*.*******
.*****...*
*******.**
**.***.***
..*.*.****
*.*.**..**
*.***...**
**.**.....

Generation = 4, Population = 8.
..........
........**
........**
..........
..........
..........
..........
..........
..........
**........
**........

Generation = 8, Population = 8.
..........
........**
........**
..........
..........
..........
..........
..........
..........
**........
**........

Generation = 12, Population = 8.
..........
........**
........**
..........
..........
..........
..........
..........
..........
**........
**........

Generation = 16, Population = 8.
..........
........**
........**
..........
..........
..........
..........
..........
..........
**........
**........

*** Life<ConwayCell> 19x13 ***

Generation = 0, Population = 76.
**.*....*...*
.....*..*.*.*
..**.**.....*
..*...*.*....
.*......**...
....**.......
.*....*.....*
.*..*..*..**.
......*.***..
..........*..
......*....**
****.*.*...*.
....**...*...
*.**.*.......
...*.....*.*.
.*.**.**..*.*
**.*.*...*..*
*..**.*....*.
**.*.........

*** Life<ConwayCell> 11x7 ***

Generation = 0, Population = 57.
*****.*
***.***
**.*...
******.
****.**
.****..
****.*.
**.****
.****.*
*.****.
.**.***

Generation = 3, Population = 8.
.......
.....**
......*
.....**
.......
.......
....*..
.....**
.......
.......
.......

Generation = 6, Population = 0.
.......
.......
.......
.......
.......
.......
.......
.......
.......
.......
.......
