*** Life<FredkinCell> 44x49 ***

Generation = 0, Population = 39.
------0------------0-----------------------------
---0---------------------------------------------
-----------0-------0-----------------------------
-------------0----0------------------------------
-----------------------------0--0----------------
------0------------------------------------------
-------------------------------------0-----------
-------------------------------------------------
-----------------0--------0----------------------
-------------------------------------0-----------
-------------------------------------------------
-0----------0------0-----------------------------
-------------------------------------------------
---------0---------------------------------------
-------------------------0-----------------------
-------------------------------------------------
-------------------------------------------------
-------------------------------------------------
-------------------------------------------------
--------------------------------0----------------
-------------------------------------------------
-0--0-0------------------------------------------
-------------------------------------------------
-----0-------------------0-----------------------
-------------------------------------------------
---0---------------------------------------------
-------------------------------------------------
-------------------------------------------------
-------------------------------------------------
-------------------------------------------------
--------------------------------------------0----
--------------------------0----------------------
------------------0------------------------------
-------------------------------------------------
----------------0---------0------0---------------
-----------------------------0-----0-------------
-------------------------------------------------
--------------------------------0----------------
-------------------------------------------------
-------------------------------------------------
-------------------------------------------0-----
----------------------------------------------00-
--------------------------0----------------------
-------------------------------------------------

Generation = 1, Population = 146.
---0-0-0----------0-0----------------------------
--0-0-0----0-------------------------------------
---0------0-00------0----------------------------
-----------00-0--0-----------0--0----------------
------0------0----0---------0-00-0---------------
-----0-0---------------------0--0----0-----------
------0-----------------------------0-0----------
-----------------0--------0----------0-----------
----------------0-0------0-0---------0-----------
-----------------0--------0---------0-0----------
-0----------0------0-----------------0-----------
0-0--------0-0----0-0----------------------------
-0-------0--0------0-----------------------------
--------0-0--------------0-----------------------
---------0--------------0-0----------------------
-------------------------0-----------------------
-------------------------------------------------
-------------------------------------------------
--------------------------------0----------------
-------------------------------0-0---------------
-0--0-0-------------------------0----------------
0-00---0-----------------------------------------
-0--000------------------0-----------------------
----0-0-----------------0-0----------------------
---0-0-------------------0-----------------------
--0-0--------------------------------------------
---0---------------------------------------------
-------------------------------------------------
-------------------------------------------------
--------------------------------------------0----
--------------------------0----------------0-0---
------------------0------0-0----------------0----
-----------------0-0------0----------------------
----------------0-0-------0------0---------------
---------------0-0-------0-0-0--0-00-------------
----------------0---------0-0-0--00-0------------
-----------------------------0--0--0-------------
-------------------------------0-0---------------
--------------------------------0----------------
-------------------------------------------0-----
------------------------------------------0-0-00-
--------------------------0----------------0-0110
-------------------------0-0------------------00-
--------------------------0----------------------

Generation = 2, Population = 141.
----0-0-0--0-----0---0---------------------------
-0---0-------0----0------------------------------
------0--0---1---0-0-0-------0--0----------------
---0--0----1---00---0----------------------------
-----------0-------0-------0--11--0--0-----------
----0---0----0----0------------------------------
-----------------0--------0--0--0--0---0---------
------0------------------------------1-----------
---------------0---0----0---0--------1-----------
-0----------0------0---------------0---0---------
-----------------0--------0----------------------
---0-----00---0--0---0---------------0-----------
-------------------------0-----------------------
-0-----0---00------0-----------------------------
-----------------------0---0---------------------
---------0---------------------------------------
-------------------------0-----------------------
--------------------------------0----------------
-------------------------------------------------
-0--0-0-----------------------0---0--------------
-------------------------------------------------
--11000-0----------------0------0----------------
-------------------------------------------------
-0--1-10---------------0---0---------------------
-------------------------------------------------
-0-----------------------0-----------------------
-------------------------------------------------
---0---------------------------------------------
--------------------------------------------0----
--------------------------0----------------------
------------------0-----------------------0---0--
------------------------0---0--------------------
--------------------0-----1------0----------0----
--------------------------1--0-----0-------------
--------------0---------0---0--0---1-------------
---------------------------0---001---0-----------
----------------0---------0------0---------------
-----------------------------00---00-------------
-------------------------------------------0-----
--------------------------------0-------------00-
--------------------------0--------------0---0---
--------------------------------------------01--1
------------------------0---0--------------0-----
----------------------------------------------00-

Generation = 3, Population = 455.
-0-0-0---00-00--0---0-0--------------------------
0-0---0-00-0010--0-----------0--0----------------
-0-0--100-000200--0-0-0-----0-00-0---------------
--0-0010-00200011--0-------0-0000-0--0-----------
---00-0-0-0100-00---------0-002200-00-0----------
---0-0-0-0-00-0-----------00-0000-00-0-0---------
----0-0-0----0--0--------0-00-00-00-000-0--------
-----0-0-------0-0-0----0-0-00--0--00200---------
-0----0-----0-0-0-010--0-0-0-0-----00200---------
0-0--------0-0-0-0010---0-0-0-----0-000-0--------
-0-0-----00-0-0-0100-0---0-0-------0-0-0---------
--0-0---0110-0-0010-0-0--00---------0-0----------
-0-0---0-0000-0--0-0-0--0-0----------0-----------
0-0---0-0-0110----0-0--0-0-0---------------------
-0-----0-0-00------0--0-0-0-0--------------------
--------0-0------------0-0-0---------------------
---------0--------------0-0-----0----------------
-------------------------0-----0-0---------------
-0--0-0-----------------------0-0-0--------------
0-00---0---------------------0-0-0-0-------------
-000-0--0----------------0----0-0-0--------------
-02---1--0--------------0-0----0-0---------------
-000-0-00--------------0-0-0----0----------------
0-00--210-------------0-0-0-0--------------------
----0-00---------------0-0-0---------------------
0-0---------------------0-0----------------------
-0-0---------------------0-----------------------
--0-0---------------------------------------0----
---0----------------------0----------------0-0---
------------------0------0-0--------------0-0-0--
-----------------0-0----0-0-0------------0-0-0-0-
------------------0-0--0-000-0---0--------0-0-0--
-------------------0-0--002000--0-00-------0-0---
--------------0-----0---0020--00-0010-------0----
-------------0-0-------0-00---01-00200-----------
--------------0-0-------0-----0---000-0----------
---------------0-0-------0---000-1-0-0-----------
----------------0---------0-0110--110------0-----
-----------------------------00-0-00------0-0-00-
--------------------------0----0-0-------0-0--110
-------------------------0-0----0-------0-0--1-00
------------------------0-0-0------------0--1-11-
-----------------------0-0-0-0------------0--0000
------------------------0---0--------------0-0110

Generation = 4, Population = 147.
--0-------10---0---0---0-----0--0----------------
---0--10-----------------------------------------
------21-----------0---0-------------0-----------
---------1----1--0----0--------------------------
------1----------0-0-----01-1----1--1------------
--01------0--------------------------1-----------
-----------0-------0-------------1-------0-------
-0----------00----01-----------------------------
-------------0-------00------10-0----------------
------0--0-----------------------0-------0-------
-------------------------1-----------1-----------
-0---0--1------11------0-------------------------
-----------------1--------1----------------------
-----0-------1-----------------------0-----------
---------------------0-------0-------------------
-0----------0------0------------0----------------
-------------------------------------------------
-0--0-0--0---------------------------------------
-------------------------0-----------------------
-----0-------------------0--0-------0------------
-------------------------------------------------
0131-0--0-0--------------------------------------
-------------------------------------------------
-0-------0-----------0-------0--0----------------
-------------------------------------------------
-0--0-00-----------------------------------------
--------------------------------------------0----
-----0-------------------00----------------------
------------------0------------------------------
---0---------------------------------------------
----------------0---------1------0------0-------0
----------------------0------10----0-------------
--------------0-------0--------------------------
--------------------------------0----------------
------------0-------0-0------01------1------0----
-------------------------00----0-1-----0---------
------------------0------------------------0-----
----------------------------1-------1---------00-
----------------0----------------0---------------
-----------------------------0-----0-------------
---------------------------------------0-------1-
--------------------------------0---------00---21
----------------------0---0---0------------------
----------------------------------------------22-

Generation = 5, Population = 475.
-0----00-0210-0-0-0-0-0-0---0-00-0---------------
----00--0-00---0-------------0--0----0-----------
---0-0--00----0--00-0---0-----------0-0----------
-------00-0--0-1110--0---00-0----0--00-----------
--00-0-0-00---0-01--0-0-012--0--0-00-------------
-0120-0--0-------0-------00-0---------0--0-------
-000---------0-----10-----------0-0--0--0-0------
0-0---------1-0--01-000------00-00-------0-------
-0----0--0---10---010110----021----------0-------
-----0-00-0--0-------00--0---00---0--0--0-0------
-0---00-00-----00------00-0------0--0-0--0-------
0-0-0-00-1----022-----0-000----------0-----------
-0------0----0-0--0----0-0-0---------0-----------
----0-0-----1-0--0---0----0--0------0-0----------
-0---0------00-----00-0-----0-0-0----0-----------
0-0--------0-0----0-00-------0-0-0---------------
----0-0--0--0------0------------0----------------
0-00---00-0--------------0-----------------------
-0--000--0--------------010-0-------0------------
----0-0-----------------0100-0-----0-0-----------
0000----0-0--------------0--0-------0------------
1--2--10---0-------------------------------------
0-00-0--000----------0-------0--0----------------
0-0-----0-0---------0-0-----0-00-0---------------
----0-00-0-----------0-------0--0----------------
0-00--110-----------------------------------0----
-0--0000-----------------00----------------0-0---
----0-0-----------0-----0110----------------0----
---0-0-----------0-0-----00----------------------
--0-0-----------0-0-------0------0------0-------0
---0-----------0-0----0--0-0-00-0-00---0-0-----0-
--------------0-0----010--0-0210-00-0---0-------0
-------------0-0-----010-----00-0--0-------------
------------0-0-----0--------000-0---0------0----
-----------0-0-----0---0-00-012-00--0-00---0-0---
------------0-----0-0-0-0110-0----0--00-0--00----
-----------------0-0-----00-0--0-1--0--0--0-0-00-
----------------0-0--------0-1---0-1-0-----0-0110
---------------0-0----------00--0-000---------00-
----------------0-----------0-0--00-0--0-------1-
-----------------------------0--0--0--0-0-00--02-
----------------------0---0---00-0-----0-0111-1-2
---------------------0-0-0-0-0-00---------00--0-0
----------------------0---0---0--------------0330

*** Life<FredkinCell> 22x30 ***

Generation = 0, Population = 75.
------00---00-----------------
---0-----------0--------0---00
----------------------------0-
-----00---0-----0-----0-------
------00-----------0-------0--
------0----------0------------
------0-------0--0---------0--
---------0---------0----------
0------0-----0----0------0----
-0-----------0--------0-------
---------00--------0----00----
----0---------0---------------
-----0----0-----------0-------
-------------0--00------------
--------0-0-0-----------------
--------0--00------------0--00
------------------------------
----------0--------------0-0--
00---0---0-------0----0-------
-------------------0---0------
-0--00------------------------
-0----0---0--0----------------

Generation = 1, Population = 220.
---0-0110-0110-0--------0---00
--0-0-00---00-0-0------0-0-0-1
---0-00---0----00-----0-0--01-
----01---0-0---0-0-0-0-0---00-
------110-0-----000-0-0---0-0-
-----0--------0-0100----------
-----010-0---0-00100------0-0-
0-----000-0--00--0--0----0-0--
------0-00--010--0----0-0-0---
--0----0-00-010---00-0-00-----
-0--0---0110-00---0-0-00110---
---0-----0---0-0---0--0-00----
------0--0-0-00-00---0-0------
-----0--0-----00110---0-------
-------01--01---00-------0--00
-------010-1-0----------0-0011
--------0-000--------------000
00---0-----0-----0----0-0---0-
110-0-0-0-------0-00-0---0-0--
0---0----0-------00-0---0-----
010011----0--0-----0---0------
010-0--0-0-00-0---------------

Generation = 2, Population = 197.
----01221-12210-------------1-
-0----1---0--0--10---------1-2
-----------00------0------01--
----1-00----0-01-10-0-------10
----002-10----0------0---0-010
----010-000----01-----0-------
0---0-2-0---01-11-1--------0-0
-0----11---0-1-------00-------
0-0--01---00--1001-00--010----
---00----1-0--10---10---1-----
0----0--1-2101---01--0-1-210--
-00---0-----0----0----1-------
---0---0-1---------00----0----
----0---1---0-----10-----0--00
-----00-2-0-2-0-------0-------
------0--10---0-00-----0-011-2
00---0--101-1----0----0-------
-----------1-------0-------01-
221-10-----0---0---10---0-----
-0----0------0---1---------0--
121--200-0-------0----0-------
-2-01-0---0110-0---0---0------

Generation = 3, Population = 308.
-0-01-3-2----21000------------
0-0-0-2-001001-02100-------20-
-0--0--0---1--000--------01---
---021-1-0--1--2-210-----000--
---01131----0010000-----0--12-
0--0121-111000---10----0-0--0-
---010-01-0-1------0-0----0---
0---0-22---102---000-11-00-0-0
-0---1----110--1-2-----1210---
---1100----------------02000--
--00---0-13212-00-2---0-13-10-
-11-----000-1---01-00-----00--
-0------0-0------0--100-010-00
------0-2-00100--12---0-010011
-----1--301-3-100000-0----000-
00---0101-11-01-1-0---0--1-2--
110-0--021-0-00--100-0---00-00
--0-0---00-2---0-001--0-0-0120
332-21----01000-000-10-0-0--0-
0-0-001--0-00-0002000-0-0-0-0-
2-2--3-1---00--00100-0-----0--
-301201---1--1--000-0---0-----

Generation = 4, Population = 228.
--01--4-3-12---11--0-------01-
---0--30---1---1-2-10----0-312
-------1---20-1--0------0--11-
-00---0---0-2-0---210-----1---
0-01--4---0-11-1--1------0---0
-001------2----0-----00-0---10
--0------01--1----11-1-000--00
----1-3---0--3000-----20------
--000210-022--1--3-0-0-----0-0
-0---11--1---1--000-------1---
-----0--1-4-23-1-0--00-1---210
0--------1102-----01-----0--00
01----00-1---00----------21---
-0-------01-2----2--001--2-1--
00--020-4-2-4-2-11-1--0-00----
-------12---0-202--0-0-002-312
-2--1-----1-----------0-------
-0--------0---0-01---0-0------
--3-3---001-1-----1--1----0---
-0----2-0-0110-1---1---0-0-010
32--1---00--------------------
-41--12--0----0--1-0---0-0-0--

Generation = 5, Population = 316.
-01-1152--2-2-1-2-01-----00---
---100---------223--10-----4-3
-000--020-----2-01-----0------
-1---11--010-01-----10--0---10
--1-1151-0---212002-000------1
-1--1-1----00-011--00-1010-0-1
--1-1-2-112012--1122-2--1100--
----204--0--0-1-1-0--13--0-00-
--1-13-1--33012-040----1------
0--1-2---200-2--1-1-0--0-0-00-
00--01-0--52----012-11--13-32-
1----000--2--000--12-0-001----
--0--011--000110-000100-032-00
0-0-00-0----3----32-1--0--0-1-
1-001-10503---30---2-010-10-00
0----0-2-1-11-----01---11--4-3
1300-0-021201--0-1-0-0-000-000
01------0--200--12--010-0-0---
-3---100--212-000---120-----00
-1---0------21--0---000---01-1
43-0---1---00000-1----------00
--21-230-11--1-00---0-0-----0-

*** Life<FredkinCell> 26x46 ***

Generation = 0, Population = 161.
-0-------0-------0--------0---00-------0-0----
---------------0----0----0-----------------0--
------0-------------------0-0---0---00--------
0----0----------0-00----0---0-----------0-----
-0------------0-0---0--------------0-0-0------
-----0----------------0--0-------0---0-00----0
0-0---0--0--------------00------------------00
---------0----------0--------00-0-----00-0----
---------------0---00--------------------0----
-----00----0------------0---0-0---0000------0-
-------0--------0---------0------00-----------
--------------00-----0-----0-----0------------
-------0-------0--------0----00---0-----------
--------0-------------0-----0------00--0-----0
--0----0-0-----0------0----0-----0------------
0--0---00-0--0-------0-------00---------------
--0------0-0----0--0---------------0-------00-
-----------------0-0---------------------0----
----0--0----0-----------------0---------------
0----------0---0-----0-------0----0-----------
-----------0---------------0------------00---0
-------0-----------0-----0-0------00------0---
---0--0-0-0----0---------0---------0--0-------
-0--------------------------------------------
-----0-0--0--0----------0---------------------
-----------0---0--------------------------0---

Generation = 1, Population = 429.
0-0-----0-0----00-0-0------0-0110-----0---00--
-0----0--0----0-00-0-0--0-0-0-000---00-0-00-0-
0------0-------00-000---0---10-0-0-0110-0--0--
----0---------001-11---0-00010--0--00----0----
--0----------0--100--00-00--0----00--1-10----0
000-0----0----0-0---00-0-10-----0-0001--10---1
---0---0010---------0-001-0--00-00---00-00-01-
0-0---0-010----0----10--00--011--0---011-10-00
-----00--0-0--0-0-01-0--0---00--0-000000010-0-
----011---0-0--00--00--0-000---0-----10--0-0-0
-----0--0--0--0--0---0--00--0-0-0---00------0-
-------------01-----0-0-0---000-010-----------
------0--------10----000-0-0-110----0--0-----0
--0----0-------------0100-----0--0-1100-0---0-
00----01-----00-0-----10--0--00-0-000--0-----0
-00-0-0-1---0-000--00------00110-0-0-------00-
00-----0--0-00-0--0100-------00---0-0----00110
--0-0--0-0-00------10---------0----0----0-000-
0--0-00-0----0-0-0-0-0---------0--0------0----
-0--0--0--01--0-0---0-0----00----0-0----00---0
0------0--010--0---0-0---00100-----0---011--0-
---0------00---0--0-0---01-10----01-0-0-0--0-0
-00-00-0---0--0-0--0----0100-------100-0--0---
0-00-0000----0-0--------00---------0--0-------
-0--0---00--0-00-------0-0----------------0---
-----0-0----000-0-------0----------------0-0--

Generation = 2, Population = 419.
-0-0--00-0-0---1-0-0----0---0122-0--0------1--
0----0-------0--11-1--001--01-----------01---0
----0---00----0-10--1---1---2-01-----210-0----
0-00-0-0------11202--0--------0--0---0000-00-0
0-10-----0--0-0-2-----1-110-1---01-002-2-0--01
1--0-0-0-1------1-00---1---000001----2--2-00-2
-00----11--0--000--0--11--10-------0-1-0-101-0
------10----------0-----11-0---001-0-1---2-011
0-0---10-1---0--1-1--10-100------01----1---010
---01--00----001----100----100--0-0002---10---
-----1-0-0----1---000-------10101-001----0----
-----00-0--001--00-0--1010---110--10-0-0----00
--0--0-------0-210----------0--1--0-1---------
0--0--010----000----0---1-00-0----0---1--0-0-0
1-0-00-------1-010-00----0----10--1--------00-
011---1--0001--1-0----00---1---10--10--0-0---0
1-0----1---01101-01--10----0--1------0---11--1
---0---10-01-0---0-2-0--------1---0----0---1--
-----11---0---0-0--1-------00---0--0----01-000
0-0----1-0---------0---0-0-----00-010----10---
---00-01001-10-1-------------10----1---1--0--0
00---0---0-1---1-0-----0-2-2----012-10--1---0-
-1--1-01---10----0-----01--------0--11---0---0
---1---1---0---1---0-----1-0------01----------
-----000-1001---------0--10--------0--0-------
-0-------0-0---0-0----------------------0-0-0-

Generation = 3, Population = 612.
----0-11----000-01-10-0-10-----3--00-0--000-00
---0---00--00----2-2-01-20012----0--000-1-000-
--0--0--110---1021----0-20--3--200--1-2--1-0--
1---0-------002--131-----00--01--100-11-1-1101
---10---0100--10---0---02-102------1-303--0012
2-01---102000-----1-0-02-10-1---------00----0-
-11--0-22-0-001--001002---21-00--001----0-121-
00---0-1-1-0-000-01--0-----10-11--01-21-030122
----00-10-0-01----21-----11000-00--00-0-0---2-
0--12--110--0-12-----1-000-21---101113000-1-00
---0-201--00002-0-11---000----21--1--0-001--00
--0-0110--01------01-02--10-0-21-12-----00-011
00--0100---0--0-2-000-00-00--1-200-0--00-0-00-
100--01-10--01-10---10-0-0110----0-110-00--10-
-01011010000-201---1-010------2--02-0-00--0-10
1-200---11-1-0--0--00--100020-1-10-21-0--1-0-1
201----2-00122---12-0-----01002-0-00--0-0-2-12
0---00--1---0100-103-1------002000---00----2--
0-0002200-1-------0-00-0-001100-1001----1-0--1
----0002010-00000-010-0---0000-1--1-10-0----0-
-0-11012--2121-200-0-------1021--002000---10--
1-000-0--1020002-10---010---00001230--0---00-0
-20--01-000210--0100--0-21-------10---0---0---
-00--00-00--0-0-000-0-00-20-0-----1--00--0---0
-0-001------20---0-0-0-00-1--------100-00-0-0-
0-0--0000101--0---0---0--00--------0--00-----0

Generation = 4, Population = 408.
------2-------1-1---101----00-2-0-1101-0---1-1
-----0-----1---01--3012-3----0---1---1--2--1--
00----0---1------2----1--10-4--3-1--2--00---00
-00-1-------1-31----0-000---112-----0-20-0--1-
-----0---21-0--12001----3-2---0--1-2-----0-1--
-0---00--3-1---0--2-10--021-2-0--00--------0--
0---01-3--1--1--0---11-------1--011-01--11-32-
1------------111--20-1---102-------203--1-12-3
-0-----2---0--0----20--0-----10---11---1-----0
-00--1-2210----3----1---110---00--22241111--1-
0--1--12---11--0----0---11-0-0---0---10-----11
0--0---100-2-1---01201-0-2---1-20----000-1----
--00-----0-1---23--1-----11-0-1--101--1--1-11-
----012----01----000------2-1-00--0-21-11---1-
1--1221-----03--1-02---1-----030-13--0--------
2-31--10-2--1-------------13-1----------------
3----00----233-1----1--00--2-130--1------1--2-
-------12----2-1---4-200-0-01-----0-01-0--0---
1-1---311020----0-----0--112-----112--0-------
00001---1-11-1-1-0-2-0-------1---0----0-------
--0--1---032-2-31--1---00------0---311---1---0
---1-------------2-0-0-------11--------0-01---
--1---2---13--0----1-0-------000--1----0--1---
01---1---------------0-------0----2-------0---
-1-1-200--0--10--1--0---1--00-----------10---0
-0---------2---0---------1-0------01--1---0---

Generation = 5, Population = 588.
-------1---0-0-121---1-01-0111---02-------02--
00--0-0-----0--1--04123---012--0-2-002003102--
1---0--0-1--0-1---00----221-50---2003--------1
--1---0--0-02-4---3--------0--------1-3-111-2-
--1--1--0-2010-2--12001--130---0020---0301-2--
--0--11-04---0011-30--02-----010-1--02--2-0---
1--01-0-2---02-0-0---22-1--1---012-1--00-2143-
2---00----000-22-03--20012-30-1-010-1-1-232-24
-1---013-1--0-10------0----002---0-20--20100-1
--1-2-13--100--40----1---21--0-11--3-522-21020
1--20-230---2-21001------20--1-----0-2100--0-2
10--0-------0-1--1-312--1--0-22311200--1-200-1
001--100-1---003400--0-00---1122-212-020-2-2-0
1-00-2-1-00----101111--0--3-201-00-13-122---20
20--332--0--1401-0--0-1-0--0--4--2-0-1000---1-
--4--021--0--0-10-000---002---1--0---0---1--0-
401001-200034--20-------1---0--1002000-00--1-2
--0--00---0--3-2--0-031-01012-20---0120-0--20-
202-0242--3-0--0-----01-0----0--1-23--1---0---
----2-0-2-22-2-2---3---000000-0101--1-10-1---0
0-11--1--14--3--200-0-0110------0004-2-112--0-
--0-000--1---002-----1010---0--0--301001---0-0
0------1-02410-0-102--0-----01110121--010--0--
1--10201---0-0---0-0-10-0--0-1-0-031---00-10-0
-------101--221-0-00---0--1-1------1--00210-0-
0100-000----00--00--0------1-----01200-00--0-0

Generation = 6, Population = 563.
00--0---0-0-0----2-1-2112--222230-3-01000---0-
-1001--0-0--1--2---5-34---12300-----1-----1-00
2-00100--21---2--21--0103----1030--14--0---0--
10201----10-305--1-1000-0-01-1-00---2-40-221--
-0-102001-312--3-023----32--20---312----------
201-----15-101--20---013-21-21-1----13003-100-
21-1--1-3-1-----01011-3-2-22-10-231-0--1------
3-----110-1-11-3--401---23-4-1-1--1-2-2---3---
----0-2---00---1-02--11-1---1--0011---0-1-----
0--13124--2-1015--0-1---1------22-2-2-33--2--1
2--31--4100----2112-0-------1----0--1-2-110-1-
2---1---00-211-00--4--2-2---0334-23-100-0--1--
11-------2---1145--101---11------323-13103031-
---10--2-1101-021-2----110-1-12011024-2-------
-11-4--1010025-2-102---11-0----0---10-11---0--
-15-013--21-1102-01--0011-3-012---------0-0-1-
5----2------5303-1-1-100-0--113--1-11101--22--
-0--01-12---0----1--14--1----03-000123-010--1-
3----3-3-0-0-00-0-01---0-1--1-00213-0---1---01
-0--30-2-13303-3-0---00--1--111---11-0--02----
---21--2----2--33-11-0-----1--10-11--3-2--1--0
-0111---0-02-1-----0-2-2---21--1124--11210110-
1210--22---5-101----00-------2---2-2-----0--0-
2102---2---1---1-1---2-0-2---2010-420-0110--0-
-10-0-02-20---2-1-1--0---1-----0--0---1------0
1--1-1---1-2---0-1---0-0--------01-3-11-----0-

Generation = 7, Population = 558.
1---10---0--10-12--2--2-30--333-1-------10021-
0-112---010120--1--6-450-0234-10--0---0-31-2-1
3-1---1-13-0--3-2-20-1---2---214-20252-10101-1
-13-20-0--10----2----1-0-0121-2---003-5--3--2-
0---1------230--21--------3--10--4-303--01--1-
--2101--26--120--13--124---0-21--------14-2-12
3-1-1123-12------212-2413---021-3-----02---43-
4--0002----022-4-051---03405021201--3-3-23-2--
----10-301110----13-022-------011-22-0-2-1---1
101---3----02--6-0--2-0022----0---3-3-441-30--
-00-2---21-----32--1100----02-2--110-2-0---0--
----21---103--111--51-----00---5-3-0-111-2021-
-210---0----0-2-60---2-00-2-1----4------1--420
1--2-2231221-----131101-2----2-1-21--1-2200-2-
2--1-------1----1--300-2201-0-41-2-----2------
-----24----12-13-1-00-1--04--2---0---0-0--1--1
-01-0--20003641---2-121----2--41-22-22--0--32-
0-0012--3---13-2-2-42--0-1--2-40--12--0-21--2-
-0--0---1131--10--12----02122-1-324-10---1-0-2
--0--------41-04--0-0-1-020---210122111--3--0-
----2-13-1-2330-402----1-0020---0-2-1-03122---
--2--000--1-02--0--10---0-0-2-------1--3-12---
---1-03---------01--110--1-0-3--03-3-1--0----0
------0-00-200020--------30-0--210-31-----101-
0----21---10-2-----00-0-121--0-10-110---21--0-
----0--0020-0---0---01--01------121--2-0---0--

Generation = 8, Population = 451.
200--12--1-----2-2031-314------3-03---00-1-32-
------00---23----2----6131----2---1-1--042--02
40-----0----------3-----3-1-53---3-363-21---02
12---10---21-051--3102----2-2----1--4---1---3-
-----2-012--4--3------1---40--100-1-14-----2--
-0------3----311-2--1-3-----232111-013---0-023
4-2-2-343-3---1003----5---22--204---01--12----
50-1---10-1-33---1----0-4---13-3-2---34-3--3-4
-10----4----1---12-2---0--101-12-1-3---3-2--2-
21-1---------01701----1--31210--2-----5-224-21
----3-243---2--4--2-----12--3-3-1-2-13---10---
-----211---4-1-22-1--22022--0-----31----03----
-3-----1---1--34----0301--30----0--3--31230--1
2----3-4------0-1--22-2-----2-22-3224---3-113-
31124--101----0--1-4---331----5-------1--0--10
2151-35-12-2-1-40-1-1-2-------2-1----1-1-1----
-1-012-31--4-5-3-1--2--------------13---1--4--
-----30--0-1---3--------12-13-5--02323----023-
--2-1--3----0--10---0-1---2------35---1-------
---0--022--5-31----3---0--10-1---2---2--------
---2-1----4--4-3-------------21-1134-3-4---00-
-0------0--2---2-2-2--0---1-3----24-2--4---1-0
------4-0025--0-120---10-2----1----4--0----0--
2--2-2--110--1-----0-2---4-0-20---44------2---
-1---3---2---3-0--11-0-----0----1--2----32-010
1--1---1---2---0-1---2-0-----0-----------00---

*** Life<FredkinCell> 40x25 ***

Generation = 0, Population = 136.
-0---0-------00---0---0-0
-0------0---0---------0--
--------------0-0---0--0-
0--------------0---------
-----------------0-0-0---
----------0---------0-0--
----------------0-------0
--------00-------00-----0
-----0---00-------0----0-
----------0---0----------
----0--------------------
-0--------0--0-0-0-0-----
------------------------0
--0-------0----------00--
-------00--0-------------
--00-0-0----------------0
-----0---------00--00----
-0--0------0---0---------
--0--0-0--00-----0-------
00--0-----0--0---------0-
-------0-------0---------
---------0---------0-----
-----0-------0-----0--0--
---------------------0---
---------0------------0-0
0---0--0-----------0-----
--0----------0--0------00
00-----0----------0---0--
-----00----0----------0--
-0---0-----0-------------
---------------0----0----
---00---0--0-------------
------------------0----0-
----------0--------------
0-0-0--0------------0----
0------------------------
-----------0-------------
-------------------------
--0--------0-0-00-0---0--
-------0----0------------

Generation = 1, Population = 366.
010-0-0-0----110-0-0-01--
010--0-0-0-0----0-0-001-0
00------0---00-0-0-0-0--0
-0---------------0-000-0-
0---------0----00---0----
---------0-0----00---0-00
--------000----0--0-0-001
-----0-01--------1-0----1
----0-0----0--0---10--0--
----00----10-0-0--0----0-
-0-0-0-------000-0-0-----
0-0-0----0-00-------0---0
-00----------0-0-0-0-000-
-0-0---000----------01100
---0-00-10--0--------00-0
-011-1-1---0---00--00--0-
-000-100---0--0-100110--0
0--0-0-0---10-01-0-00----
00-00---00--00-00-0----0-
11-0-----01-0-00-0----0-0
00--0-0-000--00-0--0---0-
-----0-00-0--0-0--010-0--
----0-0--0--0-0---010--0-
-----0---0---0-----00-0-0
0---0--00-0--------0-----
-000-00-00---0--0-0-0-00-
---00-------0-00-000---11
11---0--0--0-0--00-0-01-0
0---0-1---010-----0--010-
0-0-01----010--0----0-0--
-0-000--0-----0-0--0-0---
--0110-0-00-0--0--0-0--0-
---00---0-00-----0-0--0-0
0-0-0--0-0-0------0-0--0-
1----00-0-0--------0-0---
100-0--0---0--------0----
0---------0-0------------
--0----------0-00-0---0--
-0-0---0--0-0--11--0-0-0-
--0---0-0------00-0---0--

Generation = 2, Population = 331.
-2---0-0---002-10-0-0--00
1--0--0-------00----1---1
-1---0------11--0101----1
010-----0-0-00---1--1----
--------------01-0--10--0
0--------1--0--0-1--0-0--
-----0---11---0--0-0-0112
------01--00--000--1----2
---01---0--10-------00--0
-0-------02--1-10-10----0
--0--10--00-------0----00
--10----0--1100----0--0--
----0--00--0----------1-0
010100-11-0-00-0-0--1--1-
------1---0--0-00--00---1
0-22---2-001---1-----0--0
--11-2-10-0--01--1---10--
10--0101-00--0---1-----00
1--11---1---11-11---0----
22-10-0-01--1------0-0---
--0--0-0-110-------1--0--
00--0--1--10-1---0-----0-
---0-----1-0-----0--100--
0---0--0-1---------1---0-
--0--0-1---0----0--10--00
-1---110-1-------01---1--
0---100--0----11--1--00--
-2000--0-0-1----1--1----1
--001--000-----00------1-
10-01---00-2-0----0---1--
-----10----0-0---0-----0-
--1------1-0-0-----------
0-0-1--0-------00---00---
1--01------10------------
----011--0-0----------00-
2-1-------0--------------
1---0--0-0-0---00-0-0-0--
0------0----0------------
0---0----0----02200-----0
-----0-0-00-0-0----------

Generation = 3, Population = 490.
--000-0-0-01-31-1---1011-
-10-00-----0-01-00--20---
02-00---0-00----12-20--02
1210-0-0-------0----2----
-00-----000---1---0021-0-
-0---0--02-0-001--0-1-1--
0---0--00---0010-1-1012--
---00-12-----0--1-02--0--
-001200---0-1-0---101100-
0--0000--------21--1-0---
--1-0210----0-000010---1-
-0-1-00-1-----10----001--
00-01-0-10-10-00-0-00020-
1---110---101--10-0-21--0
-0--0--01----1-11-01----2
----01-301-20--2-0-0-1-01
----03021---0-2-120-1-1--
-1-0-2---1-1---1-20-00-11
-00-2---2000---22------00
-30--0-0----2--00-010----
-0--0-010-2--0---0020----
11----0200-1--0-0101000-0
-00-0---020100--010-2-10-
-00---01-20-----000200-1-
0--0-10-0-0-0--0----10--1
-----22--200--00-1--0-2-0
-00--1-00-00-022--2-01-11
-3111--10---0-0020--001--
00--201-110--001-000-----
210---0----3-1000--0-0-0-
0000-2100-0---0-0-------0
002110000--1-10000--00-0-
1-10200-00--000110-0110--
20-12-00-00-10-00---0000-
--0---200-01---------0110
3--0-000-0-0---00-0-0--0-
-000-001--0---011------0-
-0----010----00--0--0-0-0
10-0----01---0----10---0-
0---------1---1-000-----0

Generation = 4, Population = 338.
-----0----1-----2--0-1-20
----11----0-----1-0-3---1
-3---0----1-110----31-013
--2-0---00-0-----100----0
-1-------11---21-0---20-0
-1----0-1-0-0---0-1---2--
----1-------1-2-0---1-31-
00--10----0-010--1-300---
-1---11--0---0---0---2110
--0---1---2---0---1-01---
0------1---0----1-------0
-112--102--1-021--00-1-0-
---------10----10-01--31-
21--2-----21---2-01-----1
--00-0----0-0--2-0-------
-0-21-04-2-3---3-1-10-01-
-0-----3-0-01---2--12--0-
120--3-10202---2-----10--
11-1-0--31----03---0-00--
24-10-0101----0--0-2-0-00
---0-0---1-----00---1-0-0
22---0-3---2-1-----2---0-
-1---0-0--12-1-01-1------
----0--2--1--0---11---02-
------11---0-0-1--0-2---2
010003--03-----1---0---0-
0----20--0--01-3-0--1--2-
-42--0--1-----1---0--12-1
-10----0--1----2------11-
3---11---00----1---1-----
1---0--1---0-0-----00--0-
11--2--11---0--1--0---0--
-----11-------1----1---0-
-1---01----1--0----------
---00-3-1----0----0-0-2-1
--11---10--10------------
-------2-------2--0----1-
-------2--0-0------------
----0-0--2--010-20-1----0
1--0----0--0----1--------

Generation = 5, Population = 463.
-----10--021---130--1--3-
-1-0220--0-000102---4-10-
0---010-0-202-10120---1-4
-2-----01----0-00----0---
02--0-0-0---0032010023--1
020-00---21-10--11-01---0
0--02-0-0--0-03-1-0-21-22
1-00---------2-0-2-41-0-2
-2-----00-0--10-01-013--1
0--0--2--------21---1--0-
---0--12---100---0-00----
-2-300213--2-1--00----11-
0-001-00-2-1-0-2101-0-4--
32--------32--0-0-----1--
001----0--1--10----10-002
012-211--3040-0402----1-1
---103--1-0120-0--0---110
--1-04--1------3---------
220221-042-0-1--2001-1--0
---21-1-121--010---301-1-
--0101---220-0-11--2-0--1
3-000--400-3-20----------
-20--1--02-----1212---1--
-0-0----02200-0--2220013-
0000--2--0---1-20-11-000-
------2-1-000-0-01--0-21-
10-0-31001001224-------3-
---111----0-0--0---1-2---
---02-1---21---30-00---2-
4-00-20-01---1020-02--1--
---0--12-0--0-0-----10--0
-2213---21------00-000-0-
1-------0--0002-----1---0
2-01--200-0-1-10--000-000
-0--114020-------0-------
-02------0021--0----0-000
--00--0---00--0-10-0--0-0
----0--30---1-000000---00
1-------------1--1--0--0-
-00---00--1--0102--0----0

Generation = 6, Population = 501.
-2-0---00----3--410021-40
---13-10-1-11-2-30005----
-3---2-01031------131-21-
132--001200001-111-0-1---
-3-010-01-10---3-2-13-002
1310110-1320-10-2---20---
--0--0------11402---32333
201---12--000----30-2--0-
0------11--11-1------4--2
--0100300-200--3-0-1--0--
001---2---0---0011-1-00--
--141---4-0-1-2--1-0-1-20
1-11-0--1-0--103-12------
4-012-0-----10121-10-1--1
1--000--1--0-21--0021-1--
-2-2-22--4-5---5-3-101---
0012-4-320-2312----1-1---
1-2-150---0-0-04-2-0-101-
3-13--01--0--2-33---020--
24032--1---021--00-4-2--0
00---2-1033-----2003110--
-211-0051114--10-102-00-0
---0--0-13--0102-2--2-2--
---10002----10-00--3-1--0
11--0131010-0--3-------12
--0----02--1--1--2---0-20
21-11-2-1--1--3--0-011-41
14222-011---1------2--2--
0--1--201--2-0-4---100--0
--1113101--3-213--------0
100----3--00-01--000-----
-3-2400---01-1-111-1----0
2---2-1----11---1001--001
3112---110-120-10-1---1--
-10-2-513-01--0-0--0-----
3---00-1--1320-----------
---1-0--0---001---01-01--
0-0--0-4100---1-1--------
--0-0-0-0-0-0--222-1-0010
-110-01100-0012-3-0------

Generation = 7, Population = 514.
0--1----1--1---1-21132-51
--0-4221-20-20---1--6-1-1
-4-0-3-12-422110-2---0324
2-3--1---1---2----0---0-0
0---21--2-21---4-3----1-3
24212-10--3-1---3---3-2--
-0---10001-0-25---0143-44
---0--2--0111--0-41-30-12
1--12112-0022-----10-----
------41---1-10411-211100
1-20--3--0---0-1-2------0
--252-215----1-1--01-2131
2-22---02-110---1--1---1-
-------1--3-2--32-2-2--1-
2--11-10--110--2--1----02
032-233-05----0--4021----
-12-0--4--0-4--0--0-2--1-
-2--26-11-121---0--102121
-22-2---421-130--0-11---0
35143----211--1-1-05--01-
-10--30214-0000---1----0-
------16--25----021---1--
-2---1-------21323-1--30-
000-11--0-202-011-2-0---1
22---24-1-101--4-0-1--0-3
-1---32-3--2-02-0310-1-31
------3--102-24401----0--
25----1220-1--10-00-02---
1-0-2-3-212301050-0--1-21
---2--2--1---32-000-00-01
21-0--14-0-1-1-0----1----
14235----1-2020222--0-0-1
3010312-00-2-0-1211-11---
-2232-2-210231121020-02-0
1--0316--0-200-010--0-2--
--2---0200-43-0-0-0--00--
----0-021----1-21012-121-
--1--105---0--202-0----00
1--0--1---101-13-31--1--1
1221012-11111-3040---0000

Generation = 8, Population = 337.
-2---10------31-----4316-
1---53---3------3---7-2--
----0-0-3---3--1-3---1--5
33----012-0--3---1-0---0-
---------1-2-03-0---33--4
-5------1-4---0---1-403--
-1---2-1---1-36-2-----3--
2011-0-2-12------52------
-20-------1---1-01--1-1--
--0-0-5-0--20--5--1------
-----2-2--010-0-13--0--1-
-23-3--2--02-2-2--1--3-4-
-------1-------32122-0---
--0-2----0---01---30-11--
3--2-0-------2-3------1-3
-4-23---1605-0-505---1--1
-2---4-52-1251----1----2-
1-2037---22-2-0--------3-
-3-3-----32----33-02---01
4-----11132-21---0---21--
-----413---1---1------011
--1--0----3------3---020-
-3---2-01----324-----0-1-
--1-22-21--1-0-------1--2
-3---3--------05-1-2---1-
-20-0-3-4-0-0----------4-
2-------1--3---5122011--1
-6--212-31---021----1--01
21-1---0---4-2-6---10----
-1-3-3-------4-----------
--0--2-5---20--10-00--00-
2-3----1---3----3--1-0---
---------10----2---1--0--
3-3-3-------4-----31-----
--0-4-7-3-03------0----11
30----131---------1---1--
---1-01------------3--3--
00---2-----1-------------
2-01-0--0-----24---102-1-
---2----2-22---1----0----

Generation = 9, Population = 482.
--0---10-0--04214--1--271
---1--2---0-202----08-3-1
-4-013114-42--1-1413-----
443-01---1---4-1-2----0-0
0-----002---------0------
262--1---3-0-1-1-1---1-00
---023-2-11--4------4-44-
3-22-1-3-2---2--1-343----
--1-21121-2-21-01-10---1-
--1--0-1-02--10-11-2--10-
-0--0-33-0---0--2411--020
034---2-50--1-23012--4-51
-0----022211-----------1-
42-1---11-3-2-232------11
---3--1-1-110-14-012-02-4
-5--43----1-0----6--1---2
-3--05-6--236--02--1-113-
--31--01--3230--0--1--1--
3-24-101-430-3-4401312--2
---4---2-4-1321----503-1-
0-0-0-2--43--00-2----1122
---10---11---21-0-1-0-31-
0-0------3120--523--2-32-
-0--33---22--10--2-30213-
240-04-1--101-16----2002-
--1--3--5--2-02-0-1-0125-
-10--3-0-----2------22042
272-3-32-20-1--2-002--21-
32-2-----12---070-02-1-21
-214-42------52-0-0-0-10-
2-1-03-60-0-1-12--1-1-110
--43-00221-4---242----00-
----3--0021-1-2-----1--0-
--4-402-21---1-2-0--0-200
--1-5-814-14-----0-----22
41-10-2--014-----02--02-0
--0-----1--0--------0141-
-1--0---1-0-1-20----0000-
301--110121--13-2-1213--1
1--301-13-331--24---1--0-

Generation = 10, Population = 488.
-2---1-1---1-53-5212-3---
-1-2---10-11-13--1-19-402
-50-242-50-3-12125-------
-540--0-2--00-0-1300-1---
-3--211-31-2-----3-1-310-
--3--2---44--2--------3-1
-10--4-3-22-1-60210-535--
------2-132---0-2--5-00--
12-13---2-3-321121-1---22
--2101--0--2-2152---11-1-
-120-2--0----10-3-2-0----
1-5530---1---23-12--0-16-
2--2-0-3-3220----12--04-0
5--22-0-20--3--43-30-1---
3-14---02-2-1---1--31130-
062----416---00--7-2-1--3
04----0720347-21--122224-
1----7-21-4-4-04-----22-1
---5-212--41--055---2----
--15-013---------0--14120
----1----54--11-30131-2-3
--12-0162235---0-3--1042-
-3---2---42-13263----0430
0111--021-3122-1-3-4-3-42
35---5-----12-27-11-3--33
02-0--30-3-30--1----1--6-
--11-431-103-3-512---3--3
---2-14--------3211--2-21
-3-3-0-02--40--8-01-0--32
4-2-1-3-11---63-1--210-11
-1--14---0-2-1--0-2-2-2-1
24-4--------0-0--3---0-1-
----412---22-0-22--1210--
-25-5---3-02--1--1311-3--
1-20-19-----00-01---002-3
52-2--3-11253---0-30----1
10----122-01--12-013-----
-210--0--011-0-1--0-1-1--
-12-0--1--2-12--3-2----1-
2--4--2--1--2--3-00-2-0--

Generation = 11, Population = 494.
03010--2---2----63--4--71
1-0------322-24-3-0-+05-3
06--3--1614-3---36--11325
465101---1011411-----2-0-
040-32----23-03--402--21-
-641---0-5-----13-1041-0-
02-0250-033--4--3-1164644
3-221--3-431-----5-63---2
231---12-04243-2-2-2----3
00--1-51-0--03-63-1--2-2-
-2-1--331--10211-4----0--
23---122-2-2------2114-7-
-0---10-24----032------1-
-2-331----3--025-0--2-111
-0------3---2-1-2--4---1-
17-----5--1501----0---11-
1-----1--14--13-2-23--350
2--138-3-2--5-15--010--3-
3--6-323-4-2-3-66--332-0-
-52-3-2-14-1-2-011--2-2--
---1-4------02214---2---4
--230------6--11-4---1--0
-40-030-1-3--4--43-1-15--
---2331-22-2----142-04153
46--0-4-11-23138--224-04-
--1103---404------102-271
2-22--------1--62----4044
-7---2-2320-10243--2-3--2
--0421-1--251--9---211143
---42--0--0---432-03-11-2
22---5---1--121210-03---2
3---5-0--104----4--101---
3-1---3002--1--331--32---
-3-360-1-----1-212-22--00
2---52-1-0-4-101---0----4
6-230--3--36--0010---0202
-1---02---12--2-11----4-0
-321-215-1--1122---0-----
-----11-1230--34-3-2--0-1
-----1--3--33-3-41-------

Generation = 12, Population = 466.
--1-111-10-30531-4-25--8-
--1-------3-235-----+1---
1-0-4-22--5-41---7-3--43-
5-6---01---22522--00-3---
--1---10-1--0--4-51--3324
275-2---1640---2-12-5----
---13-1-1---1-6-41---5-5-
---3--2415-----0-637--0--
34---1-3-1535--32313-4--4
-1----6201-214174---1-1--
1-----4-200-13--3-2100-2-
34553----3-3-2--1-3--5181
--22-2-33--2---43-22-0---
5--4-------2-1----3---2-2
--1410---0--3-24------3--
--2---------1-0--712-1-2-
---20--72---7--1--3--2--1
-23----4--------02-------
4--7--3-4--31407-----3012
-63---332--23-11-20--4--0
-102----15-1133--0-33-225
---4-01-2----2---512-2-21
05--14--24-21----42-22---
0--3-42-3-33--0--5---5-64
57-0--5--213---9--3350153
---214------002-03-1-13--
-1-----11---2----22---155
--2--3-----12----1131-22-
--153-----3---0-0--3--2-4
42---4311-1------014---1-
-3101--6020-2-23-121-0213
--44-01--2-50202-30---0-1
40-----1------2---114-001
3-547-2----2-2132-----31-
3-206-----15--121-01-022-
723--0-41--73-112-30013-3
-20----2----------13--511
0--2-3-612112-----011----
-12102-1-3--1-4-34-313---
----02-14---4-435-00--0-0

*** Life<FredkinCell> 38x7 ***

Generation = 0, Population = 92.
----00-
0-----0
0000---
---0-0-
--0----
--0-0-0
--0-000
0--00--
---0---
--00-0-
-0---0-
0-----0
--0-0-0
------0
-0----0
00-0--0
0------
000-00-
---0---
---0--0
--00---
0----0-
0--0---
-0--00-
-0---00
000-0--
-0---0-
0----0-
-0-0---
-000--0
---0---
-------
000----
---000-
--0-0--
00-00--
---000-
0----0-

Generation = 1, Population = 147.
0--011-
1-000--
----000
0001--0
-01-000
-0--101
00101--
-0----0
0----0-
--1--10
---001-
--0-0-1
00-----
-00-00-
-100-0-
----001
-000000
--10110
00-1-00
----00-
001-000
100-0-0
1-0----
-10-1--
----0-1
1-1--00
01---10
-0-0010
-101000
0--100-
-0-10-0
0000---
1-1-00-
0001110
0------
110-1--
-00-1-0
-0-0-10

Generation = 2, Population = 144.
10--220
2-11100
-0-0---
111200-
-1-0-11
--0-21-
1------
01-00--
--0-010
00---21
--011-0
0--010-
1-0--00
-1-01-0
0-11---
---0---
0111--1
00--2-1
1102-1-
--0--10
-1--11-
211-101
2--0--0
-2--200
00-0102
20-0--1
---0-21
--0-1-1
-------
-0-2--0
0102-0-
-11-000
-------
1-1-221
-0-0-00
-2--200
-1-0201
010-02-

Generation = 3, Population = 151.
-1---3-
3-2221-
01--0-0
2------
-2-1-22
0--03--
2-10-0-
-201--0
-0-0-2-
11100-2
--12--1
100-2-1
20-00--
0---201
-122--0
-00-0-1
-2---02
1110-12
-213020
001--21
-210-20
-220-1-
30--00-
0300-11
-1--213
-----0-
01-1032
-0-0-12
-1010--
-1030--
1-1-010
---0111
10-----
-0-133-
-10--11
1-00--1
--01---
1210---

Generation = 4, Population = 132.
---0-40
4-3-3--
12--10-
31-200-
0--2033
1--1411
30-11--
--1200-
----0-0
222-123
-02-11-
-1--3-2
3-011--
1100---
--330--
01-0-0-
--11--3
2-2-223
13-4--1
1-20-32
-3---3-
-33-1--
-10011-
---1-2-
-2--3--
2--00-1
1------
--0----
021---0
---41-0
-12-12-
-1-122-
2-1---0
--12---
---0---
-21-2-2
--122-1
2-2-0--

Generation = 5, Population = 140.
1---251
50-2410
2---2-0
4----1-
--13---
--02-2-
-112200
0-23-1-
00----1
33--23-
-1--2-1
-20--0-
4--2-00
---12--
-1--1--
12--0--
-----04
313-3-4
24-5-2-
2-3----
-410-4-
24-021-
3-112-0
---2-31
--004-3
3-11---
21010-2
--10--2
1---001
0-05-01
1-3-2--
-2-23--
-0200--
10--3-1
-101--1
13--3-3
0-2-3-2
--30120

Generation = 6, Population = 136.
2----6-
61-3-21
----3-1
5112---
02--0--
--1343-
-2----1
1---020
1--002-
-420-43
---23--
--1--12
---31-1
110---1
-23--0-
2-001-1
--1-01-
-240--5
3---0--
3-40---
0-2-150
---13--
412---1
0-0--42
02--514
40220--
----1-3
----1--
22-1112
---6---
214-3-0
-3--42-
-1-1100
21124-2
02-201-
--1-4--
1132-0-
22--2--

Generation = 7, Population = 121.
3--027-
-2--4--
--00-02
-2-30-0
--131--
102-54-
---2-02
2----3-
2---131
-5-1--4
-12-41-
-2-032-
400420-
22--2-2
0-4---0
-21----
0----24
-3513--
4--5-21
---1032
1-3---1
-432---
----2-2
--12--3
1-0--2-
-1--1--
210----
00-----
33--2-3
---710-
325242-
----5-1
--2--1-
----5-3
-----2-
-32-50-
-243--2
-------

Generation = 8, Population = 126.
--01381
---3521
-21--1-
5--4-11
02-42-3
2------
-2--213
32-3--0
3---24-
-62-245
023----
-----32
---5---
3-0-303
1-53101
23-0-0-
-2-1-35
34-242-
-------
-----43
-4401-2
-543---
-1-1--3
03-3--4
-21----
4222---
--111--
11--1-2
--1-31-
-------
4--3---
03--6--
-1-11-0
--12---
-20-03-
1--06--
1-54---
-230--0

Generation = 9, Population = 142.
-11249-
-23-6--
-320--2
62-50--
13--334
30-3-4-
331-3--
----031
400---1
3----56
13-24--
1210343
4------
4-1--1-
-2-42--
--1-1-1
0---046
4------
44-50-1
-041-5-
1-51253
2654---
--2-214
1414245
13-0--4
53-----
-1-2-33
221--1-
3----2-
0-0710-
5-5----
--12721
-22----
-1--533
-3---41
2-2----
22-5--2
-34-22-

*** Life<FredkinCell> 36x4 ***

Generation = 0, Population = 78.
-000
-0-0
0-00
---0
0-00
00--
-0--
00--
00-0
0--0
0--0
-0-0
00--
-0-0
000-
-000
-0--
--00
0--0
--00
-00-
-000
-00-
--00
0---
0-00
0-00
0-0-
--0-
-00-
00--
-00-
00-0
--00
-0-0
-000

Generation = 1, Population = 74.
0---
-1--
-011
--0-
101-
---0
0-0-
-100
1--1
--0-
1-0-
01-1
110-
0-0-
1--0
-111
010-
0-1-
-00-
0---
0-10
01-1
0-10
0--1
10--
----
--1-
1---
0--0
---0
110-
011-
1--1
0011
01--
0---

Generation = 2, Population = 80.
----
-2-0
0-22
00--
2---
-00-
-010
021-
--02
-01-
201-
1---
22--
-01-
2-01
0-2-
-21-
1--0
01-0
1--0
-02-
12--
-021
---2
-100
000-
00-0
2000
1001
-0-1
-2--
12--
-002
11--
1--0
1---

Generation = 3, Population = 75.
-0-0
--01
1-3-
11-0
301-
----
-1-1
1320
1013
--2-
-1-0
-10-
----
0---
3012
11--
03--
20-1
12--
20-1
0-3-
2301
----
--0-
--1-
---0
11-1
3-11
--12
--02
--00
23-0
11-3
----
--0-
20-0

Generation = 4, Population = 90.
0-01
0---
2042
2---
-12-
0-00
-212
--31
-1--
0030
22--
1-1-
220-
1-10
41-3
22-1
1410
31--
230-
3-0-
--40
--12
00-1
-012
-12-
00-1
-21-
40-2
1023
-013
1--1
--1-
---4
1111
1---
310-

Generation = 5, Population = 75.
1-12
----
3--3
31-0
32--
--1-
-3-3
-3--
-21-
---1
3-10
--21
3-1-
----
5-1-
332-
2---
4211
34-0
40--
005-
2--3
1---
-12-
-2-0
11--
1321
-1-3
--34
0-24
--02
23-0
1105
----
-1-0
--10

Generation = 6, Population = 65.
--23
--0-
4-44
4--1
---0
00--
041-
1--1
1-2-
0032
---1
-13-
--2-
----
6123
4--1
-4-0
53--
4501
51-1
116-
----
2-21
--3-
--2-
-2--
----
-2--
1--5
--35
---3
----
-2--
1-1-
1-01
--2-

Generation = 7, Population = 69.
-0-4
02-1
5---
51--
-221
---0
152-
--3-
-233
--4-
3-12
12--
--30
10-0
----
53--
25-1
-4--
5---
62-2
-27-
-3-3
---2
01--
--30
1---
----
--13
---6
0046
---4
-3-0
----
212-
2-12
313-

Generation = 8, Population = 75.
-1-5
---2
-0-4
---1
----
0-11
2---
13--
13-4
0--2
42-3
-33-
-24-
2111
---3
--21
-6--
5511
65-1
--0-
-380
2414
2-23
12--
--41
-201
1-21
-22-
103-
1--7
1---
2--1
1-05
----
--23
----

Generation = 9, Population = 63.
1--6
--0-
5---
-102
3-2-
1-22
--23
2-31
2--5
-04-
--14
-4--
-35-
322-
612-
--3-
-71-
----
---2
6212
----
-5-5
----
-33-
12--
-3-2
--3-
4-3-
-1--
----
-2--
-3-2
2-1-
2---
-134
--30

Generation = 10, Population = 77.
-1--
-2--
---4
5213
42-1
2-3-
-534
3--2
3-36
-1-2
-2-5
1531
-4-0
--31
-233
53-1
28-1
-511
65-3
7---
1-8-
2---
--23
--42
23-1
-40-
1-4-
-243
----
----
1304
-41-
32--
3--1
-24-
----

Generation = 11, Population = 80.
122-
0302
5--5
-3-4
5--2
3-42
264-
4-3-
4347
-24-
--1-
2--2
-5--
-2-2
--44
-43-
-91-
56-2
--04
--12
---0
35-5
20--
1--3
3--2
1---
----
-354
-136
1047
2415
25--
---5
41--
-35-
-13-

Generation = 12, Population = 63.
-3--
141-
60--
5---
6---
-0--
3-5-
----
-4-8
--5-
4-2-
----
-65-
3333
-2--
5-4-
-+--
6--3
6--5
-2-3
13--
---6
3-2-
--44
-343
24-2
1341
4-6-
-2-7
---8
3-2-
----
--1-
5--1
-4-4
3--0

*** Life<FredkinCell> 18x31 ***

Generation = 0, Population = 160.
--------0----0-0--0----0-0--0--
--0-------00000-0----------00--
--0-----0-0--00---0--00----0---
-00-0---000-0-0-0-00----0-0-0--
--00--------0---0----00-0--00--
-00----0------0-0------00---0--
0--00-------0-----0---00--0--00
-0--0-0--------0----0-----0----
---00--0------0--00------0-----
-00---00--0-----------0-0-0---0
-0---0--0---000---00--------00-
-0--0---0---0-0-0--0-0--------0
-----0---0--0----0-00--0-------
---00-0----00---00-000--------0
-0--0--000-0--0-0----0-0-------
-0----0--0-00-0--0-0------0--0-
-0--0----0----0--0-0---------00
0-0-----0--00--0--------0------

Generation = 1, Population = 275.
--0----0-000-10--0-0--0---0-10-
-010-----0-----0-0---000-00--0-
---00--010--0-10-01-01100--10--
0110-0-0----101-1--10--01---10-
-011---0000010-0-0000110-0-110-
-1-00-0-0----0--100--00--00-1-0
-0-1-000---0-00000-0001--010-11
--00--------0---00-0-000--10-00
---1-0010-0--0--01100-0---0---0
0-1-0-1--0-000---0-0-0---0-00--
0-------1000---0001-000-0-00110
0100-0-01--0-01-----0-00----0--
-0-00-----0--00-01-1-00-0------
-001-0--0-0--000----1-0------0-
010-1001----001-10---1--0-0--00
0-0--0------1--0-1-100-0-0-001-
-1-0-00--10--01-01-10---0-0-0-1
-0-00--0--0110--00-0---0-0---00

Generation = 2, Population = 268.
--1---0----1-21-01--0-1---1-2-0
012--------00001---0----01--010
0-011-0---0010--0-20-22----2-0-
12210---0-0-21---00-1001---02-0
-122-0--1---210---11122-0102---
0-01101-1-0----0---0011-01--2-1
010-0111--0-0----10---2-0---0-2
--110---0-0--00-110----10-2---1
0-02011-10--0100----1-1---100-1
1--0-02-01----000--1-10--------
---0000--1-1---1-120-1-0-011--1
-2--0--1--01------0-1-110-0-1-0
---110-0-01-011012---110-0--00-
-11--1----10-1-10-----10--0-01-
-2102--2--00-1--2-0002---0---11
1-1---00-000200-----1------11-0
-2010-1-02--0-20-2-2---0---01-2
01--1---0------0---1--0-0----1-

Generation = 3, Population = 284.
0-20-0-0--020--0120----00---301
--3-0------11-1200-1-0-012---2-
--12---010-1-1---0--0---0003-10
-3----001-1032---11----2-0-130-
0--3-1-0-0-0-21----2--30-2--1--
1-122--02-10-0--100-122-1---3-2
--1-122200----00----0-30--101--
--2210--10100--022-00-02--3--0-
1---12--2--012--011--02-00--1-2
20---13--2000---1--20----0--0--
000-11---2020--2023-02-10122-12
0-00-0-210---01-0010----1-10201
---22--1-12-12-123---2-10-001--
0--1020---2-0-0-1-0010--00---2-
----3--30-110---3-1-13-00--00--
---0-0--0-1131--01012--0-00--1-
0-1---20----10-----3------0--03
1---20001---1--1000200-0-0-0---

Generation = 4, Population = 265.
---10---0013-2--231--01----0412
01------00-2-023110-0------0--0
---3----210--2-0-------0----021
------1---2--3--1-2-1--31-0-4--
1--40-0-----23200-1-----030---0
2--3-0-1--2--10-2-10--3---0----
01--23-3--0-0-1-0-0--04--0----2
00---1--21-1----3-01-01---4-0--
2-0--3-13001-30-122011-01--020-
3---0240--1-1----003-1000---1--
11-022-0-313---3-3---3-2123----
12---1---1010-2-1-21---1-02-31-
---3-0-20------2--0--3-210-1-00
-11---100--0-1-1-0--211011--0-0
0--040-4--221-10-0--2----0-111-
1---0--01--2--00--12--0101---2-
1---00--0-0-2-20--0-00---01-1-4
21003-1120-12-02---3-1----0-010

Generation = 5, Population = 283.
002210-0-1---3---4-0-120--1----
123-0--011-3-1-422----00--0102-
001-1-00-2--1-1100----21--0----
1---00201-30---02-3--00--01-5--
212-111----03-3-1---1-3---1210-
--14-11220300-10--211-401110---
1-1-34-4--10-02----00-500-1-11-
1-----00---2-0-0-21-01--0--01-1
-0-2--1-411-141--3---2---0-1-12
--1----1-2----00-11-02--1-0-2--
2--13301----0---043-040323-2-1-
--0---0---121----0-21-1--1-04--
0----10---2-12-3--1--413210----
-221022--0-10-0--1-0-2-122001-1
1--1510-003-21-1-1--3---0--22--
-0---00--01331110--32-1--2-113-
--1-11-0-2--3-31021-1--0----2-5
-----02-3102----0---020---1----

Generation = 6, Population = 292.
-13-21-102130410-5---23-002-41-
2-40---1-2--122-3301--11121--30
11---0-1-3-1-22-------3-0----2-
-3-111-1204-3-1-31-1-11-11216--
---4--20-001--4-20--22--0323210
--25-223--4--121-0322-512---3--
2-214------10--0-10-10-1102--2-
2-221----1130-----21----1-----2
--0-132-522125-01-2-1-2-1-12-2-
3--0024203-----112---3--2----00
-102--1-131-100-1--0151-3-33--2
-2--01---1--2--0-1-3---11-2-5--
---3--12--3-231-23-1--243--1--0
03-21-30-1-21--1120-231--311---
-2--6-1-1---3--232104-0-10-33-1
---001---12--22--1-43--------4-
----22--0-0040-2--23--0-001-30-
--0---3142-3--0-1-03--1--0-00-0

Generation = 7, Population = 266.
-2-232---3--152126-003-0-1--5--
3--1--0-1--3--3444-20-2--3-1-41
-----1--2-0---31--2----1-0-3-3-
-4----22-----3------1---2232-00
-1---1-11--2---0-1-2--3-1434--1
21-6233-2-50-23-214-3-6231--402
3-3---24-01----1--1--15---30---
3-332-0---2-1---3-32011----0-0-
-01-24-1--3236---330-2----23-32
--1-13---410-----3-30400-0--2--
----3321--2---1-243--623---4--3
13-01202-212-02--2---01-2-3--1-
0-042---01-03-2--412---5--02-0-
1-----4-0-232---------2-2--2---
-311-124-03-4---4-21531-2-0-41-
-011----12--3-31-2-5-0----0115-
--1-----1--1-------4-01-1120---
-1-03-4-5304---2----0220-111-1-

Generation = 8, Population = 263.
-----3----1-2-323---143--22---2
--42-0--2-----4-5-0--0-11--20-2
11-31-0-3---------------0-0---1
152--13-2-403----13--11---43---
--24-2---0-33---221-22402-4--1-
--27-4--30---34-32-2-27-4-105--
-141--35012-00--0---1-6-1-4---2
404--110---32----243---2--4--1-
-1223-2-5-43471---41--20--3-2-3
--2-24--05---00-------1----0---
210-4-3-13-3--2-3-4--7---3-----
-40--31-1-2-2130--231-----4052-
-015-------1-3332--3042-31---10
2---1-501--4310-12--2-313313---
--2--235---2-11--232-4--3-1---1
1---010-----4-420-1-3-1---122-0
-2212-20-2-2--3--22511-022-1---
2-014-------2-0-1---13310-2---0

Generation = 9, Population = 266.
--32340-03-------610254--33-513
3-5-01-1320-12546--2-122--131--
----2-1--3011-3-00----3-1-13032
-6-1----3051-3-----1-----254600
2-3-----110---40---23------4--1
--38-5---1-00-5-4-4---82--2-6-2
----44-61231---11110-1712---1--
5-53-2--212-300--35---13-0-0--2
------31625458-0----12--1043-3-
30-035421-----111--3--2--0----0
321-5-4-2-2--0-3--5-----3---11-
-51--4--22--32--12-4-01-215----
--26-1-2---2-4-4-------5--0---1
-----2-12125--11---03----42412-
-3-16-----33--2-4-43--1-40-3412
-----210-2-3-25-1---4------33-1
133232-1----40--033-----33-2---
-1-2-041-3----1---0--4-2-1---1-

Generation = 10, Population = 292.
02--4511----2532-7-1-6--04-0--4
--621--24--3--6--4-30--3--2424-
111-31--34-2--41-12---41-02--4-
--2---32----3-103132--1--36-711
-144-2-1---33--1----4240-4452--
21-926333---1-6-52523----1-07-3
3--155-72-4-002222-1-2--3-4-22-
--6423-03-3--110----01---141---
-12-34-2-36-6--1-34-232-2-----3
--214--32--0102-23-----021-020-
---26-51-3-3-1243--0-7-3433422-
--2--5---3--4330232--121---0521
---7---30--33535-4--04---1--1--
-32--3----363-------4331--352-1
1--2723-10-44--25-5-54--5-14-2-
1-1-0-----244--------01---14-52
24-3-3--1---5-32---511--4--3-05
-2034-----0-2--21-131---02210-0

Generation = 11, Population = 278.
13----------3-43-8-22-4-1531---
-2--21----04---46-0-1--4-3-5---
2-23-2-1-5-3-25-02-002----3-0--
16--114--0-14----243---32474-22
--5-13----0443422--2--51-5563--
--3+3----15--37--3-3-282-2--80-
4--2-6383-5--1-33-12-371--5--3-
5--5-4-1-1-33-21--5--2--1252-12
223-4----4-478121-5--430304-2--
---25--435--21-----30-----0-3--
--1--36-24-4-2-544---82454---3-
-5-0-----422----343--2-------32
-02-2-141----64-25-3-52-3--2---
-432-4-1--4-4-1-12005--2---6-2-
2-23834-21-551236----51---25432
-0--121---35525-1-154121-2-5-6-
---4--21-2----4-----2--05-2-3-6
---45---53--30--2-24---2---2111

Generation = 12, Population = 280.
2-3-45----1---5-3-13---026--5--
33--3-02--1--26---------14-6---
3-34--1--60-1361----134-104---2
-72---5-3152-3-03--4-1---5---33
2-642----1-5545-32--4--22667-11
21-+-633-26--4-15-5----3-32---3
51--5--94-6--2--42---48--06----
---62512323----233--0-13-3-31-3
--4-5--------9232-6-----41533-3
3023---54610-2---3-414---11-4--
---2-471-52513-65--0-----5---4-
16---5-22---4-3-4-4-1-21-1-05-3
01---1252--3-7--36-40-35-1031-1
-----5-22--65--123-1633-----23-
---49--532---2--7---5--0--3---3
---1-32-124663622-2-523-0--6-72
-4353--213-2-052---53--163--4-7
--0-604-6-0441-2--35--33---32--

Generation = 13, Population = 273.
33---6-1-323--6---242-413-3--1-
446-41-34--4--7-6-03112-252---2
4--5-2----132-7-----245---5---3
1831116-4-6-------4--2-32-747-4
3--53--1------6-43----5---78--2
3-3+-7--3-----726--332-4443---4
--42663+---103235----5-131--2--
50-7---34--3-------3-2-41-----4
2-5-6-3----47--4-----43-5-644-4
4-3--5---72-2---2-1--52--2-05-0
---3---2--362-27---118245--42--
--201--3--225--0-4--2-----5--34
--2-22--3134----4-1-154----4212
24-2-6533-4-6112-------2-4---41
--2-+3------53-3--5--51--0--434
-0---43-2--7--73---56-4-1---383
2546-323-----163--3---1-7423508
--14--517315--13204--44--224-11

*** Life<FredkinCell> 17x30 ***

Generation = 0, Population = 20.
---------0------------------0-
------------------------------
------------------------------
-----------0------------------
--------------0---------------
---------------------0--------
------------------------------
------------------------------
0---------0-------------------
-----------0-------------0----
---------0-------0------------
-----0------------------------
--------------------------0---
--------0-----------0---------
------------------0----0------
--------------------0---0-----
-----------------------------0

Generation = 1, Population = 65.
--------0-0----------------0-0
---------0------------------0-
-----------0------------------
----------0-0-0---------------
-----------0-0-0-----0--------
--------------0-----0-0-------
---------------------0--------
0---------0-------------------
-0-------0---------------0----
0--------0--0----0------0-0---
-----0--0-00----0-0------0----
----0-0--0-------0--------0---
-----0--0-----------0----0-0--
-------0-0--------00-0-0--0---
--------0--------0-0--0-------
------------------00-0---0---0
--------------------0---0---0-

Generation = 2, Population = 73.
-------0-0-0--------------0-0-
-----------0------------------
---------0----0-------------0-
---------0---0-------0--------
------------0---0-------------
-----------0-------0---0------
0---------0---0---------------
-----------0---------0---0----
0-0-----01--0----0------------
-----0---1---0---------0---0--
0------0--11---0---0------0---
---0---00--0--------0----0----
---------0-------00----00---0-
-----00---0-------1-0-0-0-----
----------------0---00---00--0
--------0---------1-0-----0---
------------------0----0---0--

Generation = 3, Population = 160.
------0----10------------0---0
-------0--010-0-----------0---
--------0100---0-----0-----0-0
--------010-----0---0-0-----0-
---------0-----0-0-0-0-0------
0-------------0-0-0-0-0-0-----
-0-------0-0-0-0---0-0-0-0----
--0-----00----0--0--0-0-0-0---
---0-0-01-0-----0-0--0-0-0-0--
--0-0-00-2-0--00-0-0--0-0---0-
-0-0-001--2-000-0-0----0------
0-0-0-0-1--10--0-00--0-0----0-
---0-000---0----01-0---1---0-0
----0110---0----0-2-10-01-0-00
-----00-0-0----0-0-011---1-00-
-------0-0------002-1--0--1--0
--------0--------0100-0-0---0-

Generation = 4, Population = 62.
-----0-------00---------0---0-
---------------------0--------
---------2------------------0-
-------0-------0--------------
0--------1--------0---------0-
-----------0-----0------------
---------1-------0------------
-----0-----0------------------
--0-0-0-------------------0---
-------10------1----0--------0
-----1------------1--0-1------
-0-------0----------0---0-----
0---------0-----------0------1
----1------10---1-------20----
---------0----0--1-1--0----1-0
-----0----------1-----------0-
------------------2----0-000--

Generation = 5, Population = 157.
----0-0-----0110-----0-0-0-0-0
-----0---0---00-----0-0-0-----
-------00-0----0-----0-----0-0
0-----0-0-----0-0-0-----------
-0-----00-00---0---0-------0-0
0---------0-0---01----------0-
-----0--0-0-----010-----------
--0------00-0----0--------0---
-0---0--1--0---0----0----0-0-0
--0-00-212----0-0-00---0--0-0-
-0--0-0100-----0-0-00--------0
--0--0--1---------00--0--0---0
----0-------0---0---00-1-0--0-
0--0-1---0-21000---0---03100--
----00--0-0000-00---11-0010-0-
----0-0--0----00--20--00-010--
-----0----------00-0--0--1-1--

Generation = 6, Population = 191.
---0-0-0-0-112210-----0-0-----
-------0-------0---0---0------
0----0-1-2-0-00---0-----0-0---
-----0---1-0-0-------0--------
0-0----1---1----00--0-----0-0-
-----0-0-0-0-0-----0----------
0-0-0-00-1-0---0--10------0-0-
---0----01-0-0-0-1--0--------0
0-0--10-21-------00--0-00---0-
-0----0---00-0---01-0-0-0--0-0
0-001-12--2-----0--11001-00--1
---00---2---0--00-1-0---010--1
0-0--0--00--1-0--10011020-----
-00--21---0--1--1-2-1-014-110-
0------0--111--1110122011-1--0
---01--0---00-1-1-3-----012---
---------0----0-1121001-02020-

Generation = 7, Population = 212.
--0----1---2---210-0-0-0-0----
0--0--0-0---0-01----0---0-0---
-0--01-2-3-1--1--0---0-----0--
--0-010-02---1--000---0-0---0-
---0--020-0-0--0110------0---0
------0--1----0001-1----------
---0-01-0---0-010-2------0----
--0--0---2-1---1-20----00-0-0-
-0--02---------001-00-01-0---0
0-000---1--1--0----01-1-1---01
-011---3-03-00--1-12--12----0-
--0---0-3-0110-1-02--0-0-2-002
-01--1-0-1-020--02----131--001
01-01-2-0-1-1---2-----1-5---1-
--0000-100-2---2----3-1221----
0-01200100----20---0----123-00
---00--00-00001---3---2--31-10

Generation = 8, Population = 72.
00--------0------1--0---0-----
-----------1---------0---0----
---------4----2--1------------
---0-2-----0-------0----------
------1---------------0---0---
--------0----0------0--------0
---------1--------3----0----0-
--------------------0---1-----
--0---0-21--------0---------01
---1-------------0-1-------0--
-1-------1-------0-------0---1
-0---------2-1------0---0-----
--------------0--------4--0---
1-------1---2---3---10------2-
----------1----3-------------0
-----1------0---1-------------
0--------01------1---0-0------

Generation = 9, Population = 171.
110------0------1-00---0------
00-------0--0-0-------0---0---
---0-1--0-0--0-00-00-0---0----
--0------20-0-0--00-0-0---0---
---0---20--1-0-----000-0-0-0-0
------00----0-0---01-000--0---
----------0--0---1-0--0----0--
--0---0-0----------0-0---0---0
-0---2--320---------0---0---12
-0--0-0-1-------011-1----00---
0211----0-31-0--11121-----000-
010------00------0-0-0----0--2
00------0--02--00----11--0-00-
-1-----0-012-10--0-02111--11--
0----0--00-2--0-1---32--------
0---2-0--0-0-0-------0-0-----0
-0---0--01200-----3-0---0-----

*** Life<FredkinCell> 35x6 ***

Generation = 0, Population = 71.
-0----
----00
00----
------
--0-0-
-0-0--
0--0-0
-0-0-0
-0---0
00----
-000-0
----0-
-0-00-
00---0
0--00-
---0--
-----0
-----0
--0---
-0----
00---0
000--0
-0----
0-0000
---0--
----0-
-000-0
----0-
-00--0
------
---00-
00----
--0---
---000
0---0-

Generation = 1, Population = 115.
0-0-00
0--011
110-00
000-0-
---0-0
--01-0
-00--1
-1-1--
--0001
11-0--
---10-
--001-
-1-1--
--0-0-
1-0-1-
0-01-0
---001
--0-01
---0-0
-1---0
-1--01
--1001
01000-
-011-1
0--100
-000--
01-1--
-----0
0110--
-00000
000110
11-00-
0---00
0--111
-0--1-

Generation = 2, Population = 110.
1--0--
--01-2
22-01-
-1-010
000101
------
0--002
02-2--
001--2
220-00
00-2-0
--1--0
0--20-
0-1010
2--02-
1----1
0-0-12
-0---2
-0--0-
0200--
02---2
00-1--
12---0
0-22-2
-002--
0--1-0
1-0200
--0-0-
122---
01--1-
--1---
2-0-10
---01-
1-02--
--0-2-

Generation = 3, Population = 100.
-0-100
--121-
3-01-0
0-01--
11-21-
-00---
1-0--3
1-03--
1----3
3--011
----0-
---0-1
110--0
--2--1
-0---0
-00102
10--23
-1--03
------
---1-0
13--0-
11--0-
2---01
1----3
01130-
1-0-01
2--31-
---01-
-3-0--
--00-0
--21-0
--10-1
--0---
----1-
0010-0

Generation = 4, Population = 112.
1-0-11
0----2
4-121-
-1-2-0
----21
0---00
20--0-
---40-
-01--4
42012-
0--210
00--12
2---0-
00301-
2100--
-1--13
21--34
-200--
-0-00-
020-0-
--0-1-
2-11--
---0--
--2204
1-2--0
-01-12
31--2-
0001-0
1-2--0
---1-1
-032--
-12--2
-01-10
10----
1--12-

Generation = 5, Population = 105.
2---2-
-0-213
522320
--03-1
11---2
1--11-
-10---
1--5--
---00-
-312-1
-0----
111-2-
-10---
1141-1
--1-20
1-----
32----
-3--03
-----0
13-1-0
---022
------
2-0--1
10-3--
-1--0-
1-----
-20-30
111211
23300-
0102-2
0-4-1-
223--3
-1--2-
---2-1
2-1230

Generation = 6, Population = 104.
----3-
011---
633-31
-1--1-
-2---3
20-22-
22100-
---6--
10-11-
4---2-
--0210
2----2
221-00
22-212
--203-
2-0-13
--0-34
-4001-
0--0--
24-20-
130---
2-110-
32--0-
--2--4
122--0
-01--2
3--3--
---3--
3----0
12----
---2-0
-3-01-
-2---0
10-3-2
--23--

Generation = 7, Population = 104.
2001-1
-2-2-3
-----2
---321
--022-
-10---
-3---3
----0-
-1---4
5-12--
-01-2-
3--02-
3322-1
------
---140
---12-
3--04-
-511--
10--0-
3-0-10
24-0--
-----1
-30-1-
-033-5
23330-
1---13
---430
--1411
4--00-
-302--
0-431-
24--23
--1--1
2-04-3
2-3-30

*** Life<FredkinCell> 10x24 ***

Generation = 0, Population = 125.
-0-0-0--00000------0-00-
-0---000----000-0-000000
0---0000--0--0000---0---
-0-----0-00-0000--0---0-
-00-0---0-00---00000--00
-0000-000--00------0-00-
0--00000000-0-0-0-00-00-
000--0--000-00-00-0---00
--0--00-0--0----00-00000
0-0000-0-----0-0---000-0

Generation = 1, Population = 128.
01---1--1-----0-0--10---
-100-11--0---1-01-111111
-0-011110-1001-1-0--1--0
-1---0-1011011110-1-001-
01-0100010--00----1-0-11
--1110-11-0--000-00---1-
100-1111-1-0-0-01-----1-
------0-11-0-1011010001-
-----1101------0-10-1111
------0----00----00-1-01

Generation = 2, Population = 110.
1--002-0-------010----00
-2--02--0--0-20--022----
0-0---22---1120---0--001
--0-0--2-221---2102-1--0
1-0-2-----0--10-0---1022
-0-2-1-2-----1--01-000--
2--0-22--201---1-0-00--0
000-00-----1----212-112-
----02------00-1021022--
------1-0-0110-00---20--

Generation = 3, Population = 104.
--011------0-0-1---1-011
0------0-0010-----3311--
-010--3--0-2-3--00---1--
-1--10-3-33---132---201-
-1103-----1-0-10-01-21--
0-13120-10-002----------
30-1133-03--000---0-10--
--10-1---1-2-1-1----223-
0000----1-00-----32--3--
----0-----1-2-----0---0-

Generation = 4, Population = 112.
111-22-0-0-10---1--20--2
----0-------12-01-44-2-1
---1---20--31----1-01---
0-00-10-----1--4-020--20
--214000102011--012-----
1----3----01--00-1------
-1-22----401--1--0------
-0-102--1203020-21-0--40
1-1--2-0-0---0-104-0-41-
000--0--0021-0----10---1

Generation = 5, Population = 113.
2-2--3-----2----20--1-13
020-1---00-123-1-055---2
0--2-1-310142----2-12-0-
---11--3-331--1-213--031
-1-2--1---3122-01-----22
--1-14-21012---10-------
-2---3-----2------00--10
-11-1-0-2-14-3-1-2-12--1
2-2-------0---021-2--5-1
---0011-11-2-1000-2-20--

*** Life<FredkinCell> 11x18 ***

Generation = 0, Population = 53.
--0--0-0---0--0---
-0----------00----
--0-----0-00-0-0-0
0---00--0-----0---
0-----0--00-------
000--0------0---00
0------0------0---
---0--0-----0-0---
-------0-0--0-0---
-00--0--00------0-
-0--0---0----00---

Generation = 1, Population = 110.
---00---0-0----0--
0-0--0-00-001--0-0
0--000-01-11010---
100011-01--0-----0
--0-00-0-1100-0-00
1-100--0-000-00011
1-00-0--0----01000
0-0-00-0-0-01--0--
-000-0--01001-100-
0-10--0---0-00-0-0
01-0---01---01100-

Generation = 2, Population = 99.
0--11---1-1-0-0100
1--001--1-11---1--
--0-11-12---1-1---
--11-2-1--0-00---1
----1---0-2-1010-1
2-21-0010-1-0--1-2
--1--100-00---2-1-
10--11---10---0-00
01--01--1211202-1-
1--10-----101-----
-2010--12000-2-11-

Generation = 3, Population = 105.
100----02-20--12-1
20----0----21-02-0
001--2---0--21---0
-0-2-3-2101-1-0002
0--0-0001---21----
---20-12-0--1-0213
--2--21-0-10003020
---0-2-0-21-1---11
1-0-1-0023-23---2-
20--1--0-02--000--
-3-2-002--1-0--220

Generation = 4, Population = 80.
-111---13-3--0---2
310-----10---0----
--2-13-1-1--321---
1113--0-212---1---
--0-1-1--120321---
2---1-2--------32-
-0-0----------41-1
1-0-13-1------0-2-
21-0211--4-3--2-3-
----2-0-0---11--00
-4--01--2-2------1

Generation = 5, Population = 89.
--221-02-0-0011-0-
421-01-0---------0
-0-0240----143-0--
2--41-123----0-0--
--102--0--3-----0-
--2-2-32-010100-3-
1-2-0210-----0----
2-----0-02-0-0-03-
-201-2--------3---
2-----1-1-2-22-0--
0-02-2-23--002---2

Generation = 6, Population = 103.
1----01----1--2---
53--1--110----02--
012--5-12-12---100
---523-34120-1-1--
00-1301---4-3-1-11
20-2-0-3-12--11-43
2-3-------1----1--
3--0131113---10141
23-2--1--41330-03-
3----0-02--0--0-00
1-13--03-0-11-122-

Generation = 7, Population = 95.
2----12-303-013---
6--0-1--21---0---0
-23-26-23---43-2-1
----341-5---1-120-
---24-2011-0--20--
3-23213--230-2-3--
-0-00-1-0020--422-
------2---10----52
34-3-2202--4----40
--1-2---30--2-1-11
2-240-1-3---2-----

Generation = 8, Population = 90.
31-21-3--14-1242-2
7---1---3---1--201
-340-7034--2--1302
-11-45------21--1-
0---5-3-2-41---1--
-03---4-0341------
--3--2--11-10-53--
3---1------11-0-6-
450-233----5--3051
--2-3---412-3-----
--------4--1321-22

Generation = 9, Population = 97.
-2-3---2-25-----03
83102---4-1-2-0312
--51-----11-4-24--
---5--13--2032-22-
-0-2604-31---22---
-1-32-5-1452--1---
2-40---0--22---4--
4--0232-1312----7-
----3-4024-630--62
3-3-4-10--3-4--0--
--2-0--35--24-2-33

Generation = 10, Population = 96.
-324--3-33-11-4---
942-31------3--42-
0--2--03-222-3-502
-1-----4-1--4---32
01-37-50--4-----1-
-234-163-56-1-2---
3051021-11330-----
50--3----423-1--8-
--0--3513---413--3
--4----14-------1-
243-12--60-3---244

Generation = 11, Population = 98.
--35----44-2----0-
-5--42014-124-----
13----1----3------
221-4-1--22-----4-
121-80-13151--212-
3345----1-722--34-
--6213-02--4--5-2-
--0-43-11-3--2-1--
4-13-4-2--1-52406-
3--14---5--0421-21
3---231--1--4-2355

*** Life<FredkinCell> 23x48 ***

Generation = 0, Population = 40.
--------------------------------------0---------
----------------------------------------0----0--
-------------0---------------------0-0----------
----------0-------------------------------------
--------------0------------------------0--------
----------0-------------------------------------
--------------------0--------0------0-----------
------------------0--------0---0----------------
0-----0-----------------------------------------
-------0-----0----------------0-----------------
------------------0-------------0---------------
---------------------------------------0--------
---------------0--------------------------------
------------------------------------------------
-------0----------------------------------0-----
-----------------0------------------------------
-------0--0-------------------------------------
------------------------------------------------
-0-----0----------------------00----------------
---------------------0--------------------------
--0-----------------------------0---------------
--------------------------0--0--0---------------
------------------------------------------------

Generation = 1, Population = 146.
-------------------------------------0-00----0--
-------------0---------------------0-000-0--0-0-
----------0-0-0-------------------0---0-0----0--
---------0-0-00--------------------0-0-0--------
-------------0-0----------------------0-0-------
---------0-0--0-----0--------0------0--0--------
----------0-------00-0-----00-00---0-0----------
0-----0----------0-00-----0-000-0---0-----------
-0---0-------0----0--------0--00----------------
0-------0---0-0---0----------0-00---------------
-------0-----0---0-0----------00-0-----0--------
---------------0--0-------------0-----0-0-------
--------------0-0----------------------0--------
-------0-------0--------------------------0-----
------0-0--------0-----------------------0-0----
----------0-----0-0-----------------------0-----
------0-00-0-----0------------------------------
-0--------0-------------------00----------------
0-0---0-0------------0-------0110---------------
-00----0------------0-0-------000---------------
-0-0-----------------0----0--0-010--------------
--0----------------------0-00-0010--------------
--------------------------0--0--0---------------

Generation = 2, Population = 142.
-------------0---------------------0010-1-------
----------0---------------------------1---00---0
-----------0--10-----------------0-0-01---------
--------0-0-0---------------------------0----0--
------------01--0---0--------0-----00----0------
--------0-0-0-----0--------0---0----------------
0-----0-------0---1---0----1---1--0---00--------
-------0--0--0--0---1----0----1--0--------------
0-0-0---0---------1-0--------0--0---0-----------
-----0---0-0---0--1--------00--11------0--------
0-----0--------00---0---------1---0-------------
-------0-----0----------------0------0---0------
-------0-----0---00-------------0---------0-----
-----------------0---------------------0--------
-----0-0-00----0------------------------0---0---
---------------0---0----------------------------
-0---0--11--0-----------------00----------0-----
-----------------0---0--------------------------
--10-0-0-00-----------------01---0--------------
-------------------0---0--0--0--1---------------
01--0--0-----------------------1--0-------------
---------------------0--0--11-11--0-------------
--0-----------------------------1---------------

Generation = 3, Population = 371.
----------0-0-0-------------------01-----000---0
---------0---000-----------------0--00-000110-0-
--------0-0--0210---------------0----1-00-00-0-0
-------0---01-000---0--------0---0--0000----0-0-
-----------01200-000-0-----00-00--0110----0--0--
0-----00----1-0-00100-0---0100010-000-00-0------
-0---0--0---0--0002000-0-0020--20--0-0110-------
--0-0----0-00--0-0-0200-0-00--------0-00--------
----------00-0-0002-10---0-0----1--0-0-0--------
--0---------0-01-020------011--2-00-0-0-0-------
-0-------0-0-00-1000-0-----0002-00-0-0-0-0------
0------10---0100000-0--------0100-0-0-0-0-------
------010---010-0-10----------00-0---0-0---0----
-----0---00--0-001--------------0-----0---0-0---
----0----110--0100-0---------------------0-0-0--
-0-----00-0-0-010-0-0---------00--------0-0-0---
0-0-0-002200-0-0-0-0-0-------0110--------0-0----
-000---00-0-0---0-0-0-0-----0000-0--------0-----
-021-----110-----0-0-0-0--001-1---0-------------
000000---00-------0-0-0-00-0-10---0-------------
1200-00-0----------0-0-00-0000-2-010------------
000-0--0------------0-00-0022-2--010------------
-0-0-----------------0--0--00-0--00-------------

Generation = 4, Population = 148.
-------------01-------------------12-1-0--1-----
----------0-------------------------1---11--10-0
---------0-------0--0--------0-0-0--0-11-0------
------0-------1---0--------0---0----------------
0-----0---0-------1----------------2--0----0----
------11-----01---------------1---------0----0--
-------------0--1-3-----01-------0-1-1--1-------
----------0---0-------10---1---0---0---1--------
----0-----1---01-----------------------1--------
---0-----000-----1--------1-------1-------------
-------0------1-----0-0-----11------------0-----
-----------------11--------0---1---0-------0----
0-----12--00-------1----------------------------
-------0-----1----------------0-----------------
-0-0---0---1------0-----------000-----0-------0-
-------------0-------------------------0--------
--10--1----1--01----------------1---------------
--------------------------0--1--0---------------
-1-2-0-0---1--------------11------10------0-----
-------------------------1----------------------
2-----10--0-----------------1-------0-----------
----------------------1--11-303-11--0-----------
-10----0----------------------101---------------

Generation = 5, Population = 389.
----------0-0120-----------------0230------000-0
-----------0-00--0--0--------0-0-00-2-102--121--
------0-0-----2-0--0-0-----00--1--001-22010-00-0
0----010-00--0-0--100-----0-000100-00--0-0-0----
-0---0---0-0-2---020-------0--00--0-10-00-0-00--
0----0-20-0-1-200-------00---0-1-0---00010-00-0-
------00--0-0100---0--0-1202--020--2--1-20---0--
----0----010--1-0-0--021-00-0-1-00010002--------
-----0-------0-200----00--00---0--00--020-------
--0----001110--10-2-0-0--0-110---0-0---0--0-----
---0--0-0000-0-0--00---0--0-2220--00-----0------
0-----0---00--0-022-0-0---0--01-0-0-0-------0---
-0---02-001101---0--0------0--00---0-------0----
00-0----0-0-0-0---00---------01-0-----0-------0-
0---0-010-1-0----0-0---------0--10---0-------0-0
-00---00----0--1--0-----------00--------0-----0-
-02100-0--0-0-120---------0--0-120-----0--------
-00--000------00---------01-0-001000------0-----
0-------0-1-0--------------211--00210----0-0----
00-0-00---00------------0--00-----000-----0-----
-2---02100-0----------0---002-0-10-010----------
000---0---0----------0-0022----1-21010----------
0210--0-0-------------0--00-0-------0-----------

Generation = 6, Population = 366.
---------0-0123100--0--------0-00-3--1001-1-1---
------0-0---0-1---0--------0---1--1----1-----20-
0-----10--00-031---1--0----1-0---0-12---121-----
----0-210-1-111-----1----0----1--1--1----1--0--0
0-0-0----1--13---13-----00---0-1-0-2--01-----1--
----011-10102--11-1---00----0---0--0--11--01---0
0---0-1----0----1---0-10--13---3-0-3-1----00----
---0--000121-02-10--21--0-1---2---1-----00---0--
--0---000-----0--12-1-1-00--00---0-1----100-----
-0---0-112221002-130--100---2---1---0--1---0----
0---0010-1-10-111-110-0-0-10--31-------00---0---
---0---1-011-1-013-01----01---2---1--0---0---0--
010001-----2120--11-100-----00110-----0---0---0-
-----0---0-0-1-0-11--------00--01--0---0---0----
100----2--2--0010--10-------010--10-0---0---0---
-------1---0-0-2----------0--01-0----0---0------
01------22--1---100-------10---23--0--0---0---0-
-------------0----------01-01-11--1----0--------
1122------21-000--------00---2---1---0--0---0---
----------------------00-1-11-0--0--1-----------
2--00----1-10--------------1---22--1--0---0-----
--------------------0--1-33-----1--1--0---------
-321001--00------------------0-0-00-1-----------

Generation = 7, Population = 473.
------0----12-4--1-0-0-----00---1-4302-12-----0-
0----010--001--00---0-0---010-02--2-20-221---310
-0--002-00-1---20----0-0-002---10102-1--23200000
--001--21020-----01--00--100-0--0-002000-2-0--0-
-------0020-2--0-2-00-0-1-0---0-01-3-0--0000--0-
--001---21-1--22-02000---00----1-00-0---10--000-
-0--10----0--10---3010---2-4----0-04---12---00-0
0----0111----1-----0322-102-0----0-1-0-2--000-0-
--------10--00---2-0202011-0-1----0------11--0--
-----1-223-32---0---002-1-1-3-0------00200------
----11-10--2----------1010-1-2-2--0-000-1-------
-0-10--2---2-2--2---2----1--0--100-00--0--------
1--1--22---3--10-2-1--10-00---22-000-----------0
---0-1000-010--10----00---01101---------------0-
2-10-0030--101--1--210----0--2--1210---------0--
--0---02-0--010300000----01----01-00--------0-0-
122-----330--0--2-10----0----01--0--0------0-0-0
--00----0000-1-0000----0--1-212------0----0-0-0-
2--30----132---10-----0--11-1-1102----0--0-0-0--
-00-0----00-0000-----01102--21---10---0-0-0-0---
-20110--0--210------0-0----2---3--12-010-0-0----
000--00---000------0-01--44--0-12--2-010--0-----
04----200110--------0--0-00-0---1110-00---------

Generation = 8, Population = 145.
0-----1-------------0--------00-----1---------1-
-------1--1--0----------------1-0----1-----1----
-----1--------3---0--1-----3-0--1------2---1-1--
--1-------3-------2--------------------1--------
------0------3-1------1--------1---4-1---------0
--1---------------3---------------------2----1--
-------0----0--------1---------------11---0-1---
----------2------0-1---1--3--------2---3--------
0-----002-1---0-----------------------0---------
-----2---------2-----13---------------1-1----0--
-0-----2--0--0----------2-1---33---0-1--2-------
----------1----------0---------2---------------0
--0----3------2--------1--------0------0--------
----------1---------------1--1--1---------------
---------------1----2--------3----2-0---------0-
---------1--------1------1-0---1----------------
2-3---1--------2--2-----------------------------
-------0-----2------------2--23-1---------------
--2--0---2-----2--0---10--------------10--------
-------------1-------1-------2---------0--------
-3--2--1--0----0--------0-----04--------0-------
------------------0--1--0---------1--1--0-------
----------2-------------------------------0-----

Generation = 9, Population = 428.
-0---0----0--2-----0-0------01-01--3-------0-0-0
0----0--00-01-----0-00-----1-02-10----12--12231-
--0-0-20-------2-0110-0---0----121---1232-22--0-
-0-0-02--0-0-110-030-00----0-0-10--0-0020--0-0-0
-----0-0--0-2---0----0-0------0-0-0---010----10-
-0-0--12----20-2-0-0-00--------1---0--11-00---00
--0---1-0-00-1---0301-10--1--------4022-20------
0-----1-11310-2-1---322-10-1------1-000-0-0-0---
-0----1-3-20-0---2-0-020--0--------1-01-1----0--
00--0---2----0--0---02401-1---02---0--2-20--0-0-
0-0--11-01120-11------10---1-24-0-0----030---0-0
-00------022-20-----2-000-1----3---0-0-00-----0-
-1-1--2-0----2-0-----01-0-0--0--10----0-0------0
--0----0-0-1--01----0--0-0-11210200-0--0------0-
---------12---0-1-02-0---000040012---0-------0-0
0-0---0-0-0------0200---0---001-1-0-0---------0-
---1-0---3---01-2030-----010-0123---------------
0----0--00--0-0-------00-1-0234--0----00--------
-1-30-000-3---0-00-0--210-1---1-0----02-0-------
-00-00-0-00-0-0---0-0--10---2--0-------1--------
2-01-02-01-2-00-0-0----010----152-1--0--10------
-0--0--0-------0-0-00-1114----31-2-21-10100-----
---------1-0------0--0--0---------1--0--00-0----

Generation = 10, Population = 375.
--0-011-0-----4-----010-----1-01--4-1-01---1111-
--0--1--11112--0--1---------0-3-2-20-----1---4--
0--0---1----00-3---2--10-0-3------022------3-11-
0-1-1--21-3-12--0-4-1---------1-1-------12-1-1--
----01-10--03301-23-0---1--0----1--4--1---000--0
0-1-1-----------11310--0--0--------1--2---11---1
0----0-010---2-0---1--21-------3----1331--0-1-00
--0--0--2---1----001-33-21--0----0----1--0------
010-002--0--01--0----1--1-1---00---20-2---1-0---
---0---2-----1------13--2-2----3---10-323-00----
1-10-22--2231--2------212-1--3-----0-1----0-----
-----0--0-3-0--0---0-011--2-----00----0-1------0
12--01-3-01-13-10---11--101--1-2---00---10----0-
--------011-0-----1--0--01--2-21--1------------0
2-----03-----111-0----00---1---1--2-0-00----0---
----------10-1--0---1--0-1-0--2--0--------------
-----1--34---1--314---00-----1----0-0-00------0-
-----1-----0-2-0--0--0--02---45-1-1----1--------
-224--11--42-0--110--0---1----21----01---0------
-------1---0-1-0--10-1-21-01-2011-0-----00------
---2--3-1-0-11-0-01----1--0-20--30-----0--------
-------------0--0--11122--4--0--2--32-2---1-----
-4--0--00---0--0--------1-----10----------0-0---

Generation = 11, Population = 546.
-01-122-1-0122----001-10---02--2-053--122012-220
001--2---------100--00-0-0--1-42--3-2-122-1---1-
100--12200--1--4--1--121---------1-331--2-24-220
1--02-23---023-0-050200001---0--210-2-02230-02-0
---012---2-144-2--40-0---0--0-01210511210---1-01
1---21---1-12-222242-0-1-0-----10-02-----02-0---
10---1-1210-------3------21-0-0-00--2--22-10--1-
--10----31-121-0-1-----1-2-1-02-0-12----0-0---00
1--0113---20--02--20---0-120011-100-----1-20-0--
-001--0-2-2322020--02------1-0-41-12-0--4-11----
--2---3--33---131--100-2---12-4300010-00-01----0
-001-------2--0---2-2-2-0--0----111-0---2-0-----
23011-----2-24--121-22---1-0--23-0-11000-10--0-0
-0--010012--110-0--0-1-------232202---0000--0---
-0---014-1-1---21---2-1---02--021-3---110--0-0-0
0----0020-21----1020-00----10---1-0---------0-0-
----021045--1-1----00-1----0021-3-1---1-0----0-0
-00002-000-1----00-001--1-2-2--1--20-0-200----0-
23-50-2-0253--022-1-0-2102-2-23-0--11220-10-----
-00---02--010--1-021-2--22-22-12-1-010--1-0-----
--0-20-1---222-101-00----0-231--41-21----00-----
-0-00-00--0-0100---2-----452-1--3-143----0200---
0-21-02111-0--0----0000--00---21---01-0--01--0--

*** Life<FredkinCell> 39x18 ***

Generation = 0, Population = 155.
0---------0-------
--00-----0-0------
00-0------0----0--
-0--------0-0---0-
-0---0---0--------
-------000---00---
---0----0------00-
0----0-0-------0-0
-000--0-0---------
-------0---0000-0-
-0-0---00---------
--0----0--0-0-----
-----0-------0----
00-0------0------0
-0--0---------0-0-
----00-0-0---0-0--
00--0---0-0-------
-0------0-0-----0-
-----0-----0----00
-----0-----0--0--0
-0-000--0-----0--0
---------0--0-----
--00--00-0-------0
-0------------0---
--0-0---00-------0
---000--------0---
-------0------0-0-
----0-----00-0-0--
------0--0-0-----0
---0----------0--0
--0--0---0--------
0----0---0-----00-
-00------------00-
0---00----0-------
------------------
-00--0----------0-
-----0------------
---000-0-----0----
----0---------0--0

Generation = 1, Population = 328.
-000--------------
--1-0---0---0--0--
1-010-----1-0-0---
--00-0----1--0---0
010-0-00-1--000-0-
-0-0-0011-0-011-0-
0-0-00-01----0--1-
--0-0-0-0-----010-
-1-10----0-0000000
--0----10-01--1--0
0-0-0-011000-00-0-
-----001-0--------
00000-00------0--0
1----0---0-0-00---
-10-1--0-00----0--
0--011--0---0-0---
1-001---1010-0-00-
-10-00-01-1----01-
-0--010-0--10-00--
-0-0--0-0-010010--
0--1--00---0001001
-00-0000-100-00---
--110011-10-0-0-0-
0-000-000----0-0--
---01--0110-----0-
---1110000---01000
---0-00-0-00--10-0
---0-000--1---0--0
---000-00-01000001
----000----0-0-001
00--010-010---0000
----010-010---0--0
01100----00---0--0
--00110--0-0---00-
000-0-----0-----0-
0110010--------0-0
-000--00-----0--0-
--011---0---0----0
----1--0-------00-

Generation = 2, Population = 328.
0111----0---0--0--
0---10-0-00010--0-
--12----002-10---0
--1----0--20010---
12------0-00----1-
01----1--0-------0
-010----200--10--0
0-10-0-01--000-21-
0--2-0000-0----11-
0-1--------2-0--01
--1--0--211--1----
-0-001-201-0-0--00
----1---0--0--100-
20-00---010--1---0
0210200-0-1-000-0-
1-0--20-10---0-00-
20-120--2-210-0--0
---01-01202000-1-0
0----2-0-00--0-1--
-1-1---01-1--1-1-0
-0-2--1--0011--1-2
-1---1-1--1---1--0
0-22-1-20--0--10-0
----10---0----0-0-
0--12-01-210--001-
--022211--0001211-
--0-011-10-10-2-0-
--0-011-00-00--0--
--0-11--1--2-11112
00--1----00101-1-2
11001-1--2-----111
--0-12----10-0----
1-2110---1---01--1
-011--1001--0--1--
-11--0---------01-
---11-----0--00---
---10--1------0--0
---2-000-0-0---00-
--0-200-----0-011-

Generation = 3, Population = 319.
---2-0----0-1-0---
1--021----1---0---
10-3-0-0113-21----
0-2---0-0-31121000
------0--1---000--
-2-0-0-11100-11--1
0-2-000--11---1--1
10-1-10-2-01--0---
-103---1---00-0-2-
1-2---01-00--11--2
0-2--10--2200-0---
0-011--3--01-1---1
0--0-----0-1002--0
--0-1-001----2000-
132131----2-1-101-
--1013--210001-1--
-10-3-0----2---0-1
-10---1231-11-02-1
------0---1-----0-
-2-200--2----2---1
0--30--0-1--2--2--
-2--0202--2000200-
-0330---1---002101
--00-----1---0--1-
-0--3-----2---1120
00-3-3---0--1--220
-0-01-20--02103-10
-0--1---1--1--0100
0-1-2--020--------
--0---0----2--0---
-21-21-0030-0-0---
----2----121-1-00-
-1322--0-2-0--2-0-
-----12---00---2-0
0--0---0000-00--20
-1-----0-0-001--00
--02---20000--1---
---3--1-------0---
-0-031---0----12-0

Generation = 4, Population = 315.
0-13010--01---10--
2-11-2000--0--10--
211401012-40--0000
10----101---2-21-1
1200--1-020--1----
--0-01-2--11--2-02
1---1---2-20---012
---20--0-0---0-210
0-1-0002-00-10----
20---------20220--
-----2-12--11-10--
---22---01-2-20-02
10011-0---0------1
--1-201-2-000--1--
2--2---0--302----0
1021---03-11120--0
2-11401-----00---2
0--0102--22-2-1-12
--000-1-----000--0
----11----1---11--
-00-10-10---30-3-2
-3-01-----3--13---
0-44--1---0---32-2
-0--1--------100-0
-1-1-----2-00-22--
11-4---10-0-2-2--1
-----131--132---21
-1---1102--2----1-
-02-31-1310----112
0--0---0-----111--
13---211-4---01-1-
---------23-0--1-0
12-------3--0---1-
001--23001---0---1
--1-00---1----0--1
------0-----1--0--
--1-0----1----2000
-0------0-00-0---0
0----2--0-0--0-3--

Generation = 5, Population = 337.
1--4-2---12--0--0-
-022-3-1--111021-0
3225-2--3-5--11---
212-0-212----2--02
-311--2-------001-
--10-21-1-2-0--0--
-02----0-1--01---3
---31--12101-1--2-
11-3------10-1--20
-1--0-0-00---33-0-
00-0---2--22--2--0
00----0--20303-01-
2-122010--110020-2
--2----0--11-20-0-
3-23-1-1004-3-1011
2-32-3--4--2-3110-
-1--51--20--1-0---
1101-132333---2-23
00111-20-0-1--1--1
-2--2--020-1-2--0-
0-132--211-14--4--
-4----020140---0--
--5-01-2-110-04--3
-1-0-00--100-2-1-1
---2---1--21-03-2-
2--523--101---3--2
0--01-4210-4-030--
02---22---13-----0
--304-024-1--1--23
10--------0-0-2-02
-41023---5--------
-----200034-1-----
-----000---01----1
-1-1-----20------2
0-2-1-00-20-0---22
-------0---0-101--
-----00----00-31--
----10-010-1-1---1
----3-001-1-01--10

*** Life<FredkinCell> 7x10 ***

Generation = 0, Population = 67.
0000000000
0000000000
0000000000
00000000--
0000000-00
0000000000
0000000000

Generation = 1, Population = 27.
-11111111-
1--------1
1-------1-
1-------0-
1-----1---
1------1-1
-11111111-

Generation = 2, Population = 33.
-2------2-
2-0000000-
-0-----02-
-0----0010
-0---0--00
2-0000020-
-2-----22-

Generation = 3, Population = 35.
---1111-30
--1----111
-1-000013-
1-0---11--
-1-0-1101-
--1--1-31-
---111---0

Generation = 4, Population = 20.
---2--21--
---0--0---
---1--1---
---000221-
------2--0
---0--0---
---2--12--

Generation = 5, Population = 25.
--1311-23-
--1-00----
--0-----3-
--0-----2-
----0-----
--1101---1
--1311-32-

Generation = 6, Population = 35.
-2--2--340
-0-0--01--
-1-100-140
-0100--230
----1---10
-0-2--03--
-2-42--43-

Generation = 7, Population = 44.
031--1---1
2--10-121-
1-0211125-
1--11-2--1
--002120--
21-3011-11
03--31--40

Generation = 8, Population = 19.
--2----3--
--1----3--
--1----3--
20122--2--
--1--2-1--
--1----3--
--1----4--

Generation = 9, Population = 31.
-333--244-
-0-1--1-1-
1---1-1-5-
3---3-2-3-
1-------1-
-1-3-11-1-
-324--154-

Generation = 10, Population = 33.
0---21---1
-112-0-3-1
2---2----0
-0-24-3--1
2--022-1-0
-214-2-3-1
0---3----0

Generation = 11, Population = 34.
--3-3-2442
22-3-1----
-1123-135-
3---50--3-
-1-13-22--
23---3-4--
--2----541

*** Life<FredkinCell> 12x2 ***

Generation = 0, Population = 24.
00
00
00
00
00
00
00
00
00
00
00
00

Generation = 1, Population = 20.
--
11
11
11
11
11
11
11
11
11
11
--

Generation = 2, Population = 20.
00
--
22
22
22
22
22
22
22
22
--
00

Generation = 3, Population = 16.
11
--
--
33
33
33
33
33
33
--
--
11

Generation = 4, Population = 20.
22
11
22
--
44
44
44
44
--
22
11
22

Generation = 5, Population = 8.
--
22
--
--
--
55
55
--
--
--
22
--

Generation = 6, Population = 16.
22
33
22
--
44
--
--
44
--
22
33
22

Generation = 7, Population = 12.
--
44
--
--
55
55
55
55
--
--
44
--

Generation = 8, Population = 20.
22
55
22
33
--
66
66
--
33
22
55
22

Generation = 9, Population = 8.
--
66
33
--
--
--
--
--
--
33
66
--

Generation = 10, Population = 8.
22
--
--
33
--
--
--
--
33
--
--
22

Generation = 11, Population = 20.
33
66
33
44
55
--
--
55
44
33
66
33
