*** Life<Cell> 21x27 ***

Generation = 0, Population = 49.
---------------------------
-----0--0---------0---0----
--0--0-----------------0---
-----------------0---------
--------------00--------0--
-----0--------------------0
--------0----0-----0----0--
------------------------0--
---------0--------0--------
0-------------0------------
----------0----00--------0-
-------------------0-----00
-------0---------0---------
-----------------------0---
----------------0----------
0--0---------0--------0----
-------0-------------------
---------0-----------------
0------0--------00---------
---------------------0--0--
-0----0-----0----0---------

Generation = 3, Population = 279.
-0--0--0--0-----00----0----
0--1--*-00-0--0-1*0--0--1--
-00-*1-1--0--01--0000--0-1-
0-0000--10--0--*--*-0-1---1
-0--0-0-10-0-0--*-0100--1--
----00---0000-0----0-0-0-0-
0--0----0*-100*00-*001--.-*
-0--0--000----1--0000-10-00
--0--001*-*10-0---0-1000---
---0-----00-100--001-----*1
--0---01-*00---110-0-00-01-
-0---0-00-0-0-100-000-0--0.
---00-0-0110-00--00*0-0---0
-00-00---00-0----0-1-1*0---
-000-0---0-0----0*1-00000-0
--*0010001--0---0-00-00*10-
--0001-1-*0--0-00-0-0000---
----0---0-0-0--0--00011--0-
--1-01---*0--01*-.--00-00-0
--0000---1------00--00**00-
*1-11-1-10----1-*0010-00--0

Generation = 6, Population = 266.
-001010011--1-0*10---01*-10
--0*--*11--101.01.---0--1--
*---*-*100-0-.1----00-01.--
1----01----11*-.-0.1--*1*-*
110-0*00--0.----.-0**00--1-
*-0--.1--1111111-0-0-00--00
1-00*01--.011-.1.0.-*---*0.
001-1----------1-10*-1*--.0
--100*0*.0.1--0----**11----
--0-*-01-11-*0-1*0-*----0.*
---1101--.0.0*--.111-11-*.-
-1--1----100-0*1-11--0-0*1*
00-.--1--.-1-*0----*1*-10--
--010----*-110-000-*0*.00-0
*10--01-1-0---0-1.*1-00----
1-.---0--.-1-0011*-.11-..-1
*-0----.1.1**-0--01--1-1-1-
1-1-0--1---0-*----0-1*---00
0..*.--1-*1-01-.1..-111----
01-.-------1-0-11-11-....--
.*-1-0-*.---1-*-.*--0------

Generation = 9, Population = 244.
011.0**-..-0*-*.**-10-1.-.1
*-0**1.-.1--..*0*.-----0-00
..-1***.1.-1-.--0----0-1.1-
*0*-0-*-10--1*-.0-.-*-.**0.
*---**0-.1-.--.-**-....*1.-
.1000*-11.-..-*-01-1--0*1-1
--10.0-*1.-.*0.-.-***11-.-*
-0.-1-10--*--1-*0-0*--.--.-
-1.--*-*...-100*---..***.1-
001-.-.--*-0.--*.1.*01--.*.
---*--*--.-.-.*-...11*.0.*-
-.*-.000*..00...-*1--1*1.-.
---.-----.*--.1---*...-..*0
-01-1----.--1-0-.-*....----
.---011--*-0-*.-1**1*-*-0*-
1*.0*-1-1.0.*1--..-...0..**
*0..-****.*..--1-0-*-10-0*-
*-.-1*-.0--*-.0---*0**--*0-
0....*-*-**-**.....01.*----
--**100----10*-*10***.***-*
.*-1--1.*-00--.1*.-*-1-0-00

Generation = 12, Population = 215.
--1.-.***.0**-**.*-*-0-.*..
..-....**--*...-..-0-*0---1
..*-*...*.0-*.*---------*11
*-.--0.0----*.-.1-*1.0...0.
*110*.1-.*-*0*.*.........**
..1-...--.*..-.1--1*10-.-1*
1-11....*.-..-...-***1--.0*
-1.011*1-..-**...1-.1-.01.-
0-.--.-*...-.11.-*-.*...***
1*.0*-.*-.--*-1**1..*.-**..
---*.0*-*.1.*..1...-.**-*.0
-..-.-*0*..-....-.-1--.-.*.
---*--1--.*-*..1--*.*.-*..-
-*.-.1-11..--*-.**.*...----
.-0-.--.-.-1*.*0**.-.-.1-.1
1..1*---*.-.**01**1..*0..**
.-..1.**..*..--*0-1*----1.-
.0.1*.-*-*-*1*---1*0..--.1*
*.......-..-......*..**-11*
--.*--1-0*-1*.-.*1***.*..-.
**-**-*.*0*1--*1.*-.--*--1-

Generation = 15, Population = 250.
--*.-.*****..-...*-***-....
.*1*.**..*-...*0*.-.1**-10.
..*-*...*.0******-.-1-0***1
.-**01*11--*.*-*-1...-...-*
*1*0*.1-**.*........*..*.**
*.1..**-*..*.-..-1**.1**-*.
-0*****....**0...0**.--1*0.
**.0-1.*1.********-***..*.-
--*01*-...*1.-**1*-*....*..
*..1*-*.*..-*1-***.*.*1*...
*.*.*-*-*.-..**....**..*..-
1.*1.-.0*..*..*.-.*--1**...
-*-.*-.01*.-**.-0-....*...-
-*..*-1.**.11**..*.....0*0*
.111.1-.-*1....1..*1**.*-*.
-...*.--..-...11..1*.***...
.-.*-*...*...--*--*.1-0-1*-
*-....1.1*1*-.**-*.-*.10.-.
.**....*-.*-...........-*.*
***.-**--.--*.-.**......***
..1.*-.....-1-..*.-****.1-*

Generation = 18, Population = 196.
-1*.-...***..-.****...-....
..-.**.***0...**..1..*.1*1.
...1****..-..**.*-.*.*-*..*
.0..0-***01...0.11*..1.***.
**.-..-1***..***...**..*...
**1....-....*1**.**.....1**
-1...........-.**-...*--.0.
...---*...**......-.*.....-
-1.-..-*.*.-.-..1.0**..*.*.
...-.-.*...-.--.**.**.1..*.
.*...*.1*.-*.....*.**.....-
...*.-.-*.****..-..-1*.....
-.-****1-...*..111........1
*..*.11**..*..*..*.*.**0.*.
*--*.11.*...*........*.....
-...*.--*.-.***..*.....*...
.1.*.......*.-1**1*.*.--..0
.1**..*.*.*.....-..-*.*1.1.
**.....*0.*-...*.*....*0..*
.***-..--.11..-*........*.*
..**.1*....-......*....*.-.

Generation = 21, Population = 206.
***.-........-****....-*.*.
**-.......-...**..*..***..*
...**.....1**...***.**1...*
.1**1....--..*-.*-*..*..*.*
.*.-*.1*.**..*.*...*......*
*......*.....***..*..***.**
*..*...*...*.-**.*.***1-.**
...0-1............-**..*..*
1*.-..***.*1.-.*..***..***.
...-.-*.*..-*11*****..-.*..
..*....-..*.*******.......-
.***.-.-..***.**-**--......
-***..*1*.....**1*..**....-
......-..*........*.**.-*..
..1..-*.***...*....*...***.
1*....-1..*.........**.**..
***.*.**.**..1-.......0-.*1
....***..*..**..1..-*..1*1*
......*.1..1*........*.1**.
*...-..--.*.*.1......*...**
...***..*..*..........*.**.

*** Life<Cell> 34x27 ***

Generation = 0, Population = 170.
0-------0----0-00----00----
----0-----0---0--0---------
-0-----0-0-----0---0-------
---0-------00---0-0-------0
--------0-----0-00-----0--0
-0-------0-----------0---0-
-0----0----------0--0------
--0---0-----------0------0-
-0-0----------00---0-0-----
------0---------------0---0
0-0--0--0--0--0---00-------
------------0-000------0---
---0----------0-----------0
0000-0------0---0--------0-
--0------------0-0-00-0----
0-----0---0-0-0------------
---0--0---00--------0---0--
00--0-------0-----0---0-0--
-------0---0---00----------
--------------------------0
-0----0-----0---0--0-------
---0----0---0--------0-----
0--0------000---0----------
-------0-0-----0-0-00------
------------0-----0-0---0-0
--------------00-------0---
0--0---0----00-------------
0-----000------------------
00--0---------0------------
00----0---------------0----
---0---0------0------------
-------0-0--0-----00--0--0-
--0--0--0--0-0-------------
-------------0-0-0--00-00--

Generation = 1, Population = 396.
-0--0--0-00-0-011---0110---
00-0-0-00--0---0--00-00----
0-000-0----00----0--0-----0
-00-0--00001100-10-----0-01
-0-0---0---000---1---00-0-1
010---0---0---0-0-----000--
01---010-0------0--0-------
-0---010------00----00--0-0
0-0-0--------0110--------00
0000---00--0---0--0----0-0-
---00--0-00--01-00110-00--0
0-00-0--0-----1-1000--0-0-0
00-100-------01--------0---
1-1---0----0-00----00-0-0--
--1--00---0-----0--11--0-0-
-000-010-010-----0-0--0-0--
-00--010-0-10-0---00-00010-
110--000--00-0-000-000--10-
00--0-0-0-0---01100---0-0-0
-0----00---00--0---0-----0-
0-00-0-00--010-0-00-00----0
00010-00-00--0-----00-0----
-0010--00-1--0-----000-----
0--0--0----0--0-0-01-0--0-0
-------0-0-0-00----010-----
0--0---0------110-0-0-0---0
100-0--1---011-0-------0---
---0001110--000------------
1-00-0-00----0-0------0----
--0000---------------0-0---
000-0--100--00-0--00-----0-
--00-0010-0---0--01100-00-0
-0-00-0---0-0100-000000000-
--0--0--0--001----0011-110-

Generation = 2, Population = 388.
-10---010110--1**00-1**10--
--01--0-1--10--1--11------0
1--1-0-0-0-1--00-1----00--1
----10-------11-*10-00--01*
-------1-00-1-0-0*0-01--10*
--1---10----0---1--0-----00
-*--0-----------100--000--0
01----*-00------0---1100-01
1-10--0-0--001*-100-00-0---
--1-0-0-1---0-010-1-0--1-10
-0011-01-11-01-0-1-*1-----1
1011-10---0--0---11--01---1
11------0--00-*0000-0-0-0-0
*0*-0010-------00-0--------
0---0-1---10-000--0*-00---0
0--1-1----*---0---0---1-10-
-11-01-1-1-*10--00110-1---0
---0--------0---1-----0-*--
-1-0-0----100-1-*1100---1--
01-00---0---------0--00---0
1---0--11---*--1-11--1-----
-1---011-1----00-0--1--0--0
0-1--00-10*-01--0--11---0-0
---1-0-000-1001---1*--00---
-------1---1-11---0-*---0--
1-----0-00--00-*1--010---0-
--1-1----001*--1--0-0---0-0
-00-11--*10---10------00---
---1--0------10-0----------
--111-0--0--0-----000-0-00-
1-1-10--11-0110-0----------
00---11*-010-0100---1-0----
0---1-1--010-*11-----------
-------0-0-11--0---1*-0-*-0

Generation = 3, Population = 451.
0*---0--1----0***--0***-100
0---0-1-*0-*100--0-*-0--001
-0-*010-0--*----0*000-11---
0---*-0---01-**0.--------*.
--0-00-*-11-*01-1.-0--00--.
---000*-00001000-00---00--1
-*-0-0-000--0--0*-1---1-00-
---000.--1000000-0-0--11-1-
*0-1-0----011-*1*---1-0-0--
0---1--0*-0----*--*0--0*-*-
---*-01*0*----110*-.--00---
--*-0*--0-1-01---*--01-000-
**010----0-110*1111--01---1
.1*---*1--0-0001-0--00--0--
--1-1-*--0-1-11--01*-1-00--
1----*-0--.0001-0--00---*10
-**-1-----0**1-0--*-1--0---
---1---0-000--00-0---01-.00
-*--0-0-00*-----*-*-1--0*00
--------1000--0000----1000-
*0--1------0.0-*---0-*-0---
0-----*--*----1-01--*-0--01
-0--01----.0--0------000--1
0----10-1-0-1--000-.00110-0
0--0-0-*0-0*-*--001-.-0----
-00-00-01--0--1**001-10-0--
1-*-*-0-011-*----0-01-0--0-
01-0-*-1**--0-----0-0011--0
-00*0-100-0--*-0-0000--000-
00-*-010-10-10---01-1---110
*0*0--0-**0-**-01000----00-
11--0-**01*101-1-0-1---0---
1--0-0*001*10.**---0----0-0
0---0----10-*--10-0*.---.--

Generation = 4, Population = 380.
-*0----1*--0--.**-0-.**--1-
10--1-*-*1-*-1--011.-10--1-
1--*--1-1--.----1*-110**--1
--0-.-1-0---1..1.10-0---0..
00-01--*0-*-.-*--*--01--10.
-1--1-.---1--11--1---01----
0.----111100-001.-*--0--1--
0-01-1.0--11--11--0--1**-*1
*1-*-1000-1*-1.-.-00-----0-
1--0-0--.01-0-0.0-*1-01.0.0
0--*---.-.1-0-**-*-*1--1---
1-.--.--1--0--1-1.-01----1-
*.----00---*--.*--*001*----
*-.--0**00------0-0-11--100
0-*--0.00-1*-**----.-*-11-0
----0*1-00.11--0--0----0.-1
-**0-------..--1--*1*------
----0---0-----1-1-0-01*0.--
0.0----0--.0---1.-*---0-.--
0-----00-11-0-1111-00-*-1--
*100-00-1--1*--.0-1-0*-1--0
11----.10.0---*01*0-*-1001-
0-111-0-10*--11-----1------
1--1-*10*-1----11--.11-*1-1
1---0-0.1--.0*-01---.0----0
11-0--0-*-01--**.-1-1*1----
*-.0.---1**1*101-1---------
---1-.--..001--0-01-1-*--0-
11-.1-----100*------1---1-0
-1-.11----1--10--1*-*0--*-1
.-.-----..10..----1--------
*--0-1..--.*--1-011-1-0-000
--0--1.11-.*1...-0--0------
10----00---1*1--1-1*.---.-0

Generation = 5, Population = 452.
-*100--**-1100.**010.**11*0
------*0.*-.--0-1*-.-*1-0*-
*--*-1-----.00---.-**1.*---
---0*0*0-001-..-.*10-00-1..
1-01-0-*--.0.-*-1*-0---0-1.
0*1-*0*-----1-*-1*---1*0-0-
1.000-**--------*-*00-1---0
-11--*.-0-**00--00--1-**0**
**1*-*-110*.1-.1.01-1--0-10
--1--1-0*1*0101.-0.*01**-*-
-00.10-.0.*01-*.-*1.-----01
-0.1-.0--0-1-1*--*-1*-100-1
**------000.1-.*11*1-**00-1
*1.-0-..11---00---10-*-----
1-.0--.-1-**0**-0--*-*---0-
10--1**0-1.-*--1001-0011*1*
0.*1111--1-..--*-0*-*-1---0
11---0---0-0-0-----0--*1.--
1*-00--1-0*---1*.-*-----.--
---0----1**-1-****-1-0*0-00
.*-1-1--*-0**0-.--*01.-*0--
*-0-00.*1.1-0-*-*.--*0*1-*-
-0***11-*-*00*-0-001--0--01
-0-*-.--.0*11----0-.---.*-*
---0-0-.-0-.1*11-01-.--0001
**-1-01-*0--00...---***0--0
*-.-*-01-..-.-1*-*0--0---0-
-10*-.--..1-*0-1--*-*-.1---
*-0**----0*11.-0---0--00*01
-*1.-*1--1-0--100**-*100.-*
.0.01---..--**--10-0-00--0-
.1---**.0-..-1--1*--*---1-1
----1*.-*1*.-..*010-100-00-
*1----1---0-.*01-0**.---.0-

Generation = 6, Population = 425.
0.--10-**1*--1**.1-1**.-*.1
100-1-*-.*-.-1-1-.-.-.---.-
.00*0*1---0*11--1.-*.*..00-
---1.-.--1---*.-**-10-1--..
*0-----*01.1*0.--.010-011*.
1.*-.1.0------.-*.---*.--1-
*.1---.*--00-001.-*--0-0101
0-*1-*.011*.111---0---*.-..
*.-*-*---1..-1.-.1*0--0-0*-
10------.*.1---*0-..1-**-.0
0--.*--.1..---.*0**.-0-----
--.--*-011-*-**--.--*1-1-1-
..010-00--1*-0.*-*.*0..1--*
.-*--0.**-000------1-*-0100
-0*-10*-*-**1..01-1.1.-1-1-
*1-1-..10*.-*---11-0-1*-***
-.*-*---0-0.*10*0-.1*0-01-1
*---01-00-0------00--1**.-0
-*--1-0-01.-0--..-*0-0--*00
0-0--0---..0*0..**-*01*-111
.*0*1*0-.01..10.--*1-.0.100
*-1--1..*.----*0*.-0.-.-0*-
--...**0*0.1-.1-0--*--1----
110.-.1-*-.**01-1-1*--1..-.
1-0--1-.---.*.-*--*0.0--1-*
**-*0--0*-01--...--1**.--01
*0.0*0-*-*.-.1**-*-011--0--
0*1.1*11.**0*11-0-*0*-.*--0
*-1.*-1-0-.*-.---00-1---.--
-.-.1**00*111-*11..-.*--.1*
*-.1*0--..--**--*11-------0
.*000.**1-..-*1-*.--.0-0*--
1--0*..1*-*.-*..1--0--1----
.*0-0--00-11..--1-.**10-*10

Generation = 7, Population = 407.
1.10-10****10-.**--**..1..-
-1-1--.-..0.--0*-.-*0*---.1
*-1.1.-0-01*-*0-**0*.*..111
0--*.0*0-*--1.*1**1*-0*--..
*1-1-00*--***-.--.1*-1---*.
-.*0.-.--01-1-.-.*-0-*.-0--
*.----.*---10-1*.0.00111-1*
--*--..--*..*---------*.-.*
*.-*-.01--.*-*.1***1-0-01*-
*11011--***-101*-0..-1**-*-
1--..--**..--1..1*.*11---01
1-.10*0-**1*-*.01.1-.--*---
..--1-110--.11..-.**-..--0*
.-.-01..*-1-----00-*-*-1-1-
--.0*1.-.0..**.1-0-.-.-*--0
*---1.**-..-.-11**11--.-..*
-.*1*--1-11.*--*-0.-.1---0-
.-011*011010-010-1-0-*...--
1*-0*--1-**-1--.*1.-1-0-.11
--1-010-1..1.-*..*-.-**-*-*
*.-.-.11.1**.--.--.*-.1.*--
.1*---....10--.-**--*-.1-.-
-0*..*.-.1**-.-0-0-*10*000-
---.-.*0*-**.--1*--.1-**.-.
--1----.--0...-*-0.1.1-0-0*
..0.-01-*01*-0.**0-*..*-01-
.1.-.-0.1..-.-.*0*01--0----
1.-.*.*-.*.1.*-1--.1.-..-0-
*1*..---10..1.-001-0*--0.0-
-*1.*..-1*-*-1*--..-..0-.**
.-.-.-0-..1-..0-.-*0---00-1
**--1.*.-1..-.*-*.11.-01.01
-00-...*.-**1**.-101-0*--00
.*10101----*..-1*0.**---.-1

Generation = 8, Population = 389.
-**--*-****-11***11*.*.-..1
1--*-0.-..-.1--.1.-.1*100.*
*0-.-*-1--**1.1-..1.....*--
---*.-.1-*01*.*-..-.-1*01.*
**0---1*01..*0.01.-.-----..
-.*-*1.-01---1.0**0-0..--11
.*-0--..1--*1-*.*1.--***1**
-1.--.*-1.*..-1-0-0-11..0.*
*.1.-*1*--.*-..-.***-1---*-
*--1-*-0.**1*--.--..-*.*0.-
--0..--....0--..-..*----0-*
*0.*1.--..-*0*.1-.*1.11.0--
..------1--.*-**-..*0.*-0-*
.-.-1-..*1-0----1-1*-.-*-*0
1-.1.-.0*-...*.*---*-.0.1-1
.101-.**0**-*-*-..-*01.1.**
0***.-1-0--.*-0.0-.-.*1-1--
.----.-----1-1--1---0**..-0
**--.00*-..----..*.---10.*-
---0-----..**0..**0.-.*-*1*
..-*1.-***..*-0.0-*.-.*.*00
*-*1-1*.*.*10-.-**00.-.*0*-
0-*...*0**..0.11-1-*--.--11
-1-.-.*-*0...-1*.0-.*-...-*
-0*0-1-.---.*.1.-1.*.--11-*
.*1.01--*-**--...11*.**01--
.-.-.--.*..-.-..1.-*11100--
*.1..*.1.**-*.--0-.-.-..010
***..-10-1.*-.---*--*0--.--
-.-*...0-.1*1**-1*.-*.-0..*
*-*-.011*.--..-0.1*-0-0-1--
**-0-***1-..0.*-..**.---.-*
-1--...*.-**-**.1-1*11*-0-1
.**---*----*.*-**-.**-0-.-*

Generation = 9, Population = 400.
-**-1.-.**.---***--*.*.1.**
*1-.--.-..-.---.*.-.**---..
*11.1.-*1-..*.*0..-.*....1-
---..0.-0.1*..*-..1.0**--*.
.*--1-*.1*...-.--.1.01011.*
1..0***-1-101*.-..1--**0---
.*1--0..---**0*..-.-0.***..
-*.1-**0***.*1*-1-10**..1.*
*.-.0**.-1..-..-.***1-001*-
.11--*01*..-*0-.-0.*1.**-.0
---..0-....-11..-.**1-0---.
.1***.--..1*1*.*1.**.*-.-1-
..-1---1*--..1**-*..1.*110*
.-.--1...*---001--*.-*0.-.1
--.**-*-.0.*****---.-*-.---
.-1*1.*.-..-*0*-..1*--.-..*
1..*.1*11-1.*11.10.1..-0---
.-01-*-11-1-0--0*--01...*--
..00.1-.0..-1--...*-1-*1..1
0111-10-1..**1.**.-.-**0.-.
..-.**-***...1-.--..-.*..--
.-*-0*....*-10*-..1-.-.*1.1
10**...-....1.--0-0*--.0---
-*0*-**0.-...0*..-1**1..*-*
11.10*-*-00*.***1-.*.1----.
.*-.1-10.-.*--..*--....-*11
.1*-*--**..1.-..*.-*-**11-0
*.*....*.**1..-11-.1.-..--1
*.**.-*1-*..1.0-0*00*100*0-
-.1*.*.--***-**1*..0*.--...
*0*1.-*-.*10..0-.-.01--0-0-
*.0--*..-1.*-.*-*....0--.0.
---0.*..*1**1...*--.*-*----
.**0-0.----*.*0**0*..111.1.

Generation = 10, Population = 365.
-**--.-....--1.**11..**-...
.*0.--.0.*-.1--.*.-*.*10-**
***.-.1*-0.*.**1..1...*..*1
0-0**-*--.**.**-..*.1..--**
..0-*-*.*....0.--*-.---***.
-..1..*-*1*1*.*-..*00..10-1
***0--..-10..-.*.-*-1...**.
-*.-0..-***..**--0-1....-..
*.1*1...1***-.*-*...*1-1*.0
.**1-.1-*..1*-1.01..*...-*-
---..1-*...-**..1...-11--0.
.****.-0..***..**.....1.-*-
..-*-01**-1*.*..1*..-..--1*
.-.---**.*10-1-*1-..-.-.1.*
--*..1*0.1**....1--*1*-.---
.1*.-...0**-.-.-****01.1...
-*...-.*--*..*-.-1.-..1---1
.1-*-*0-*-*----1*----**.*00
..11.--.-..----..*.0*0.-*.-
1-*-0*10-..*.-*...0.-..-.-.
..-...1****..--*0-..-*..*-0
.-*1-**.**.--1*0.**-.-***.-
*1.....0...**.-1--1.-0*10--
1.1.0*.-*0**.-..*0-..-*..-.
**.-1.-.-1-*.*..-1**.*0--0*
..-.-1*1.0.*00*.*1-..*.-*--
*-*-.0-..*.-*-..**0.-.*--0-
*........*.-*.-**-.-.-..--*
....*-*--...-.1-1.--.---*1-
-.*..*.01...1..-*..1..0-.*.
*-.-.0*1*.*1..--*-.---0--11
*.101**.--..-*.-...*.--1*1.
1101.**.**..*....-1.*-.----
..*--1.-01-*.*-**-...***.-.

Generation = 11, Population = 381.
1**0-.-....---.**-*.**.-...
..1*--*1..0.-10...1**.-1-**
*...1*-*-1.*...*.**.*.**..*
101.*-*-0***...-.***-..0-..
.*1-*-*.*....1.-1*1.--0*...
1..***.-**.-***-.**--..-1--
**.---.*1*1.*0.*.-.-*..***.
0..11..0.....**---1-.*.*-..
*.-.-*..*...-.*-*.****-***-
.*.--*-1*..-.0*.1*..*..*-*-
---..-1**.*0..*.-...-*-10-*
..**..--.**...**.....**.0*-
..-*11*..0*..*..**..-..---*
.-.0-1....-1-*-**-..1.-.-.*
--*..*.-.*..*...---.**0.1-1
.-*.-...1..-.0.1*...1-.-...
1*...1**1-**..1*1*.1..*-1-*
.*0*-.11.-.1-11**1-0-.*.*--
..--.--.0..0--1****1*-*1*.1
--*11**--**..1.***-*0*.-.-.
.*-...*...*..10.1-*.1.*.*--
.-**-*.....1-*.1.**0.0....1
**.....-...***-*-1*.11.*-1-
-.-*-*.-*1...0..*-1**1..*0.
**.1*.0*--0..***1*..**-1-1.
*.1.--**.-.*11**.*1***.0*11
.-.0.1-..*.-.-*...1.-..1---
.*...*.....1.*-..-.-.-..01*
.....0*-1...-*-0-*-0.-00*--
0...*..--*.*-..1**.-..10...
.0*1.1.***.**.-0.1.--01--**
*.-1-...-1**-..-...*.--**-*
----....***.***..1-**-.-00-
..*-1**0---.*.-..0...**..-.

Generation = 12, Population = 383.
**.-1.0....--1**.-*.**.1...
*.-.--*-*.-.1*1...*...-*-**
*...-.-.1*.**.*.*...****.**
-1-.*0*1-..**..1....-*.-1..
..-1.0*....*.**0*.*.-11**..
*..****-..*1...-..*00.*1*--
***--0***.**.1.*.1*0..**.*.
-..**.*1....*..-10*-.*..1..
**-.-*..*...-..-*.*..*-*.*0
...-1*1-...1.1*.-**.....-.-
-00..-*...*1....1...-*1---*
..**..-0.....****....**.-.1
..-.-**..-.***...*..1*.-1-*
.-*11-...*--0*-**-..*.0.1.*
-0***..-....**..---**.1.--*
.-*.-*..*.*1*-.-.*.**-*-...
*..*.*..--**..-.-..***.-*-.
**-.1*--.-.--*-..*0--.*.*0-
.*--.1-.-*.110-....-.0*-**-
--*--**0-*****....-.-..0*-.
.*0...*..***.*1.*-..*.*..00
*1*.-.....**1..*...1.1.***-
.*.*...-..**.*-*0-..-*..0*-
-.1*0**-****.-...--..*.*.1*
**.-*.-.---*....*.....-*--.
*.-.1-.**0**-*....*..*.1.**
.1*-**-...*-.1.*.**.1.**1--
.....*.....-**-..0*1.-*.--.
....*-*--.*.1.-11*--.1-1.-1
-****..01*.*-..*.*.1..*-.*.
*1*-.-......*.01.**011-0-**
.*-*1..*1*..0.*1*..*.0-*.-*
1-01*****...**...*-**-*--1-
...-***1-11**.0..1*.**...1.

Generation = 13, Population = 337.
**.0-*1*...---.*.1.*..***..
*.-.10.-**-*-.*..*....-*-**
**..1.-.-**...*.....**.*..*
--1.*1.*-......*.*..-..0*..
..1*.1.......**1***.--*..*.
*..*...-.*.*.*.-...11..-.--
***00-..***..-...-.-.....*.
-..**..-.*.**..--1.-**..-.*
..1*1.......1*.1*..*..-.**1
*.*1*.-1..****.*1.*..*..-*-
11-.*-**..*-....*...1*-1-0.
.***.*0-..*..*****.....*0.-
..-.-**..0.*.....*..-..1*-*
.-.*--....1-1.-.*-....1.*.*
11...*.-.**...*.101...-.11.
.-..-*...***.-.-.....1*1...
*.**.**.11*...-.-*....*0*-.
**0.**1-.0.--*1...1-1.*..-0
**--.--.0*.-*11....-.1*1..1
-1*11*.1-.........-.0..1.1*
*.1*.****.....**.1..***..-1
*-.*-.......*......-.*.*..-
*....*.-......-*11..1*..-.-
1.*.1*.-.*...0.**--....*.-*
***-..0.--0...........0*1-.
*.1.--..*-.*-.*.*.**.*.-.*.
.*.-**0.*.*-.-..*...-...*-0
...*..*....1**1*.1.**-..0-.
..*.*0*-1**.**1--.--*---.--
-...**.1-***1*.....*...0.*.
*-.1.-....***.-*.*.---11-**
..-.-...**.*-..*.....10*.1*
-11*.............*1..-*-0*-
...-...-0*-**.-..-*.**...*.

*** Life<Cell> 9x30 ***

Generation = 0, Population = 86.
-0-000-0-0---------0---0---0--
-0--0----0-00-----00-----0-0-0
-0-0--00---00-0---0-----------
-0--000---000-----0-00-0---0--
00--0--00--00-------000--0-0-0
0-0-------00---0----00-0-----0
----0-0-0-0------0---000---0--
0-0-------------0---------0--0
-0------000----00-00---0-0---0

Generation = 4, Population = 132.
1*0-**-1-*-1*1*1--**101--11.0-
-*.-**-0-*0-0..0**010-10--0.1-
--0---01-10.--*00100-.-.-----*
-----1*1-110-..0*0-01-.101-.0.
-*1-*--.*--.----1*-1.--.1*1.-*
*-0---.0-.-*0-01111*0---11-1-*
--011--0-*-0-0-0*11--0--*-0*--
-0--.1--1--*---01-*--100-11-.1
0---0--**-*.00..00-***1-------

Generation = 8, Population = 131.
***1**-*-.1**-.---*..-*1-*-.-.
-..*..1*0*--**.1***.-1..1*...0
-*-1.1*.**-.*1.11--.1.**1*1--*
-.---..-.1.***.-..1**-*.*-1.-.
.*.0.1-*.-1.0*11*.-*.-1...*.-*
*.00--.*0.-.---**1.*--.**1*.-*
---*.11*0..**01-***0-*1-.*-.*0
1-0*...-.*-.-01-.-*--*1*1.1**-
110.--0**-**-**.-.-.*.---0**0-

Generation = 12, Population = 111.
.***..1.0.**.1*.*1...-**1...**
*.....*.-.--.**...*.11*.1..*.-
*.-...*...*....-**-*.**.1.1-1*
*.1--.*..*.....-.****-*..*1.0*
**.-.*-..0*.-.1...-..1...*..-*
*...11*.-*...--*.-*.**...*..**
-0*....*-*...-*..**--..-*.1..-
..0....***-.-..0*0.-1****.1.*.
***.*1-**1....**1*.*...1-1..-1

*** Life<Cell> 1x6 ***

Generation = 0, Population = 1.
--0---

*** Life<Cell> 1x31 ***

Generation = 0, Population = 2.
-------------0------------0----

Generation = 4, Population = 4.
---------0-------0----0-------0

Generation = 8, Population = 4.
-----0------------1--1------0--

Generation = 12, Population = 10.
-0-------0----0--1*..*1-11----0

Generation = 16, Population = 5.
-0--------1---1--......-..-0-0-

*** Life<Cell> 13x1 ***

Generation = 0, Population = 1.
-
-
-
-
-
-
0
-
-
-
-
-
-

*** Life<Cell> 25x13 ***

Generation = 0, Population = 137.
-0--0-000-0--
--00-0--0----
-0-00----0-00
00-00-0-00---
0-----00-0-0-
--0---0-00-0-
0--00---00--0
---0--0---0--
---00000-0000
----0--00000-
0---00-0-0-0-
-0---------0-
-0-00-0--0---
---0-00--0--0
-000--0------
0------0-0---
--00000-00-0-
-0-00-----000
000--0-00--00
--0--00-0---0
--0----00000-
----000-0000-
-00--------0-
-----00--00--
0-000--0--000

Generation = 2, Population = 153.
--0-01*00--1-
-----0-0*01--
0-1*00101---*
00--0-*1**1--
-01-11-*-----
-1--1-*1---*-
-1-0*--1--00-
-01--0*0--*-0
-01-*0*01-0-*
-000-10*0---0
00-1--0*--1-1
----0111001*1
1-------1*---
0--01*-11*1-0
0-00-------0-
000-1-10--1--
-0*---*1-01-0
0*-0---1--*-0
--00------0-*
10---0-0-0---
----1-1---*0-
---1*---0--*-
--------1---1
---1-**-1*0-1
0--0--001---*

Generation = 4, Population = 154.
--0--***0-011
10--10-*.-*01
--..*-*0*--*.
00----*-...-1
-**-**1.--1*0
1--011.*-1-*1
-11-*0-------
1-1010.-0-.--
--.1*-.0-0*-*
0-*---0.---*-
---.-*-.1-.-1
0*-0-1..--..-
**---0--..1-0
--001.1....-0
0---1-*01-1-0
-*-11-1-1-.-1
--.1-1**-**-*
*.-*100*10*00
1-*--*-100--.
.*0-00-0001--
---0.-1-11.-1
0-1..-*1**-.0
0--0---11-11.
-0-.-..1*.--1
-1***-0010-1.

Generation = 6, Population = 148.
1-01-...*-0.1
**-1---..1*0-
-1..**.**--*.
*00000*-..*-*
*..-*.1.00*.*
1-1--*..0-1.-
1.--.-1--101-
-*--1-.---.0*
-1.1.0*0-*.-.
-1.01--*111*1
1-1*-*-.1*.-1
-*--11*.--..-
.*0-1-1-..-0-
00*--**....--
-1-11-*0101--
0*111--0.-*--
1-*1-1.*-**-*
..0*-0*.*-.-0
*-.-1.1.0**-*
..-1*---00.--
-1*-.0.1**.-.
---*.1....1.-
*---1--..-..*
0--.1*....---
-1**.0****-1.

Generation = 8, Population = 140.
*--1-...*-*.-
*.-*1--*...-1
--*.*..**11.*
**0-0-*1..*-*
**.0*.**00*.*
-----**.---*-
..*-.1-*0**1-
1.---0.*--*0.
-1.*.-*0-*.1.
-*.-.--**-1.-
--*.0.1.-*.-*
-.10-***-*..-
..00*--1..*0*
*0.0******.--
110---.------
-.*-1---.*.-*
.*****..-..1*
*.0.--*..1.-0
.-.1....*.*-.
..-..0-0-**0-
-..1.-....*0.
-11*....**-.-
.*--*--..0.**
--1.1*..*.11*
-***.0*.*.-1.

Generation = 10, Population = 129.
.--.1.*..-..*
.*1.-1-....-*
1-****.*.-1.*
.*-10-.....0*
*..**...-0...
---*1*..--*.-
*..*.1*.-*..-
1*****..--.*.
-....1**-*...
1..-.11..--.*
10.*-.**1*.-*
0**0-*.*-*.*-
.*0-.--1...-.
.-.-*.....*--
1*01--.*--1--
-..*.010...-*
.....*..-.*.*
..-**-**.1*0*
.-.-.*.***.-.
..-**-1-*..0-
0....*..**.-.
---.....**1.*
*.-0*00..***.
-*..1**...*-*
1..*.0*..*0*.

Generation = 12, Population = 106.
.-*.-*...-...
.*-.*.-....1*
1-....*..--..
.*-**-.....**
....**..-0..*
11-...*.1*..-
....***.-.**-
-*.*.*.*-0...
0....*.*1....
**.*.1*..11..
*-**-*..-.*-.
-..0-.*.-...1
..-0.--**..-.
*-.-*......--
..011-..--.-1
-*..*0-0...1.
.*.**...1.*.*
..-*.0...1.0*
.-.-.......0*
..-**-1-...0*
-..***.*...-.
--1*...**.-..
..-*.-0.*....
****-..*.**-*
1*...0....-*.

Generation = 14, Population = 112.
.0..-....-...
.*-*.*1......
1-....*..--**
*.0..1......*
*....***--...
..*...**....*
*.**..*.-.*.1
-.....*.1-*..
*...*.....*..
*.*..*.*..1*.
*1**0*..1.*1.
1..0*.*****.-
..-*.1-**..-.
.-.1.*.....0-
..-1*-..--.--
1*.**---...1.
.*.**...1..*.
..***0...1*0.
.-.-.......-.
..1..-10...0*
-*.*.*.**..-.
1***.*.**.-..
..*..--...*..
...*-.*****-.
1....-.***-*.

Generation = 16, Population = 129.
*-*.-....-...
*.1*.*-....*.
*1..*.*..1*.*
.*0.**.**.*.*
....*..*11.**
.*.*.*...*...
.*...***1***.
1*.*....--**.
**.....*.***.
*...*....*...
*1.*-*...**1.
.***.*...***1
.*-*.*-...*-*
.0.1.**....--
..-**-*.--.01
*....-1-..***
*.*.....1*.**
..*..**..**-*
.1*-*.**.**-.
..1..0*-...**
0...*.*....1.
...*...***-*.
...**--.*.*..
....*.**...-.
-....0....-..

Generation = 18, Population = 125.
.1**-....-...
.*-***-**.**.
*-*...*****.*
*.*...*...*.*
*..*.....1.**
.**..*..*...*
.....***-..**
-.....*.--.**
...*....***..
.**.**..**...
.1*.*.*....1.
*.....*..**.-
**-*.*1...*1*
**.-...*.*.1-
.***.1..1-*--
...*.*.1.*...
..*.....*....
.****....*.1*
.**-*..**.*1.
.**..**0.*.**
-.*...*.*..-*
..*.....*.**.
..*..*-...**.
...*...*...-.
-....0**..-..

*** Life<Cell> 8x4 ***

Generation = 0, Population = 16.
-0-0
00-0
--00
000-
0-0-
0--0
0---
-0--

Generation = 2, Population = 11.
--0-
----
--0-
-0*0
0--0
-1-0
----
00--

Generation = 4, Population = 19.
0---
-000
---0
0**-
0110
010*
*--1
--1-

Generation = 6, Population = 16.
--1*
--0-
-0*-
-**1
*-10
*.-*
.--*
-*-0

Generation = 8, Population = 15.
0--.
11-0
-0.-
-*.1
*--*
..1*
*--*
-*-*

Generation = 10, Population = 10.
-1-.
1---
-0.1
0.*.
.--*
...*
.0-*
-.-.

Generation = 12, Population = 5.
---.
----
--.1
-*.*
.1-*
....
.--.
-.-.

*** Life<Cell> 8x32 ***

Generation = 0, Population = 47.
-0-0-------00-0--------0---0---0
----0----0--0--0----0-000---0---
--0--0------0------0----0-------
----0---0-------0--------0------
-0--0-0--------------0----0-----
----0-0-0------0---0---------00-
----------------------0--0------
-0-----0----------0-00------00--

Generation = 1, Population = 102.
0--------001--------0--1--0---0-
-00-----0-0--0--0-----11-0---0-0
-0-00-0-00-010-00-0---0-1---0---
-0001-00-0--0--0-0-0-0----------
0-00--10-------00--00-0----0-00-
-0-01-1--0----0-0-0-000--00-0110
-0--0-000------0--000--00-0-0-0-
0-0---0-0--------0--11---0-0110-

Generation = 2, Population = 103.
--0------11*00--0--0-0-*0--0----
--1-0-001-10-10-100-00--0-----0-
0-----10--01*----0----10---0---0
--1---1-010-1-0---010-0-0--0000-
---100*-0---0---------10-0--0---
-10----0--0--0--1-1-1----1-0-*-1
-1--1-1-------------10-11-10----
-0-0001010-----00----*00--01*--0

Generation = 3, Population = 130.
-0100-00-**.---01---01-*-00-0-0-
00*----1*0*1--1--1101--110---0--
-0--00*-0-1*.----100---11-01-00-
00--1--0---0---0--1-1-----0-1-1-
-00*--*01--01-0-0--0-0-101001000
0-1--01--0-0--00----*-0--*010.--
0---*0*0000--0-0--00--0-*0-1-0--
01-11-*--10---0110---*---0-**10-

Generation = 4, Population = 111.
--*-1-1-0..*---1*-0--*-*0-1--0-0
1-.--00-.1.-01----*1--1**-00-10-
0--0--*-10-.*-000---0-1--0-*0--0
11--*-110---------*---------*---
0-1*--.1*-01*-1--0----1*-*-1--11
11*---*00101------10*01-0.1--.11
--0-.1.-----0-----11--1-*11--1--
-*-*-0*----0--1*-1-01.---1-*.*10

Generation = 5, Population = 121.
00.--0*--...-00*.-1-0.0.--*-010-
*0.0-111.**--*---1**---..0--0-10
--0---.0--1.*01-11----*---0.----
**-0*--*1-00---00-.11--0---0*01-
---*--.*.0-**--00-000--*0*0--0--
--.---*11-1-0-0----1*-*01.*--*--
011-**.00000-000---*1-*-**--0*0-
0.0.--*0--0--0*.--0-*.0--*0.**-1

Generation = 6, Population = 110.
--*01-.--...0--..-*0-.-.--.-----
*-.---*-***1-.10--.*---..-0011-1
-0-000.----.*1*0----00.----.-0-0
.*1-*01**1--10--1-.--0-1-001*1*0
001*--...--.*0----1-10-.1.------
11*01-.---*-10101--*.-*1*.*1-.--
----.*.11--10--10--.*-*1..11-.1-
1.1*1-*---1-0-.*-1-0*.10-*1**.1-

Generation = 7, Population = 126.
00.-*0.-0***-00..0*-0.-.--.001-0
.-.---.-.***0.--1-**-0-..01----*
-1011-.0--1..*.-----1-*1-0-.0-0-
..--.1-***00*1---0.-1---01--**.-
---.00***00..1-0-0-0*--.*.--1011
-*.1*-.111.1*1-1-0-*.-.**.*-0.1-
-1--.****00*1--*---.*-.*..**-**0
-.***0*-11-010.*1--1*.---**.***1

Generation = 8, Population = 119.
11.0.1.01...011..1*0-.-.-0*1-*-1
*-.0-1.1....1.10-1*.---.*-*--1-*
0*--*-*1-0-..*.-110-*0**1--*10--
..10.*1...--.*0011*--00---01...0
-0-*-1...--..--1----*0-...01*1**
1.**.0.*-*.-.----1-*.-.**.*11.-1
0*--.....--.*00*-0-.*0.*....-..-
-.***1.0--1-*1***10**.-00**.*..-

Generation = 9, Population = 104.
-**1.*.-*...---**-.10.-.-1**-.-*
.0.10*.-....*.-11*..101.*0.0---.
-*-1.-.---1.*..0--1-*1..-00.--0-
*.*-..-*..--.*-1***111--01-*...1
---.--...0-..1-*--1-*--*..1-.-.*
*..*.1*.-..-.11-1*-*.-.*****-.-*
-.1-.*..*00**11.0--..1......-..0
1*****.-11--**...*-***1--*.....-

Generation = 10, Population = 122.
1*.-.*.0....0-1*.-.*-.0.--.*0.0.
*-.*-*.-...*..1****.*1*.*1.11-1.
-*0*.0.1-0-***.-11*0.*.*111*-0--
.**-..1...0-**-*...---0-1--*..**
--1.-1*..-0.*-1.00*-.-1*..*1.-**
....*-*.1..1.*-1-*1**0******1.1*
-.*0...**1-*.--.10-*.*.*....-..1
******.0----..*...-.***00......1

Generation = 11, Population = 97.
-*.1*.*-....---..1**-.1*01**-.1.
*0.*-*.-*.**..-......*...-.*-1*.
-.1*.1.---1....0-*.1....-*-.1-00
...-*.**.*10..0*...1--1-*-0..*.*
--**-**..01..--.11.-*-*....*.1..
..*.*1*.*..*.*1--.*..1...*..**-.
0..-.....*-.*11**-1.......**0..-
.*..*.*1-1-0......-.**.11......*

Generation = 12, Population = 114.
-*.-**.0....---..**.0.**--**0**.
*-..0**1.***..-.**.**.**.-.*1*..
0***.*.11--...*1-.***...-*-*----
...0...**.-1..1*.*.*-1*-.1-*.*.*
-0*.-....--.*1-.***-*0**.***.-..
.**.*****..*..---.**.-.......*1.
-*.-*....*0*.***.-*****.****-*.1
.......*-*--****..0....**..*....

Generation = 13, Population = 106.
-..1*..1*.*.---.***.1.**01*.1.*.
*0..-..*.**...1**.....***1..*.*.
-***.*.*--1*..*--......*1.-*---0
*..1*.***.1-*.-.....--.-.-0*....
0-..0*...--***-**..-.1.***.*.-..
*...******.*..111....-.......**.
0**0*....*-*...*.0..***.****-*.-
........-*--*..*..1.*****..**...

Generation = 14, Population = 96.
1..*...-*.*.--1.**..-**.1****...
*-..0..*......-.*....*...-..*.**
0..*.*..--*..**-1.....*.-.-*----
*..-...****-..1*....-1*-.-1**...
-0..1....0-..*1.*..-.-..**.**1..
*.*...****.*.**--*..*-.....*.**.
-**-*.**.*-**....-.**...****0**-
.***....1.1-....*.-**...*..**...

Generation = 15, Population = 95.
*......-....-1-***..1**.******..
*0.*-....*...*-.*....*.*.1..**..
-*..*.**1-*..**1*.....*.-.-.1-00
**.1*...*.*1..*.*...1**1.-*..*..
0-..-.*..--.*.*.*..-.1...*...-*.
*.*...*..*.*..*1-..**1..........
-..0.**...0***...0*..*..**..1.*1
.*.*...*-*--......1**...*.......

Generation = 16, Population = 114.
**.....-....0*-***..********.*..
*-*.-..***..**-.....*..*.*......
0...**.*-0****.-**..*...-.1**-11
*****.*.*.***...**..*..*.-...*.*
--**1*.*.01.*.*.*..0.-.......-..
.*....**......**-***.**.**...***
0*.1******1****..1...*..**..-..*
..*.*.*.-.-0*....*-**...**......

Generation = 17, Population = 91.
**.....1*...-*-.*...****.**.....
*0..0.**.*....1*...**..*.....**.
-...**..--.....1**.***..-.***0*-
*.................***....-.***.*
00..*....1-.*.*....1.1***....-.*
**..............1*.*.*****....**
1*.**...**-...**.-...**...*.-..*
.**.*.*.1*--......-.*...**......

Generation = 18, Population = 84.
**....*-*...0.-*...******.......
*-..1.**......*..**....***....*.
-*..***.-0....*-**...*..-.*..-.-
**..**.........***.....*.-*....*
1-.......-1......*.-.-...*..*1.*
...**...**...**.*.*......*....**
-..***.***1....**1........*.-.**
***.**.*-*1-......-..*...*......

Generation = 19, Population = 77.
**...**1....-.-...*****..*......
*0..*...*....**..***.....*......
0*.*...*1-....*1......**1.*..-.1
**..*.*........*..*......-**..*.
*-.*.*...--...*...*-.-..***..*.*
...*.*.*......*...*......**.....
1*.....*..-...****.......**.-.**
.**..*.*1.-0....*.-.............

Generation = 20, Population = 80.
**...***....-.1..*..**..........
.1..**..*....***.*.......**.....
1..***.*-0...*.-**.*...**.**.-.-
...*****.......*.........-.*..**
*-**.*...--...**.**1.-..*.....*.
***..........**.*.*........*...*
**..*..*..-...*.**.......**.-...
***...***.1-....**-.............

*** Life<Cell> 24x16 ***

Generation = 0, Population = 59.
-------0--------
-0----------0---
---0---0-0------
0----------0--00
------000-----0-
-----0--------0-
----0---0----0-0
-0---0----------
---0-0---0------
--------0------0
-00---0---------
--0----0---00--0
---------0------
-----0----------
-0------0-0-----
0---------------
-----0-----0-0--
----------------
------------0---
---0--------0---
-0-----0-0-----0
-----------000-0
0---------------
------00------0-

Generation = 1, Population = 159.
-0----0-0---0---
0-00-----0-0-0--
000-0-0---000-00
-0-0--0-000-00-1
0-----1-10-0-0--
-------0------1-
-0-0-0-0-0--0-0-
0-00-10-00---0-0
-00--10---0----0
-000-000------0-
01-0-0--0--00---
--10----0001100-
--0--0-00-000--0
-0--0-0-000-----
--0--0-0---0----
-----0--0-00-0--
0---0-0---0---0-
-----0-----000--
---0-------010--
-00-0--0-0-010-0
0-00--0---00-001
00-----0-001-1-1
-0----00---00000
0----0110----0-0

Generation = 2, Population = 166.
---0-0----------
1--1------01---0
-1----1000-1--1-
010--0---1----0*
---0-0*0--0-01-0
00-0-0-1---00-*0
--01-1010100-01-
-----*-01-----01
--100*1-0--0-0-1
-11--111--0000--
1----1--1-------
0---0---1-1---1-
--1---011-11----
0-00-------00--0
---0-10-000100--
0-0--1----------
-0-0---0001000-0
0--0--------1---
-0---0-0-001-100
-1---0----01*101
1--1-0-0-0-101-*
---0--01-11*0---
010----1-0-----1
----01**10-0-101

Generation = 3, Population = 187.
0-01--0---00---0
--0*00000-1-0---
0*-0--*---0*00*0
1*1-010--*-00--*
---1-1.-1--0-*--
110------00---.-
0-1--*--1---01*0
-----.--*-0--0--
-----.--10-1010*
-*---***0011--00
*-0--*--*0-0000-
1010--0---*--0-0
-0*-001-------00
----00-0-001--0-
--01--1-1--*1100
-0-00*-0-------0
0-010001----11--
-00100--0--0*00-
-10001---11---1-
-*000-0--0--.-1*
--0*-101-1-*--0*
-0-10-1*-*-.----
1-1-000-0---00-*
00001-**-----*--

Generation = 4, Population = 145.
------1-00-1--0-
---.----1---1-0-
-.-100.-0--.--*-
-.*-1*-0-*01-0-*
--0-0**0-0-10.00
--------011-0-.0
10*10.01*--01**1
0-0--.-0*0--0-0-
-0---.1-*----*1*
-*--0**.---*001-
*-1-0*0-.----1-0
-1-1-0101-*--1-1
--.0-1---0-1----
-0------01-----0
--1-01-----*--1-
---11.-1---0---1
---------------0
-----1-----1.1-0
0*--------*-1---
0.----1-0--1.1*.
-0-.-*-----.01-*
------*.0*1.010-
*-*-1-1----01--.
--1--1**-----*01
